   5
# data nr     1
C      0.00000000      0.00000000      0.00000000
X     -0.00000000     -0.00000000      0.00000000
X      0.00000000     -0.00000000     -0.00000000
X     -0.00000000     -0.00000000      0.00000000
X     -0.00000000     -0.00000000      0.00000000
   5
# data nr     2
C      0.00000000      0.00000000      0.00000000
X      0.27616045     -0.12224487     -0.10303593
X     -0.46522940     -0.01272414     -0.15481313
X      0.17794937      0.15811210      0.28936232
X      0.01111958     -0.02314308     -0.03151325
   5
# data nr     3
C      0.00000000      0.00000000      0.00000000
X      0.27762572     -0.23100046     -0.26593981
X     -0.45216513      0.01974039     -0.10224651
X      0.16884293      0.21689550      0.37498811
X      0.00569647     -0.00563543     -0.00680179
   5
# data nr     4
C      0.00000000      0.00000000      0.00000000
X      0.28452973     -0.23994619     -0.27736085
X     -0.45224062      0.02297786     -0.09740644
X      0.16753807      0.21706118      0.37485632
X      0.00017282     -0.00009285     -0.00008903
   5
# data nr     5
C      0.00000000      0.00000000      0.00000000
X      0.28464228     -0.23976127     -0.27705030
X     -0.45322305      0.02335205     -0.09713103
X      0.16857940      0.21640920      0.37418091
X      0.00000137      0.00000002      0.00000043
   5
# data nr     6
C      0.00000000      0.00000000      0.00000000
X      0.28465170     -0.23979498     -0.27709818
X     -0.45311455      0.02331317     -0.09715778
X      0.16846284      0.21648181      0.37425595
X     -0.00000000      0.00000000      0.00000000
   5
# data nr     7
C      0.00000000      0.00000000      0.00000000
X      0.28465063     -0.23979082     -0.27709225
X     -0.45312802      0.02331798     -0.09715448
X      0.16847738      0.21647284      0.37424673
X      0.00000000     -0.00000000     -0.00000000
   5
# data nr     8
C      0.00000000      0.00000000      0.00000000
X      0.28465077     -0.23979135     -0.27709299
X     -0.45312633      0.02331738     -0.09715489
X      0.16847557      0.21647397      0.37424789
X      0.00000000     -0.00000000     -0.00000000
   5
# data nr     9
C      0.00000000      0.00000000      0.00000000
X      0.28465075     -0.23979128     -0.27709290
X     -0.45312654      0.02331746     -0.09715484
X      0.16847579      0.21647383      0.37424774
X      0.00000000      0.00000000      0.00000000
   5
# data nr    10
C      0.00000000      0.00000000      0.00000000
X      0.28465075     -0.23979129     -0.27709291
X     -0.45312652      0.02331745     -0.09715485
X      0.16847576      0.21647384      0.37424776
X     -0.00000000     -0.00000000      0.00000000
   5
# data nr    11
C      0.00000000      0.00000000      0.00000000
X      0.28465075     -0.23979129     -0.27709291
X     -0.45312652      0.02331745     -0.09715485
X      0.16847577      0.21647384      0.37424776
X     -0.00000000     -0.00000000      0.00000000
   5
# data nr    12
C      0.00000000      0.00000000      0.00000000
X      0.28465075     -0.23979129     -0.27709291
X     -0.45312652      0.02331745     -0.09715485
X      0.16847577      0.21647384      0.37424776
X     -0.00000000     -0.00000000      0.00000000
   5
# data nr    13
C      0.00000000      0.00000000      0.00000000
X      0.28465075     -0.23979129     -0.27709291
X     -0.45312652      0.02331745     -0.09715485
X      0.16847577      0.21647384      0.37424776
X     -0.00000000     -0.00000000      0.00000000
