# data nr     1
  1      0.89910763
  2      0.98172162
  3      1.11917074


# data nr     1
  1      0.89910763
  2      0.98172162
  3      1.11917074


# data nr     1
  1      0.89910763
  2      0.98172162
  3      1.11917074


# data nr     1
  1      0.89910763
  2      0.98172162
  3      1.11917074


# data nr     1
  1      0.89910763
  2      0.98172162
  3      1.11917074


# data nr     1
  1      0.89910763
  2      0.98172162
  3      1.11917074


# data nr     1
  1      0.89910763
  2      0.98172162
  3      1.11917074


# data nr     1
  1      0.89910763
  2      0.98172162
  3      1.11917074


# data nr     1
  1      0.89910763
  2      0.98172162
  3      1.11917074


# data nr     1
  1      0.89910763
  2      0.98172162
  3      1.11917074


# data nr     1
  1      0.89910763
  2      0.98172162
  3      1.11917074


# data nr     1
  1      0.89910763
  2      0.98172162
  3      1.11917074


# data nr     1
  1      0.89910763
  2      0.98172162
  3      1.11917074


# data nr     1
  1      0.89910763
  2      0.98172162
  3      1.11917074


# data nr     1
  1      0.89910763
  2      0.98172162
  3      1.11917074


# data nr     1
  1      0.89910763
  2      0.98172162
  3      1.11917074


# data nr     1
  1      0.89910763
  2      0.98172162
  3      1.11917074


# data nr     1
  1      0.89910763
  2      0.98172162
  3      1.11917074


# data nr     1
  1      0.89910763
  2      0.98172162
  3      1.11917074


# data nr     1
  1      0.60144777
  2      1.00036567
  3      1.39818656


# data nr     2
  1      0.53237492
  2      1.05247123
  3      1.41515386


# data nr     1
  1      0.60144790
  2      1.00036567
  3      1.39818642


# data nr     2
  1      0.53237488
  2      1.05247124
  3      1.41515388


# data nr     1
  1      0.88902019
  2      1.11097981


# data nr     1
  1      0.87403630
  2      1.12596370


# data nr     1
  1      0.87403630
  2      1.12596370


# data nr     1
  1      0.87403630
  2      1.12596370


# data nr     1
  1      0.87403630
  2      1.12596370


# data nr     1
  1      0.87403630
  2      1.12596370


# data nr     1
  1      0.00010000
  2      0.00000000
  3      0.99554615
  4      3.00445385


# data nr     2
  1      0.00010000
  2      0.00000000
  3      0.94656917
  4      3.05343083


# data nr     3
  1      0.00010000
  2      0.00000000
  3      0.94680946
  4      3.05319054


# data nr     4
  1      0.00010000
  2      0.00000000
  3      0.94781869
  4      3.05218131


# data nr     5
  1      0.00010000
  2      0.00000000
  3      0.94701389
  4      3.05298611


# data nr     6
  1      0.00010000
  2      0.00000000
  3      0.94717706
  4      3.05282294


# data nr     7
  1      0.00010000
  2      0.00000000
  3      0.94730721
  4      3.05269279


# data nr     8
  1      0.00010000
  2      0.00000000
  3      0.94720431
  4      3.05279569


# data nr     9
  1      0.00010000
  2      0.00000000
  3      0.94717706
  4      3.05282294


# data nr    10
  1      0.00010000
  2      0.00000000
  3      0.94743080
  4      3.05256920


# data nr    11
  1      0.00000000
  2      0.00000000
  3      0.94722977
  4      3.05277023


# data nr    12
  1      0.00000000
  2      0.00000000
  3      0.94718816
  4      3.05281184


# data nr    13
  1      0.00010000
  2      0.00000000
  3      0.94717940
  4      3.05282060


# data nr    14
  1      0.00010000
  2      0.00000000
  3      0.94717755
  4      3.05282245


# data nr    15
  1      0.00010000
  2      0.00000000
  3      0.94717716
  4      3.05282284


# data nr    16
  1      0.00010000
  2      0.00000000
  3      0.94717708
  4      3.05282292


# data nr    17
  1      0.00000000
  2      0.00000000
  3      0.94717706
  4      3.05282294


# data nr    18
  1      0.00010000
  2      0.00000000
  3      0.94717706
  4      3.05282294


# data nr    19
  1      0.00000000
  2      0.00000000
  3      0.94717706
  4      3.05282294


# data nr    20
  1      0.00010000
  2      0.00000000
  3      0.95605027
  4      3.04394973


# data nr     1
  1      0.87403630
  2      1.12596370


# data nr     1
  1      0.00010000
  2      0.00000000
  3      0.99554615
  4      3.00445385


# data nr     2
  1      0.00010000
  2      0.00000000
  3      0.94656917
  4      3.05343083


# data nr     3
  1      0.00010000
  2      0.00000000
  3      0.94680946
  4      3.05319054


# data nr     4
  1      0.00010000
  2      0.00000000
  3      0.94781869
  4      3.05218131


# data nr     5
  1      0.00010000
  2      0.00000000
  3      0.94701389
  4      3.05298611


# data nr     6
  1      0.00010000
  2      0.00000000
  3      0.94717706
  4      3.05282294


# data nr     7
  1      0.00010000
  2      0.00000000
  3      0.94730721
  4      3.05269279


# data nr     8
  1      0.00010000
  2      0.00000000
  3      0.94720431
  4      3.05279569


# data nr     9
  1      0.00010000
  2      0.00000000
  3      0.94717706
  4      3.05282294


# data nr    10
  1      0.00010000
  2      0.00000000
  3      0.94743080
  4      3.05256920


# data nr    11
  1      0.00000000
  2      0.00000000
  3      0.94722977
  4      3.05277023


# data nr    12
  1      0.00000000
  2      0.00000000
  3      0.94718816
  4      3.05281184


# data nr    13
  1      0.00010000
  2      0.00000000
  3      0.94717940
  4      3.05282060


# data nr    14
  1      0.00010000
  2      0.00000000
  3      0.94717755
  4      3.05282245


# data nr    15
  1      0.00010000
  2      0.00000000
  3      0.94717716
  4      3.05282284


# data nr    16
  1      0.00010000
  2      0.00000000
  3      0.94717708
  4      3.05282292


# data nr    17
  1      0.00000000
  2      0.00000000
  3      0.94717706
  4      3.05282294


# data nr    18
  1      0.00010000
  2      0.00000000
  3      0.94717706
  4      3.05282294


# data nr    19
  1      0.00000000
  2      0.00000000
  3      0.94717706
  4      3.05282294


# data nr    20
  1      0.00010000
  2      0.00000000
  3      0.95605027
  4      3.04394973


# data nr     1
  1      0.87050782
  2      1.12949218


# data nr     1
  1      0.00010000
  2      0.00000000
  3      0.99472232
  4      3.00527768


# data nr     2
  1      0.00010000
  2      0.00000000
  3      0.94654858
  4      3.05345142


# data nr     1
  1      0.87403630
  2      1.12596370


# data nr     1
  1      0.00010000
  2      0.00000000
  3      0.99554615
  4      3.00445385


# data nr     2
  1      0.00010000
  2      0.00000000
  3      0.94656917
  4      3.05343083


# data nr     3
  1      0.00010000
  2      0.00000000
  3      0.94680946
  4      3.05319054


# data nr     4
  1      0.00010000
  2      0.00000000
  3      0.94781869
  4      3.05218131


# data nr     5
  1      0.00010000
  2      0.00000000
  3      0.94701389
  4      3.05298611


# data nr     6
  1      0.00010000
  2      0.00000000
  3      0.94717706
  4      3.05282294


# data nr     7
  1      0.00010000
  2      0.00000000
  3      0.94730721
  4      3.05269279


# data nr     8
  1      0.00010000
  2      0.00000000
  3      0.94720431
  4      3.05279569


# data nr     9
  1      0.00010000
  2      0.00000000
  3      0.94717706
  4      3.05282294


# data nr    10
  1      0.00010000
  2      0.00000000
  3      0.94743080
  4      3.05256920


# data nr    11
  1      0.00000000
  2      0.00000000
  3      0.94722977
  4      3.05277023


# data nr    12
  1      0.00000000
  2      0.00000000
  3      0.94718816
  4      3.05281184


# data nr    13
  1      0.00010000
  2      0.00000000
  3      0.94717940
  4      3.05282060


# data nr    14
  1      0.00010000
  2      0.00000000
  3      0.94717755
  4      3.05282245


# data nr    15
  1      0.00010000
  2      0.00000000
  3      0.94717716
  4      3.05282284


# data nr    16
  1      0.00010000
  2      0.00000000
  3      0.94717708
  4      3.05282292


# data nr    17
  1      0.00000000
  2      0.00000000
  3      0.94717706
  4      3.05282294


# data nr    18
  1      0.00010000
  2      0.00000000
  3      0.94717706
  4      3.05282294


# data nr    19
  1      0.00000000
  2      0.00000000
  3      0.94717706
  4      3.05282294


# data nr    20
  1      0.00010000
  2      0.00000000
  3      0.95605027
  4      3.04394973


# data nr     1
  1      0.83908845
  2      1.16091155


# data nr     1
  1      0.00000000
  2      0.00000000
  3      0.97101148
  4      3.02898852


# data nr     2
  1      0.00010000
  2      0.00000000
  3      0.95461375
  4      3.04538625


# data nr     3
  1      0.00010000
  2      0.00000000
  3      0.95465908
  4      3.04534092


# data nr     4
  1      0.00010000
  2      0.00010000
  3      0.95905125
  4      3.04094875


# data nr     5
  1      0.00010000
  2      0.00000000
  3      0.95561083
  4      3.04438917


# data nr     6
  1      0.00010000
  2      0.00000000
  3      0.95895649
  4      3.04104351


# data nr     7
  1      0.00010000
  2      0.00000000
  3      0.95811497
  4      3.04188503


# data nr     8
  1      0.00010000
  2      0.00000000
  3      0.95932681
  4      3.04067319


# data nr     9
  1      0.00010000
  2      0.00010000
  3      0.96476341
  4      3.03523659


# data nr    10
  1      0.00010000
  2      0.00000000
  3      0.97544933
  4      3.02455067


# data nr    11
  1      0.00010000
  2      0.00000000
  3      0.96902743
  4      3.03097257


# data nr     1
  1      0.87179458
  2      1.12820542


# data nr     1
  1      0.00010000
  2      0.00000000
  3      0.99552300
  4      3.00447700


# data nr     2
  1      0.00010000
  2      0.00000000
  3      0.94533551
  4      3.05466449


# data nr     1
  1      0.87179458
  2      1.12820542


# data nr     1
  1      0.00010000
  2      0.00000000
  3      0.99552300
  4      3.00447700


# data nr     2
  1      0.00010000
  2      0.00000000
  3      0.94533551
  4      3.05466449


# data nr     1
  1      0.87179458
  2      1.12820542


# data nr     1
  1      0.00010000
  2      0.00000000
  3      0.99552300
  4      3.00447700


# data nr     2
  1      0.00010000
  2      0.00000000
  3      0.94533551
  4      3.05466449


# data nr     1
  1      0.87179458
  2      1.12820542


# data nr     1
  1      0.00010000
  2      0.00000000
  3      0.99552300
  4      3.00447700


# data nr     2
  1      0.00010000
  2      0.00000000
  3      0.94533551
  4      3.05466449


