   3
# data nr     1  (natoms,nloc)=    1    2
C      0.00000000      0.00000000      0.00000000
X      0.00000000      0.00000000     -0.00000000
X     -0.00000000     -0.00000000      1.06364627
   3
# data nr     1  (natoms,nloc)=    1    2
C      0.00000000      0.00000000      0.00000000
X      0.00000000      0.00000000     -0.00000000
X     -0.00000000     -0.00000000      1.06364627
   3
# data nr     1  (natoms,nloc)=    1    2
C      0.00000000      0.00000000      0.00000000
X      0.00000000      0.00000000     -0.00000000
X     -0.00000000     -0.00000000      1.06364627
   3
# data nr     1  (natoms,nloc)=    1    2
C      0.00000000      0.00000000      0.00000000
X      0.00000000      0.00000000     -0.00000000
X     -0.00000000     -0.00000000      1.06364627
   3
# data nr     1  (natoms,nloc)=    1    2
C      0.00000000      0.00000000      0.00000000
X      0.00000000      0.00000000     -0.00000000
X     -0.00000000     -0.00000000      1.06364627
   3
# data nr     1  (natoms,nloc)=    1    2
C      0.00000000      0.00000000      0.00000000
X      0.00000000      0.00000000     -0.00000000
X     -0.00000000     -0.00000000      1.06364627
   3
# data nr     1  (natoms,nloc)=    1    2
C      0.00000000      0.00000000      0.00000000
X      0.00000000      0.00000000     -0.00000000
X     -0.00000000     -0.00000000      1.06364627
   3
# data nr     1  (natoms,nloc)=    1    2
C      0.00000000      0.00000000      0.00000000
X      0.00000000      0.00000000     -0.00000000
X     -0.00000000     -0.00000000      1.06364627
   3
# data nr     1  (natoms,nloc)=    1    2
C      0.00000000      0.00000000      0.00000000
X      0.00000000      0.00000000     -0.00000000
X     -0.00000000     -0.00000000      1.06364627
   3
# data nr     1  (natoms,nloc)=    1    2
C      0.00000000      0.00000000      0.00000000
X      0.00000000      0.00000000     -0.00000000
X     -0.00000000     -0.00000000      1.06364627
   3
# data nr     1  (natoms,nloc)=    1    2
C      0.00000000      0.00000000      0.00000000
X      0.00000000      0.00000000     -0.00000000
X     -0.00000000     -0.00000000      1.06364627
