 argument  1 = Li2_LDA-def2-TZVP.nw



============================== echo of input deck ==============================
echo

title "Li2"

start Li2

geometry noautoz units angstrom nocenter
symmetry c1
Li     0.00000000      0.00000000      1.34940198
Li     0.00000000      0.00000000     -1.34940198
end

charge 0

basis spherical
* library def2-tzvp
end

set int:cando_txs f

dft
xc slater 1.0 pw91lda
 iterations 80
 convergence energy 1d-6
# usage sic fo [thresh_conv] [frzctr] [nopt] [loc] [rdctr]
# thresh_conv : threshold for convergence (not used yet)
# frzctr      : =0 no freezing centroids located in atom positions
#               =1    freezing centroids located in atom positions
#               =2    freezing selected centroids (edit centroids_FB.xyz and put F instead of X)
# nopt        : nr total optimizations steps
# loc         : =1    Use Foster-Boys localization before OPT
#               =0 NO Use Foster-Boys localization before OPT
#                (note.- if =0 then it will look for file centroids_FB.xyz)
# loc=0 is used if we generate centroids with external software
# loc=1 is used if we generate centroids from Foster-Boys algorithm (it will create file centroids_FB.xyz)
# rdctr       : 0 (default) Do not read from external file (create FODs from localization and use it)
#             : 1 Read from external file
sic fo 2.0E-6 0 1.0 100 1 0
end

task dft energy
================================================================================


                                         
                                         


              Northwest Computational Chemistry Package (NWChem) 6.8
              ------------------------------------------------------


                    Environmental Molecular Sciences Laboratory
                       Pacific Northwest National Laboratory
                                Richland, WA 99352

                              Copyright (c) 1994-2018
                       Pacific Northwest National Laboratory
                            Battelle Memorial Institute

             NWChem is an open-source computational chemistry package
                        distributed under the terms of the
                      Educational Community License (ECL) 2.0
             A copy of the license is included with this distribution
                              in the LICENSE.TXT file

                                  ACKNOWLEDGMENT
                                  --------------

            This software and its documentation were developed at the
            EMSL at Pacific Northwest National Laboratory, a multiprogram
            national laboratory, operated for the U.S. Department of Energy
            by Battelle under Contract Number DE-AC05-76RL01830. Support
            for this work was provided by the Department of Energy Office
            of Biological and Environmental Research, Office of Basic
            Energy Sciences, and the Office of Advanced Scientific Computing.


           Job information
           ---------------

    hostname        = fa-Inspiron-3650
    program         = /home/ravindra/nwchem-master_github_01-18-19_mod/bin/LINUX64/nwchem
    date            = Mon Feb  4 15:00:27 2019

    compiled        = Thu_Jan_31_15:58:22_2019
    source          = /home/ravindra/nwchem-master_github_01-18-19_mod
    nwchem branch   = Development
    nwchem revision = N/A
    ga revision     = 5.7.0
    use scalapack   = F
    input           = Li2_LDA-def2-TZVP.nw
    prefix          = Li2.
    data base       = ./Li2.db
    status          = startup
    nproc           =        4
    time left       =     -1s



           Memory information
           ------------------

    heap     =   13107194 doubles =    100.0 Mbytes
    stack    =   13107199 doubles =    100.0 Mbytes
    global   =   26214400 doubles =    200.0 Mbytes (distinct from heap & stack)
    total    =   52428793 doubles =    400.0 Mbytes
    verify   = yes
    hardfail = no 


           Directory information
           ---------------------

  0 permanent = .
  0 scratch   = .




                                NWChem Input Module
                                -------------------


                                        Li2
                                        ---

 Scaling coordinates for geometry "geometry" by  1.889725989
 (inverse scale =  0.529177249)

 Turning off AUTOSYM since
 SYMMETRY directive was detected!



                             Geometry "geometry" -> ""
                             -------------------------

 Output coordinates in angstroms (scale by  1.889725989 to convert to a.u.)

  No.       Tag          Charge          X              Y              Z
 ---- ---------------- ---------- -------------- -------------- --------------
    1 Li                   3.0000     0.00000000     0.00000000     1.34940198
    2 Li                   3.0000     0.00000000     0.00000000    -1.34940198

      Atomic Mass 
      ----------- 

      Li                 7.016000


 Effective nuclear repulsion energy (a.u.)       1.7647058888

            Nuclear Dipole moment (a.u.) 
            ----------------------------
        X                 Y               Z
 ---------------- ---------------- ----------------
     0.0000000000     0.0000000000     0.0000000000


            XYZ format geometry
            -------------------
     2
 geometry
 Li                    0.00000000     0.00000000     1.34940198
 Li                    0.00000000     0.00000000    -1.34940198

 ==============================================================================
                                internuclear distances
 ------------------------------------------------------------------------------
       center one      |      center two      | atomic units |  angstroms
 ------------------------------------------------------------------------------
    2 Li               |   1 Li               |     5.10000  |     2.69880
 ------------------------------------------------------------------------------
                         number of included internuclear distances:          1
 ==============================================================================





 Summary of "ao basis" -> "" (spherical)
 ------------------------------------------------------------------------------
       Tag                 Description            Shells   Functions and Types
 ---------------- ------------------------------  ------  ---------------------
 *                         def2-tzvp                  on all atoms 



                                 NWChem DFT Module
                                 -----------------


                                        Li2


                      Basis "ao basis" -> "ao basis" (spherical)
                      -----
  Li (Lithium)
  ------------
            Exponent  Coefficients 
       -------------- ---------------------------------------------------------
  1 S  6.26926280E+03  0.000205
  1 S  9.40316124E+02  0.001592
  1 S  2.14221075E+02  0.008287
  1 S  6.07598402E+01  0.033856
  1 S  1.99151520E+01  0.111032
  1 S  7.31715098E+00  0.274494

  2 S  2.97246742E+00  0.237925
  2 S  1.26398523E+00  0.307654

  3 S  5.14274900E-01  1.000000

  4 S  7.70308859E-02  1.000000

  5 S  2.89388964E-02  1.000000

  6 P  4.00000000E-01  1.000000

  7 P  6.00000000E-02  1.000000

  8 P  3.32700000E+00  1.000000



 Summary of "ao basis" -> "ao basis" (spherical)
 ------------------------------------------------------------------------------
       Tag                 Description            Shells   Functions and Types
 ---------------- ------------------------------  ------  ---------------------
 Li                        def2-tzvp                 8       14   5s3p




 Summary of "ao basis" -> "ao basis" (spherical)
 ------------------------------------------------------------------------------
       Tag                 Description            Shells   Functions and Types
 ---------------- ------------------------------  ------  ---------------------
 Li                        def2-tzvp                 8       14   5s3p


  int_init: cando_txs set to always be  F
  Caching 1-el integrals 

            General Information
            -------------------
          SCF calculation type: DFT
          Wavefunction type:  closed shell.
          No. of atoms     :     2
          No. of electrons :     6
           Alpha electrons :     3
            Beta electrons :     3
          Charge           :     0
          Spin multiplicity:     1
          Use of symmetry is: off; symmetry adaption is: off
          Maximum number of iterations:  80
          AO basis - number of functions:    28
                     number of shells:    16
          Convergence on energy requested:  1.00D-06
          Convergence on density requested:  1.00D-05
          Convergence on gradient requested:  5.00D-04

              XC Information
              --------------
                        Slater Exchange Functional  1.000 local    
            Perdew 1991 LDA Correlation Functional  1.000 local    

              FLO-SIC

             Grid Information
             ----------------
          Grid used for XC integration:  medium    
          Radial quadrature: Mura-Knowles        
          Angular quadrature: Lebedev. 
          Tag              B.-S. Rad. Rad. Pts. Rad. Cut. Ang. Pts.
          ---              ---------- --------- --------- ---------
          Li                  1.45       49          13.0       434
          Grid pruning is: on 
          Number of quadrature shells:    98
          Spatial weights used:  Erf1

          Convergence Information
          -----------------------
          Convergence aids based upon iterative change in 
          total energy or number of iterations. 
          Levelshifting, if invoked, occurs when the 
          HOMO/LUMO gap drops below (HL_TOL):  1.00D-02
          DIIS, if invoked, will attempt to extrapolate 
          using up to (NFOCK): 10 stored Fock matrices.

                    Damping( 0%)  Levelshifting(0.5)       DIIS
                  --------------- ------------------- ---------------
          dE  on:    start            ASAP                start   
          dE off:    2 iters         80 iters            80 iters 


      Screening Tolerance Information
      -------------------------------
          Density screening/tol_rho:  1.00D-10
          AO Gaussian exp screening on grid/accAOfunc:  14
          CD Gaussian exp screening on grid/accCDfunc:  20
          XC Gaussian exp screening on grid/accXCfunc:  20
          Schwarz screening/accCoul:  1.00D-08


      Superposition of Atomic Density Guess
      -------------------------------------

 Sum of atomic energies:         -14.86530318

      Non-variational initial energy
      ------------------------------

 Total energy =     -14.806601
 1-e energy   =     -22.913667
 2-e energy   =       6.342360
 HOMO         =      -0.162885
 LUMO         =      -0.018804

   Time after variat. SCF:      0.8
   Time prior to 1st pass:      0.8

 #quartets = 8.052D+03 #integrals = 2.171D+04 #direct =  0.0% #cached =100.0%


 Integral file          = ./Li2.aoints.0
 Record size in doubles =  65536        No. of integs per rec  =  43688
 Max. records in memory =      2        Max. records in file   = 167224
 No. of bits per label  =      8        No. of bits per value  =     64


File balance: exchanges=     0  moved=     0  time=   0.0


 Grid_pts file          = ./Li2.gridpts.0
 Record size in doubles =  12289        No. of grid_pts per rec  =   3070
 Max. records in memory =      5        Max. recs in file   =    891792


           Memory utilization after 1st SCF pass: 
           Heap Space remaining (MW):       12.91            12914090
          Stack Space remaining (MW):       13.11            13106900

   convergence    iter        energy       DeltaE   RMS-Dens  Diis-err    time
 ---------------- ----- ----------------- --------- --------- ---------  ------
 d= 0,ls=0.0,diis     1    -14.7157700412 -1.65D+01  8.42D-03  8.06D-02     0.9
 d= 0,ls=0.0,diis     2    -14.7228661144 -7.10D-03  3.72D-03  4.87D-03     1.0
 d= 0,ls=0.0,diis     3    -14.7233618836 -4.96D-04  1.62D-03  1.52D-04     1.0
 d= 0,ls=0.0,diis     4    -14.7234173585 -5.55D-05  5.50D-04  3.13D-05     1.0
 d= 0,ls=0.0,diis     5    -14.7234332538 -1.59D-05  2.56D-05  5.68D-08     1.0
 d= 0,ls=0.0,diis     6    -14.7234332884 -3.46D-08  7.51D-07  3.90D-11     1.0
                        ----------------------
                        |   NWChen-FLO-SIC   |
                        ----------------------
        NWChem Fermi-Lowdin Orbital Self-Interaction Correction
xxxxxxxxxxxxxxxxxxxxxxxxxxxxxxxxxxxxxxxxxxxxxxxxxxxxxxxxxxxxxxxxxxxxxx

nloc=   3
vector=   1   3
vector=   2   2
vector=   3   1
            Foster-Boys orbital localization for the SIC approximation
            ----------------------------------------------------------
           iter      Max. dipole2     Mean dipole2   Converge
           ----      ------------     ------------   ---------
              1       0.00000000       0.00000000    0.00D+00
              2       6.51443593       4.34295728    7.85D-01
              3       6.51443622       4.34295748    1.06D-04
              4       6.51443622       4.34295748    0.00D+00

    3     1( 0.50)     2( 0.50)
    2     2( 1.00)
    1     1( 1.00)

FLO-SIC:     thresh     frzctr  scl     nopt loc rdctr
          0.20000000E-05    0  1.0000   100   1    0
FLO-SIC: DT  spin=   1 ::      0.06325100 sec
FLO-SIC: Total DFT energy =      -15.046318028785   [ E0=    -14.72343329 EA=     -0.32288474 ] Ha
                          =      E0 + scl_A * EA
 eigenvalues spin=   1 ::
 Vector     1 Occ=2.000000D+00 E= -2.499428D+00 Ha
 Vector     2 Occ=2.000000D+00 E= -2.495191D+00 Ha
 Vector     3 Occ=2.000000D+00 E= -2.078375D-01 Ha

xxxxxxxxxxxxxxxxxxxxxxxxxxxxxxxxxxxxxxxxxxxxxxxxxxxxxxxxxxxxxxxxxxxxxx


         Total DFT energy =      -14.723433288368
      One electron energy =      -23.053067907817
           Coulomb energy =        9.927259684602
    Exchange-Corr. energy =       -3.362330953979
 Nuclear repulsion energy =        1.764705888825

 Numeric. integr. density =        6.000000311455

     Total iterative time =      0.4s


 Ravindra making changes here
 Ravindra making changes here
 Ravindra making changes here
 Ravindra making changes here
------Ravindra outside scf nosoc---START                                                                                                                                                                                                                       

 global array: alpha evecs[1:28,1:28],  handle: -995 

            1           2           3           4           5           6  
       ----------- ----------- ----------- ----------- ----------- -----------
   1       0.24033     0.00040    -0.03039     0.02646     0.00000    -0.00000
   2       0.63282     0.00146    -0.10590     0.09075     0.00000     0.00000
   3       0.24710     0.00109    -0.08245     0.06952     0.00000    -0.00000
   4       0.01831    -0.00680     0.31893    -0.25178    -0.00000     0.00000
   5      -0.01090    -0.00432     0.26965    -0.66563     0.00000    -0.00000
   6       0.00000    -0.00000     0.00000    -0.00000     0.00000     0.10306
   7      -0.00000    -0.00000    -0.00000     0.00000    -0.10306     0.00000
   8       0.00257     0.00070    -0.03707    -0.05306    -0.00000    -0.00000
   9       0.00000     0.00000    -0.00000    -0.00000     0.00000     0.54641
  10       0.00000     0.00000    -0.00000     0.00000    -0.54641     0.00000
  11      -0.00149     0.00369    -0.08006    -0.21288    -0.00000    -0.00000
  12       0.00000    -0.00000     0.00000    -0.00000     0.00000     0.01004
  13      -0.00000     0.00000    -0.00000     0.00000    -0.01004     0.00000
  14       0.00107     0.00004    -0.00355    -0.00459    -0.00000    -0.00000
  15       0.00040     0.24033    -0.03039    -0.02646    -0.00000    -0.00000
  16       0.00146     0.63282    -0.10590    -0.09075    -0.00000    -0.00000
  17       0.00109     0.24710    -0.08245    -0.06952    -0.00000    -0.00000
  18      -0.00680     0.01831     0.31893     0.25178     0.00000     0.00000
  19      -0.00432    -0.01090     0.26965     0.66563    -0.00000    -0.00000
  20       0.00000     0.00000    -0.00000    -0.00000     0.00000     0.10306
  21       0.00000    -0.00000    -0.00000     0.00000    -0.10306     0.00000
  22      -0.00070    -0.00257     0.03707    -0.05306     0.00000     0.00000
  23      -0.00000    -0.00000     0.00000    -0.00000     0.00000     0.54641
  24      -0.00000    -0.00000     0.00000     0.00000    -0.54641     0.00000
  25      -0.00369     0.00149     0.08006    -0.21288    -0.00000    -0.00000
  26       0.00000     0.00000    -0.00000    -0.00000     0.00000     0.01004
  27      -0.00000    -0.00000     0.00000     0.00000    -0.01004     0.00000
  28      -0.00004    -0.00107     0.00355    -0.00459    -0.00000     0.00000

            7           8           9          10          11          12  
       ----------- ----------- ----------- ----------- ----------- -----------
   1       0.00278     0.00000     0.00000     0.03100     0.02516    -0.03116
   2       0.00735     0.00000     0.00000     0.09275     0.07814    -0.08645
   3       0.01494     0.00000     0.00000     0.13664     0.10296    -0.16881
   4      -0.03129     0.00000    -0.00000    -1.44052    -0.94794     1.63167
   5       0.30550     0.00000    -0.00000     1.11551     2.89320     1.08869
   6       0.00000     0.00000     0.10929    -0.00000     0.00000    -0.00000
   7      -0.00000     0.10929    -0.00000     0.00000    -0.00000    -0.00000
   8       0.12841    -0.00000    -0.00000    -0.01942    -0.05812    -0.05006
   9       0.00000     0.00001     0.89372    -0.00000     0.00000     0.00000
  10      -0.00000     0.89372    -0.00001     0.00000    -0.00000    -0.00000
  11       0.57035    -0.00000     0.00000    -0.28797    -1.11837    -1.99264
  12       0.00000     0.00000     0.01106    -0.00000     0.00000    -0.00000
  13      -0.00000     0.01106    -0.00000     0.00000    -0.00000    -0.00000
  14       0.01205    -0.00000    -0.00000    -0.00297    -0.00624    -0.00721
  15       0.00278    -0.00000     0.00000     0.03100    -0.02516     0.03116
  16       0.00735    -0.00000     0.00000     0.09275    -0.07814     0.08645
  17       0.01494    -0.00000     0.00000     0.13664    -0.10296     0.16881
  18      -0.03129     0.00000    -0.00000    -1.44052     0.94794    -1.63167
  19       0.30550    -0.00000     0.00000     1.11551    -2.89320    -1.08869
  20      -0.00000    -0.00000    -0.10929    -0.00000     0.00000     0.00000
  21      -0.00000    -0.10929     0.00000    -0.00000     0.00000     0.00000
  22      -0.12841    -0.00000    -0.00000     0.01942    -0.05812    -0.05006
  23       0.00000    -0.00001    -0.89372     0.00000    -0.00000    -0.00000
  24      -0.00000    -0.89372     0.00001    -0.00000     0.00000     0.00000
  25      -0.57035    -0.00000     0.00000     0.28797    -1.11837    -1.99264
  26       0.00000    -0.00000    -0.01106    -0.00000     0.00000     0.00000
  27      -0.00000    -0.01106     0.00000    -0.00000     0.00000     0.00000
  28      -0.01205    -0.00000     0.00000     0.00297    -0.00624    -0.00721

           13          14          15          16          17          18  
       ----------- ----------- ----------- ----------- ----------- -----------
   1      -0.00000     0.00000    -0.00763     0.00000    -0.00000     0.00564
   2      -0.00000     0.00000    -0.04098     0.00000    -0.00000     0.03471
   3       0.00000    -0.00000     0.02441    -0.00000     0.00000    -0.02448
   4      -0.00000     0.00000    -0.13639     0.00000    -0.00000     0.14832
   5       0.00000    -0.00000     0.01765    -0.00000    -0.00000     0.98041
   6      -0.74480    -0.00000     0.00000    -0.74464     0.00000    -0.00000
   7       0.00000    -0.74480    -0.00000     0.00000     0.74464     0.00000
   8       0.00000    -0.00000     0.76164    -0.00000    -0.00000     0.75144
   9       0.32193     0.00000    -0.00000     0.52419    -0.00000     0.00000
  10      -0.00000     0.32193     0.00000    -0.00000    -0.52419    -0.00000
  11      -0.00000     0.00000    -0.49012     0.00000     0.00000    -0.98467
  12      -0.03428    -0.00000     0.00000    -0.03427     0.00000    -0.00000
  13       0.00000    -0.03428    -0.00000     0.00000     0.03427     0.00000
  14       0.00000    -0.00000     0.03101    -0.00000    -0.00000     0.03742
  15      -0.00000     0.00000    -0.00763     0.00000     0.00000    -0.00564
  16      -0.00000     0.00000    -0.04098     0.00000    -0.00000    -0.03471
  17       0.00000    -0.00000     0.02441    -0.00000     0.00000     0.02448
  18      -0.00000     0.00000    -0.13639    -0.00000     0.00000    -0.14832
  19      -0.00000    -0.00000     0.01765     0.00000    -0.00000    -0.98041
  20      -0.74480    -0.00000     0.00000     0.74464    -0.00000    -0.00000
  21       0.00000    -0.74480    -0.00000    -0.00000    -0.74464    -0.00000
  22      -0.00000     0.00000    -0.76164     0.00000    -0.00000     0.75144
  23       0.32193     0.00000    -0.00000    -0.52419     0.00000     0.00000
  24      -0.00000     0.32193     0.00000     0.00000     0.52419     0.00000
  25       0.00000    -0.00000     0.49012    -0.00000     0.00000    -0.98467
  26      -0.03428    -0.00000     0.00000     0.03427    -0.00000    -0.00000
  27       0.00000    -0.03428    -0.00000    -0.00000    -0.03427    -0.00000
  28      -0.00000     0.00000    -0.03101     0.00000    -0.00000     0.03742

           19          20          21          22          23          24  
       ----------- ----------- ----------- ----------- ----------- -----------
   1       0.08712    -0.08869     0.00360    -0.00000    -0.00000     0.00000
   2       0.87330    -0.86905     0.00763     0.00000    -0.00000     0.00000
   3      -1.42947     1.38992    -0.02375    -0.00000     0.00000    -0.00000
   4       1.14995    -0.80112    -0.00759     0.00000    -0.00000     0.00000
   5      -0.39616     0.36713    -0.00420     0.00000    -0.00000     0.00000
   6       0.00000    -0.00000    -0.00000    -0.28639     0.00015     0.28680
   7      -0.00000    -0.00000     0.00000     0.00015     0.28639     0.00017
   8      -0.04756    -0.05978     0.29175    -0.00000     0.00000     0.00000
   9      -0.00000     0.00000     0.00000     0.06572    -0.00003    -0.10033
  10       0.00000     0.00000    -0.00000    -0.00003    -0.06572    -0.00006
  11      -0.28744    -0.01192    -0.09735     0.00000     0.00000    -0.00000
  12       0.00000    -0.00000     0.00000     0.74368    -0.00039    -0.74370
  13      -0.00000    -0.00000    -0.00000    -0.00039    -0.74368    -0.00044
  14      -0.00405    -0.00417    -0.74388     0.00000    -0.00000    -0.00000
  15      -0.08712    -0.08869     0.00360    -0.00000    -0.00000     0.00000
  16      -0.87330    -0.86905     0.00763     0.00000    -0.00000     0.00000
  17       1.42947     1.38992    -0.02375    -0.00000     0.00000    -0.00000
  18      -1.14995    -0.80112    -0.00759     0.00000    -0.00000     0.00000
  19       0.39616     0.36713    -0.00420    -0.00000     0.00000    -0.00000
  20       0.00000     0.00000    -0.00000    -0.28639     0.00015    -0.28680
  21       0.00000     0.00000     0.00000     0.00015     0.28639    -0.00017
  22      -0.04756     0.05978    -0.29175     0.00000     0.00000    -0.00000
  23      -0.00000    -0.00000     0.00000     0.06572    -0.00003     0.10033
  24      -0.00000    -0.00000    -0.00000    -0.00003    -0.06572     0.00006
  25      -0.28744     0.01192     0.09735    -0.00000    -0.00000    -0.00000
  26       0.00000     0.00000     0.00000     0.74368    -0.00039     0.74370
  27       0.00000     0.00000    -0.00000    -0.00039    -0.74368     0.00044
  28      -0.00405     0.00417     0.74388    -0.00000    -0.00000     0.00000

           25          26          27          28  
       ----------- ----------- ----------- -----------
   1       0.00000     0.00202    -1.02890    -1.02891
   2       0.00000     0.00781     1.34918     1.34913
   3       0.00000    -0.02408    -0.81271    -0.80308
   4       0.00000     0.00135     0.39280     0.28219
   5      -0.00000    -0.18524    -0.12690    -0.12493
   6       0.00017     0.00000     0.00000     0.00000
   7      -0.28680    -0.00000    -0.00000     0.00000
   8       0.00000    -0.29725    -0.01252     0.01508
   9      -0.00006    -0.00000    -0.00000    -0.00000
  10       0.10033     0.00000     0.00000    -0.00000
  11       0.00000     0.17657    -0.09982     0.00676
  12      -0.00044    -0.00000    -0.00000    -0.00000
  13       0.74370     0.00000     0.00000    -0.00000
  14      -0.00000     0.74480     0.00377    -0.00486
  15      -0.00000    -0.00202     1.02890    -1.02891
  16       0.00000    -0.00781    -1.34918     1.34913
  17      -0.00000     0.02408     0.81271    -0.80308
  18       0.00000    -0.00135    -0.39280     0.28219
  19       0.00000     0.18524     0.12690    -0.12493
  20      -0.00017     0.00000     0.00000    -0.00000
  21       0.28680     0.00000     0.00000    -0.00000
  22       0.00000    -0.29725    -0.01252    -0.01508
  23       0.00006    -0.00000    -0.00000     0.00000
  24      -0.10033    -0.00000    -0.00000     0.00000
  25       0.00000     0.17657    -0.09982    -0.00676
  26       0.00044    -0.00000     0.00000     0.00000
  27      -0.74370    -0.00000    -0.00000     0.00000
  28      -0.00000     0.74480     0.00377     0.00486
------Ravindra outside scf nosoc---END                                                                                                                                                                                                                         

                       DFT Final Molecular Orbital Analysis
                       ------------------------------------

 Vector    1  Occ=2.000000D+00  E=-1.844326D+00
              MO Center=  3.6D-13,  1.1D-16,  1.4D+00, r^2= 1.3D-01
   Bfn.  Coefficient  Atom+Function         Bfn.  Coefficient  Atom+Function  
  ----- ------------  ---------------      ----- ------------  ---------------
     2      0.632819  1 Li s                  3      0.247098  1 Li s          
     1      0.240327  1 Li s          

 Vector    2  Occ=2.000000D+00  E=-1.843908D+00
              MO Center=  2.9D-12, -6.3D-15, -1.4D+00, r^2= 1.3D-01
   Bfn.  Coefficient  Atom+Function         Bfn.  Coefficient  Atom+Function  
  ----- ------------  ---------------      ----- ------------  ---------------
    16      0.632819  2 Li s                 17      0.247098  2 Li s          
    15      0.240327  2 Li s          

 Vector    3  Occ=2.000000D+00  E=-1.191910D-01
              MO Center= -5.4D-11,  7.3D-13,  4.2D-09, r^2= 5.1D+00
   Bfn.  Coefficient  Atom+Function         Bfn.  Coefficient  Atom+Function  
  ----- ------------  ---------------      ----- ------------  ---------------
     4      0.318932  1 Li s                 18      0.318932  2 Li s          
     5      0.269650  1 Li s                 19      0.269650  2 Li s          
     2     -0.105896  1 Li s                 16     -0.105896  2 Li s          
     3     -0.082448  1 Li s                 17     -0.082448  2 Li s          
    11     -0.080055  1 Li pz                25      0.080055  2 Li pz         

 Vector    4  Occ=0.000000D+00  E=-6.561050D-02
              MO Center= -8.9D-11,  6.4D-12,  5.1D-09, r^2= 1.0D+01
   Bfn.  Coefficient  Atom+Function         Bfn.  Coefficient  Atom+Function  
  ----- ------------  ---------------      ----- ------------  ---------------
     5      0.665628  1 Li s                 19     -0.665628  2 Li s          
     4      0.251783  1 Li s                 18     -0.251783  2 Li s          
    11      0.212875  1 Li pz                25      0.212875  2 Li pz         
     2     -0.090746  1 Li s                 16      0.090746  2 Li s          
     3     -0.069516  1 Li s                 17      0.069516  2 Li s          

 Vector    5  Occ=0.000000D+00  E=-4.281689D-02
              MO Center= -1.3D-17,  5.4D-12,  4.5D-09, r^2= 6.6D+00
   Bfn.  Coefficient  Atom+Function         Bfn.  Coefficient  Atom+Function  
  ----- ------------  ---------------      ----- ------------  ---------------
    10      0.546413  1 Li py                24      0.546413  2 Li py         
     7      0.103056  1 Li py                21      0.103056  2 Li py         

 Vector    6  Occ=0.000000D+00  E=-4.281689D-02
              MO Center= -6.4D-10, -1.6D-15,  6.1D-09, r^2= 6.6D+00
   Bfn.  Coefficient  Atom+Function         Bfn.  Coefficient  Atom+Function  
  ----- ------------  ---------------      ----- ------------  ---------------
     9      0.546413  1 Li px                23      0.546413  2 Li px         
     6      0.103056  1 Li px                20      0.103056  2 Li px         

 Vector    7  Occ=0.000000D+00  E=-2.808867D-02
              MO Center=  4.2D-10, -2.8D-12, -8.5D-09, r^2= 9.2D+00
   Bfn.  Coefficient  Atom+Function         Bfn.  Coefficient  Atom+Function  
  ----- ------------  ---------------      ----- ------------  ---------------
    11      0.570354  1 Li pz                25     -0.570354  2 Li pz         
     5      0.305495  1 Li s                 19      0.305495  2 Li s          
     8      0.128410  1 Li pz                22     -0.128410  2 Li pz         
     4     -0.031289  1 Li s                 18     -0.031289  2 Li s          

 Vector    8  Occ=0.000000D+00  E= 1.800045D-02
              MO Center=  1.3D-16,  1.7D-11, -4.6D-09, r^2= 8.4D+00
   Bfn.  Coefficient  Atom+Function         Bfn.  Coefficient  Atom+Function  
  ----- ------------  ---------------      ----- ------------  ---------------
    10      0.893722  1 Li py                24     -0.893722  2 Li py         
     7      0.109292  1 Li py                21     -0.109292  2 Li py         

 Vector    9  Occ=0.000000D+00  E= 1.800045D-02
              MO Center= -1.7D-10,  1.3D-15, -6.2D-09, r^2= 8.4D+00
   Bfn.  Coefficient  Atom+Function         Bfn.  Coefficient  Atom+Function  
  ----- ------------  ---------------      ----- ------------  ---------------
     9      0.893722  1 Li px                23     -0.893722  2 Li px         
     6      0.109292  1 Li px                20     -0.109292  2 Li px         

 Vector   10  Occ=0.000000D+00  E= 6.173357D-02
              MO Center=  1.4D-09, -2.8D-12,  8.3D-08, r^2= 1.2D+01
   Bfn.  Coefficient  Atom+Function         Bfn.  Coefficient  Atom+Function  
  ----- ------------  ---------------      ----- ------------  ---------------
     4      1.440520  1 Li s                 18      1.440520  2 Li s          
     5     -1.115510  1 Li s                 19     -1.115510  2 Li s          
    11      0.287974  1 Li pz                25     -0.287974  2 Li pz         
     3     -0.136644  1 Li s                 17     -0.136644  2 Li s          
     2     -0.092752  1 Li s                 16     -0.092752  2 Li s          

 Vector   11  Occ=0.000000D+00  E= 7.481437D-02
              MO Center=  9.5D-10, -1.9D-11, -8.3D-08, r^2= 1.8D+01
   Bfn.  Coefficient  Atom+Function         Bfn.  Coefficient  Atom+Function  
  ----- ------------  ---------------      ----- ------------  ---------------
     5      2.893202  1 Li s                 19     -2.893203  2 Li s          
    11     -1.118371  1 Li pz                25     -1.118371  2 Li pz         
     4     -0.947944  1 Li s                 18      0.947944  2 Li s          
     3      0.102957  1 Li s                 17     -0.102957  2 Li s          
     2      0.078140  1 Li s                 16     -0.078140  2 Li s          

 Vector   12  Occ=0.000000D+00  E= 1.324134D-01
              MO Center= -2.5D-11, -3.1D-12, -7.8D-10, r^2= 8.7D+00
   Bfn.  Coefficient  Atom+Function         Bfn.  Coefficient  Atom+Function  
  ----- ------------  ---------------      ----- ------------  ---------------
    11      1.992639  1 Li pz                25      1.992639  2 Li pz         
     4     -1.631672  1 Li s                 18      1.631672  2 Li s          
     5     -1.088686  1 Li s                 19      1.088686  2 Li s          
     3      0.168806  1 Li s                 17     -0.168806  2 Li s          
     2      0.086446  1 Li s                 16     -0.086446  2 Li s          

 Vector   13  Occ=0.000000D+00  E= 4.571865D-01
              MO Center=  3.4D-10, -8.7D-16,  5.5D-09, r^2= 3.8D+00
   Bfn.  Coefficient  Atom+Function         Bfn.  Coefficient  Atom+Function  
  ----- ------------  ---------------      ----- ------------  ---------------
     6      0.744795  1 Li px                20      0.744795  2 Li px         
     9     -0.321932  1 Li px                23     -0.321932  2 Li px         
    12      0.034275  1 Li px                26      0.034275  2 Li px         

 Vector   14  Occ=0.000000D+00  E= 4.571865D-01
              MO Center= -2.0D-18, -7.7D-13,  1.3D-07, r^2= 3.8D+00
   Bfn.  Coefficient  Atom+Function         Bfn.  Coefficient  Atom+Function  
  ----- ------------  ---------------      ----- ------------  ---------------
     7      0.744795  1 Li py                21      0.744795  2 Li py         
    10     -0.321932  1 Li py                24     -0.321932  2 Li py         
    13      0.034275  1 Li py                27      0.034275  2 Li py         

 Vector   15  Occ=0.000000D+00  E= 4.576914D-01
              MO Center= -1.4D-09,  2.2D-13,  1.3D-08, r^2= 5.0D+00
   Bfn.  Coefficient  Atom+Function         Bfn.  Coefficient  Atom+Function  
  ----- ------------  ---------------      ----- ------------  ---------------
     8      0.761638  1 Li pz                22     -0.761638  2 Li pz         
    11     -0.490120  1 Li pz                25      0.490120  2 Li pz         
     4     -0.136390  1 Li s                 18     -0.136390  2 Li s          
     2     -0.040978  1 Li s                 16     -0.040978  2 Li s          
    14      0.031014  1 Li pz                28     -0.031014  2 Li pz         

 Vector   16  Occ=0.000000D+00  E= 4.603794D-01
              MO Center= -5.9D-10,  1.4D-15, -5.3D-09, r^2= 4.2D+00
   Bfn.  Coefficient  Atom+Function         Bfn.  Coefficient  Atom+Function  
  ----- ------------  ---------------      ----- ------------  ---------------
     6      0.744643  1 Li px                20     -0.744643  2 Li px         
     9     -0.524190  1 Li px                23      0.524190  2 Li px         
    12      0.034273  1 Li px                26     -0.034273  2 Li px         

 Vector   17  Occ=0.000000D+00  E= 4.603794D-01
              MO Center= -2.9D-18, -1.2D-12, -1.3D-07, r^2= 4.2D+00
   Bfn.  Coefficient  Atom+Function         Bfn.  Coefficient  Atom+Function  
  ----- ------------  ---------------      ----- ------------  ---------------
     7      0.744643  1 Li py                21     -0.744643  2 Li py         
    10     -0.524190  1 Li py                24      0.524190  2 Li py         
    13      0.034273  1 Li py                27     -0.034273  2 Li py         

 Vector   18  Occ=0.000000D+00  E= 4.936619D-01
              MO Center= -8.4D-11, -7.3D-13, -1.2D-08, r^2= 4.2D+00
   Bfn.  Coefficient  Atom+Function         Bfn.  Coefficient  Atom+Function  
  ----- ------------  ---------------      ----- ------------  ---------------
     5      0.980408  1 Li s                 11     -0.984670  1 Li pz         
    19     -0.980408  2 Li s                 25     -0.984670  2 Li pz         
     8      0.751439  1 Li pz                22      0.751439  2 Li pz         
     4      0.148317  1 Li s                 18     -0.148317  2 Li s          
    14      0.037418  1 Li pz                28      0.037418  2 Li pz         

 Vector   19  Occ=0.000000D+00  E= 1.370057D+00
              MO Center=  1.2D-11,  1.3D-13,  6.6D-08, r^2= 3.6D+00
   Bfn.  Coefficient  Atom+Function         Bfn.  Coefficient  Atom+Function  
  ----- ------------  ---------------      ----- ------------  ---------------
     3      1.429472  1 Li s                 17     -1.429472  2 Li s          
     4     -1.149946  1 Li s                 18      1.149946  2 Li s          
     2     -0.873301  1 Li s                 16      0.873301  2 Li s          
     5      0.396160  1 Li s                 19     -0.396160  2 Li s          
    11      0.287444  1 Li pz                25      0.287444  2 Li pz         

 Vector   20  Occ=0.000000D+00  E= 1.379414D+00
              MO Center=  3.6D-11,  5.4D-14, -6.6D-08, r^2= 3.3D+00
   Bfn.  Coefficient  Atom+Function         Bfn.  Coefficient  Atom+Function  
  ----- ------------  ---------------      ----- ------------  ---------------
     3      1.389916  1 Li s                 17      1.389916  2 Li s          
     2     -0.869054  1 Li s                 16     -0.869054  2 Li s          
     4     -0.801123  1 Li s                 18     -0.801123  2 Li s          
     5      0.367130  1 Li s                 19      0.367131  2 Li s          
     1     -0.088688  1 Li s                 15     -0.088688  2 Li s          

 Vector   21  Occ=0.000000D+00  E= 5.684449D+00
              MO Center= -2.3D-13,  3.0D-16,  2.1D-08, r^2= 2.1D+00
   Bfn.  Coefficient  Atom+Function         Bfn.  Coefficient  Atom+Function  
  ----- ------------  ---------------      ----- ------------  ---------------
    14      0.743883  1 Li pz                28     -0.743883  2 Li pz         
     8     -0.291752  1 Li pz                22      0.291752  2 Li pz         
    11      0.097355  1 Li pz                25     -0.097355  2 Li pz         

 Vector   22  Occ=0.000000D+00  E= 5.690613D+00
              MO Center= -6.3D-12,  3.3D-15,  4.6D-07, r^2= 2.1D+00
   Bfn.  Coefficient  Atom+Function         Bfn.  Coefficient  Atom+Function  
  ----- ------------  ---------------      ----- ------------  ---------------
    12      0.743677  1 Li px                26      0.743676  2 Li px         
     6     -0.286387  1 Li px                20     -0.286387  2 Li px         
     9      0.065723  1 Li px                23      0.065723  2 Li px         

 Vector   23  Occ=0.000000D+00  E= 5.690613D+00
              MO Center= -2.4D-18, -4.7D-15,  4.8D-07, r^2= 2.1D+00
   Bfn.  Coefficient  Atom+Function         Bfn.  Coefficient  Atom+Function  
  ----- ------------  ---------------      ----- ------------  ---------------
    13      0.743677  1 Li py                27      0.743676  2 Li py         
     7     -0.286387  1 Li py                21     -0.286387  2 Li py         
    10      0.065723  1 Li py                24      0.065723  2 Li py         

 Vector   24  Occ=0.000000D+00  E= 5.692268D+00
              MO Center= -3.1D-12, -1.8D-15, -4.6D-07, r^2= 2.1D+00
   Bfn.  Coefficient  Atom+Function         Bfn.  Coefficient  Atom+Function  
  ----- ------------  ---------------      ----- ------------  ---------------
    12      0.743697  1 Li px                26     -0.743698  2 Li px         
     6     -0.286805  1 Li px                20      0.286805  2 Li px         
     9      0.100332  1 Li px                23     -0.100332  2 Li px         

 Vector   25  Occ=0.000000D+00  E= 5.692268D+00
              MO Center=  7.5D-19, -1.3D-15, -4.8D-07, r^2= 2.1D+00
   Bfn.  Coefficient  Atom+Function         Bfn.  Coefficient  Atom+Function  
  ----- ------------  ---------------      ----- ------------  ---------------
    13      0.743697  1 Li py                27     -0.743698  2 Li py         
     7     -0.286805  1 Li py                21      0.286805  2 Li py         
    10      0.100332  1 Li py                24     -0.100332  2 Li py         

 Vector   26  Occ=0.000000D+00  E= 5.722789D+00
              MO Center= -5.1D-13, -1.3D-15, -2.1D-08, r^2= 2.1D+00
   Bfn.  Coefficient  Atom+Function         Bfn.  Coefficient  Atom+Function  
  ----- ------------  ---------------      ----- ------------  ---------------
    14      0.744801  1 Li pz                28      0.744801  2 Li pz         
     8     -0.297253  1 Li pz                22     -0.297253  2 Li pz         
     5     -0.185244  1 Li s                 19      0.185244  2 Li s          
    11      0.176569  1 Li pz                25      0.176569  2 Li pz         

 Vector   27  Occ=0.000000D+00  E= 1.394983D+01
              MO Center=  6.2D-14,  1.7D-15,  9.3D-08, r^2= 2.1D+00
   Bfn.  Coefficient  Atom+Function         Bfn.  Coefficient  Atom+Function  
  ----- ------------  ---------------      ----- ------------  ---------------
     2      1.349177  1 Li s                 16     -1.349177  2 Li s          
     1     -1.028903  1 Li s                 15      1.028903  2 Li s          
     3     -0.812711  1 Li s                 17      0.812711  2 Li s          
     4      0.392805  1 Li s                 18     -0.392805  2 Li s          
     5     -0.126898  1 Li s                 19      0.126898  2 Li s          

 Vector   28  Occ=0.000000D+00  E= 1.395922D+01
              MO Center=  4.3D-13,  9.4D-16, -9.3D-08, r^2= 2.1D+00
   Bfn.  Coefficient  Atom+Function         Bfn.  Coefficient  Atom+Function  
  ----- ------------  ---------------      ----- ------------  ---------------
     2      1.349130  1 Li s                 16      1.349131  2 Li s          
     1     -1.028912  1 Li s                 15     -1.028912  2 Li s          
     3     -0.803076  1 Li s                 17     -0.803076  2 Li s          
     4      0.282186  1 Li s                 18      0.282187  2 Li s          
     5     -0.124932  1 Li s                 19     -0.124932  2 Li s          


 center of mass
 --------------
 x =   0.00000000 y =   0.00000000 z =   0.00000000

 moments of inertia (a.u.)
 ------------------
          91.243079330692           0.000000000000           0.000000000000
           0.000000000000          91.243079330692           0.000000000000
           0.000000000000           0.000000000000           0.000000000000

     Multipole analysis of the density
     ---------------------------------

     L   x y z        total         alpha         beta         nuclear
     -   - - -        -----         -----         ----         -------
     0   0 0 0     -0.000000     -3.000000     -3.000000      6.000000

     1   1 0 0      0.000000      0.000000      0.000000      0.000000
     1   0 1 0     -0.000000     -0.000000     -0.000000      0.000000
     1   0 0 1     -0.000000     -0.000000     -0.000000      0.000000

     2   2 0 0    -11.804802     -5.902401     -5.902401      0.000000
     2   1 1 0     -0.000000     -0.000000     -0.000000      0.000000
     2   1 0 1     -0.000000     -0.000000     -0.000000      0.000000
     2   0 2 0    -11.804802     -5.902401     -5.902401      0.000000
     2   0 1 1      0.000000      0.000000      0.000000      0.000000
     2   0 0 2     -1.829466    -20.422233    -20.422233     39.015000


 Parallel integral file used       4 records with       0 large values


 Task  times  cpu:        0.3s     wall:        0.9s


                                NWChem Input Module
                                -------------------


 Summary of allocated global arrays
-----------------------------------
  No active global arrays



                         GA Statistics for process    0
                         ------------------------------

       create   destroy   get      put      acc     scatter   gather  read&inc
calls:  183      183     2142      716      836       22        0      216     
number of processes/call -4.00e+15 1.33e+13 7.25e+12 0.00e+00 0.00e+00
bytes total:             3.70e+06 3.34e+05 1.65e+06 2.40e+01 0.00e+00 1.73e+03
bytes remote:            2.40e+06 1.49e+05 1.07e+06 0.00e+00 0.00e+00 0.00e+00
Max memory consumed for GA by this process: 75488 bytes

MA_summarize_allocated_blocks: starting scan ...
MA_summarize_allocated_blocks: scan completed: 0 heap blocks, 0 stack blocks
MA usage statistics:

	allocation statistics:
					      heap	     stack
					      ----	     -----
	current number of blocks	         0	         0
	maximum number of blocks	        18	        52
	current total bytes		         0	         0
	maximum total bytes		   1544696	  22511128
	maximum total K-bytes		      1545	     22512
	maximum total M-bytes		         2	        23


                                     CITATION
                                     --------
                Please cite the following reference when publishing
                           results obtained with NWChem:

                 M. Valiev, E.J. Bylaska, N. Govind, K. Kowalski,
              T.P. Straatsma, H.J.J. van Dam, D. Wang, J. Nieplocha,
                        E. Apra, T.L. Windus, W.A. de Jong
                 "NWChem: a comprehensive and scalable open-source
                  solution for large scale molecular simulations"
                      Comput. Phys. Commun. 181, 1477 (2010)
                           doi:10.1016/j.cpc.2010.04.018

                                      AUTHORS
                                      -------
          E. Apra, E. J. Bylaska, W. A. de Jong, N. Govind, K. Kowalski,
       T. P. Straatsma, M. Valiev, H. J. J. van Dam, D. Wang, T. L. Windus,
        J. Hammond, J. Autschbach, K. Bhaskaran-Nair, J. Brabec, K. Lopata,
    S. A. Fischer, S. Krishnamoorthy, M. Jacquelin, W. Ma, M. Klemm, O. Villa,
      Y. Chen, V. Anisimov, F. Aquino, S. Hirata, M. T. Hackler, V. Konjkov,
            D. Mejia-Rodriguez, T. Risthaus, M. Malagoli, A. Marenich,
   A. Otero-de-la-Roza, J. Mullin, P. Nichols, R. Peverati, J. Pittner, Y. Zhao,
        P.-D. Fan, A. Fonari, M. J. Williamson, R. J. Harrison, J. R. Rehr,
      M. Dupuis, D. Silverstein, D. M. A. Smith, J. Nieplocha, V. Tipparaju,
    M. Krishnan, B. E. Van Kuiken, A. Vazquez-Mayagoitia, L. Jensen, M. Swart,
      Q. Wu, T. Van Voorhis, A. A. Auer, M. Nooijen, L. D. Crosby, E. Brown,
      G. Cisneros, G. I. Fann, H. Fruchtl, J. Garza, K. Hirao, R. A. Kendall,
      J. A. Nichols, K. Tsemekhman, K. Wolinski, J. Anchell, D. E. Bernholdt,
      P. Borowski, T. Clark, D. Clerc, H. Dachsel, M. J. O. Deegan, K. Dyall,
    D. Elwood, E. Glendening, M. Gutowski, A. C. Hess, J. Jaffe, B. G. Johnson,
     J. Ju, R. Kobayashi, R. Kutteh, Z. Lin, R. Littlefield, X. Long, B. Meng,
      T. Nakajima, S. Niu, L. Pollack, M. Rosing, K. Glaesemann, G. Sandrone,
      M. Stave, H. Taylor, G. Thomas, J. H. van Lenthe, A. T. Wong, Z. Zhang.

 Total times  cpu:        0.3s     wall:        1.2s
