   5
# data nr     1  (natoms,nloc)=    1    4
C      0.00000000      0.00000000      0.00000000
X     -0.03086051      0.01657876     -0.32419045
X     -0.02205633      0.27723566      0.16345877
X      0.03591442     -0.00341359      0.00163747
X     -0.08782298     -0.27857250      0.15411032
   5
# data nr     2  (natoms,nloc)=    1    4
C      0.00000000      0.00000000      0.00000000
X     -0.03073738      0.01518267     -0.32400158
X     -0.02216612      0.27819005      0.16274609
X      0.03586369     -0.00342393      0.00169877
X     -0.08778557     -0.27812047      0.15457285
   5
# data nr     3  (natoms,nloc)=    1    4
C      0.00000000      0.00000000      0.00000000
X     -0.03074765      0.01477882     -0.32400572
X     -0.02234684      0.27839569      0.16253684
X      0.03600200     -0.00340591      0.00173493
X     -0.08773290     -0.27794027      0.15475004
   5
# data nr     4  (natoms,nloc)=    1    4
C      0.00000000      0.00000000      0.00000000
X     -0.03075078      0.01466536     -0.32400603
X     -0.02239223      0.27845443      0.16247865
X      0.03603580     -0.00340141      0.00174404
X     -0.08771817     -0.27789001      0.15479944
   5
# data nr     5  (natoms,nloc)=    1    4
C      0.00000000      0.00000000      0.00000000
X     -0.03075174      0.01463345     -0.32400616
X     -0.02240502      0.27847088      0.16246229
X      0.03604535     -0.00340014      0.00174660
X     -0.08771398     -0.27787582      0.15481338
   5
# data nr     6  (natoms,nloc)=    1    4
C      0.00000000      0.00000000      0.00000000
X     -0.03075201      0.01462447     -0.32400620
X     -0.02240861      0.27847550      0.16245769
X      0.03604803     -0.00339978      0.00174731
X     -0.08771280     -0.27787183      0.15481730
   5
# data nr     7  (natoms,nloc)=    1    4
C      0.00000000      0.00000000      0.00000000
X     -0.03075209      0.01462195     -0.32400621
X     -0.02240962      0.27847680      0.16245640
X      0.03604878     -0.00339968      0.00174752
X     -0.08771246     -0.27787070      0.15481840
   5
# data nr     8  (natoms,nloc)=    1    4
C      0.00000000      0.00000000      0.00000000
X     -0.03075211      0.01462124     -0.32400622
X     -0.02240990      0.27847717      0.16245603
X      0.03604899     -0.00339965      0.00174757
X     -0.08771237     -0.27787039      0.15481871
   5
# data nr     9  (natoms,nloc)=    1    4
C      0.00000000      0.00000000      0.00000000
X     -0.03075211      0.01462104     -0.32400622
X     -0.02240998      0.27847727      0.16245593
X      0.03604905     -0.00339964      0.00174759
X     -0.08771234     -0.27787030      0.15481880
   5
# data nr    10  (natoms,nloc)=    1    4
C      0.00000000      0.00000000      0.00000000
X     -0.03075212      0.01462098     -0.32400622
X     -0.02241001      0.27847730      0.16245590
X      0.03604907     -0.00339964      0.00174759
X     -0.08771234     -0.27787028      0.15481882
   5
# data nr    11  (natoms,nloc)=    1    4
C      0.00000000      0.00000000      0.00000000
X     -0.03075212      0.01462097     -0.32400622
X     -0.02241001      0.27847730      0.16245590
X      0.03604908     -0.00339964      0.00174759
X     -0.08771233     -0.27787027      0.15481883
   5
# data nr    12  (natoms,nloc)=    1    4
C      0.00000000      0.00000000      0.00000000
X     -0.03075212      0.01462096     -0.32400622
X     -0.02241001      0.27847731      0.16245589
X      0.03604908     -0.00339964      0.00174759
X     -0.08771233     -0.27787027      0.15481883
   5
# data nr    13  (natoms,nloc)=    1    4
C      0.00000000      0.00000000      0.00000000
X     -0.03075212      0.01462096     -0.32400622
X     -0.02241001      0.27847731      0.16245589
X      0.03604908     -0.00339964      0.00174759
X     -0.08771233     -0.27787027      0.15481883
