 spin=   1 iter=   1 nfo=    1 dir=    1      0.14944517     -0.09916261     -0.05028256      0.00297976      0.00239389     -0.00058586
 spin=   1 iter=   1 nfo=    2 dir=    1      0.37330270      0.01332252      0.01158323     -0.03942935      0.10611862      0.00501064
 spin=   1 iter=   1 nfo=    3 dir=    1     -0.01181641     -0.24770076     -0.00470951     -0.27523426     -0.02047384     -0.31948510
 spin=   1 iter=   1 nfo=    4 dir=    1     -0.00861300      0.00023318     -0.12560184     -0.02548447     -0.35891436      0.38135265
 spin=   1 iter=   1 nfo=    1 dir=    2      0.04164653     -0.24061528      0.19896875      0.00338313     -0.00188563     -0.00526875
 spin=   1 iter=   1 nfo=    2 dir=    2      0.10402997      0.01129114     -0.00435054     -0.64517157      0.66375618      0.04506123
 spin=   1 iter=   1 nfo=    3 dir=    2     -0.01725085     -0.60103876     -0.02284882      0.28791198      0.01612690      0.18053860
 spin=   1 iter=   1 nfo=    4 dir=    2      0.01155770      0.02160137      0.49700868     -0.02893431     -0.46463304      0.37584418
 spin=   1 iter=   1 nfo=    1 dir=    3      0.21424993     -0.04735349     -0.16689644      0.00313552      0.00456833      0.00143281
 spin=   1 iter=   1 nfo=    2 dir=    3      0.53517996      0.01572604      0.01997973      0.22578252     -0.13017449     -0.01225420
 spin=   1 iter=   1 nfo=    3 dir=    3     -0.01072698     -0.11828537      0.00283531     -0.55689467     -0.03907083     -0.57802591
 spin=   1 iter=   1 nfo=    4 dir=    3     -0.01856134     -0.00925273     -0.41689441     -0.02681664     -0.35224328      0.42672003
 spin=   2 iter=   1 nfo=    1 dir=    1     -0.00000000
 spin=   2 iter=   1 nfo=    2 dir=    1     -0.00043494
 spin=   2 iter=   1 nfo=    1 dir=    2      0.00000000
 spin=   2 iter=   1 nfo=    2 dir=    2      0.00012430
 spin=   2 iter=   1 nfo=    1 dir=    3      0.00000000
 spin=   2 iter=   1 nfo=    2 dir=    3      0.01936265
 spin=   1 iter=   1 nfo=    1 dir=    1      0.14944517     -0.09916261     -0.05028256      0.00297976      0.00239389     -0.00058586
 spin=   1 iter=   1 nfo=    2 dir=    1      0.37330270      0.01332252      0.01158323     -0.03942935      0.10611862      0.00501064
 spin=   1 iter=   1 nfo=    3 dir=    1     -0.01181641     -0.24770076     -0.00470951     -0.27523426     -0.02047384     -0.31948510
 spin=   1 iter=   1 nfo=    4 dir=    1     -0.00861300      0.00023318     -0.12560184     -0.02548447     -0.35891436      0.38135265
 spin=   1 iter=   1 nfo=    1 dir=    2      0.04164653     -0.24061528      0.19896875      0.00338313     -0.00188563     -0.00526875
 spin=   1 iter=   1 nfo=    2 dir=    2      0.10402997      0.01129114     -0.00435054     -0.64517157      0.66375618      0.04506123
 spin=   1 iter=   1 nfo=    3 dir=    2     -0.01725085     -0.60103876     -0.02284882      0.28791198      0.01612690      0.18053860
 spin=   1 iter=   1 nfo=    4 dir=    2      0.01155770      0.02160137      0.49700868     -0.02893431     -0.46463304      0.37584418
 spin=   1 iter=   1 nfo=    1 dir=    3      0.21424993     -0.04735349     -0.16689644      0.00313552      0.00456833      0.00143281
 spin=   1 iter=   1 nfo=    2 dir=    3      0.53517996      0.01572604      0.01997973      0.22578252     -0.13017449     -0.01225420
 spin=   1 iter=   1 nfo=    3 dir=    3     -0.01072698     -0.11828537      0.00283531     -0.55689467     -0.03907083     -0.57802591
 spin=   1 iter=   1 nfo=    4 dir=    3     -0.01856134     -0.00925273     -0.41689441     -0.02681664     -0.35224328      0.42672003
 spin=   2 iter=   1 nfo=    1 dir=    1     -0.00000000
 spin=   2 iter=   1 nfo=    2 dir=    1     -0.00043494
 spin=   2 iter=   1 nfo=    1 dir=    2      0.00000000
 spin=   2 iter=   1 nfo=    2 dir=    2      0.00012430
 spin=   2 iter=   1 nfo=    1 dir=    3      0.00000000
 spin=   2 iter=   1 nfo=    2 dir=    3      0.01936265
 spin=   1 iter=   1 nfo=    1 dir=    1      0.14944517     -0.09916261     -0.05028256      0.00297976      0.00239389     -0.00058586
 spin=   1 iter=   1 nfo=    2 dir=    1      0.37330270      0.01332252      0.01158323     -0.03942935      0.10611862      0.00501064
 spin=   1 iter=   1 nfo=    3 dir=    1     -0.01181641     -0.24770076     -0.00470951     -0.27523426     -0.02047384     -0.31948510
 spin=   1 iter=   1 nfo=    4 dir=    1     -0.00861300      0.00023318     -0.12560184     -0.02548447     -0.35891436      0.38135265
 spin=   1 iter=   1 nfo=    1 dir=    2      0.04164653     -0.24061528      0.19896875      0.00338313     -0.00188563     -0.00526875
 spin=   1 iter=   1 nfo=    2 dir=    2      0.10402997      0.01129114     -0.00435054     -0.64517157      0.66375618      0.04506123
 spin=   1 iter=   1 nfo=    3 dir=    2     -0.01725085     -0.60103876     -0.02284882      0.28791198      0.01612690      0.18053860
 spin=   1 iter=   1 nfo=    4 dir=    2      0.01155770      0.02160137      0.49700868     -0.02893431     -0.46463304      0.37584418
 spin=   1 iter=   1 nfo=    1 dir=    3      0.21424993     -0.04735349     -0.16689644      0.00313552      0.00456833      0.00143281
 spin=   1 iter=   1 nfo=    2 dir=    3      0.53517996      0.01572604      0.01997973      0.22578252     -0.13017449     -0.01225420
 spin=   1 iter=   1 nfo=    3 dir=    3     -0.01072698     -0.11828537      0.00283531     -0.55689467     -0.03907083     -0.57802591
 spin=   1 iter=   1 nfo=    4 dir=    3     -0.01856134     -0.00925273     -0.41689441     -0.02681664     -0.35224328      0.42672003
 spin=   2 iter=   1 nfo=    1 dir=    1     -0.00000000
 spin=   2 iter=   1 nfo=    2 dir=    1     -0.00043494
 spin=   2 iter=   1 nfo=    1 dir=    2      0.00000000
 spin=   2 iter=   1 nfo=    2 dir=    2      0.00012430
 spin=   2 iter=   1 nfo=    1 dir=    3      0.00000000
 spin=   2 iter=   1 nfo=    2 dir=    3      0.01936265
 spin=   1 iter=   1 nfo=    1 dir=    1      0.14944517     -0.09916261     -0.05028256      0.00297976      0.00239389     -0.00058586
 spin=   1 iter=   1 nfo=    2 dir=    1      0.37330270      0.01332252      0.01158323     -0.03942935      0.10611862      0.00501064
 spin=   1 iter=   1 nfo=    3 dir=    1     -0.01181641     -0.24770076     -0.00470951     -0.27523426     -0.02047384     -0.31948510
 spin=   1 iter=   1 nfo=    4 dir=    1     -0.00861300      0.00023318     -0.12560184     -0.02548447     -0.35891436      0.38135265
 spin=   1 iter=   1 nfo=    1 dir=    2      0.04164653     -0.24061528      0.19896875      0.00338313     -0.00188563     -0.00526875
 spin=   1 iter=   1 nfo=    2 dir=    2      0.10402997      0.01129114     -0.00435054     -0.64517157      0.66375618      0.04506123
 spin=   1 iter=   1 nfo=    3 dir=    2     -0.01725085     -0.60103876     -0.02284882      0.28791198      0.01612690      0.18053860
 spin=   1 iter=   1 nfo=    4 dir=    2      0.01155770      0.02160137      0.49700868     -0.02893431     -0.46463304      0.37584418
 spin=   1 iter=   1 nfo=    1 dir=    3      0.21424993     -0.04735349     -0.16689644      0.00313552      0.00456833      0.00143281
 spin=   1 iter=   1 nfo=    2 dir=    3      0.53517996      0.01572604      0.01997973      0.22578252     -0.13017449     -0.01225420
 spin=   1 iter=   1 nfo=    3 dir=    3     -0.01072698     -0.11828537      0.00283531     -0.55689467     -0.03907083     -0.57802591
 spin=   1 iter=   1 nfo=    4 dir=    3     -0.01856134     -0.00925273     -0.41689441     -0.02681664     -0.35224328      0.42672003
 spin=   2 iter=   1 nfo=    1 dir=    1     -0.00000000
 spin=   2 iter=   1 nfo=    2 dir=    1     -0.00043494
 spin=   2 iter=   1 nfo=    1 dir=    2      0.00000000
 spin=   2 iter=   1 nfo=    2 dir=    2      0.00012430
 spin=   2 iter=   1 nfo=    1 dir=    3      0.00000000
 spin=   2 iter=   1 nfo=    2 dir=    3      0.01936265
 spin=   1 iter=   1 nfo=    1 dir=    1      0.79155589     -0.75688220     -0.00837878      0.00265689      0.00266305     -0.00837093      0.42031230     -0.03965187     -0.00961581     -0.00961314     -0.03966533      0.04236403      0.00778380      0.00777797      0.04237273      0.00023488      0.00023516      0.00000054      0.00000008     -0.00023483     -0.00023511
 spin=   1 iter=   1 nfo=    2 dir=    1      0.04239062      0.19683278     -0.05580033      0.01792694      0.01796282     -0.05575315     -0.73712550      0.20629513     -0.06184340     -0.06197141      0.20612919     -0.01241310      0.02457145      0.02460097     -0.01236327     -0.00583524     -0.00584134     -0.00001115     -0.00000179      0.00583389      0.00583999
 spin=   1 iter=   1 nfo=    3 dir=    1     -0.22108704      0.02414451      0.05665522     -0.01626356     -0.01629784      0.05661118     -0.76939381      0.00894250     -0.02444174     -0.02446995      0.00889388     -0.19813957      0.05926723      0.05938961     -0.19798099      0.00560555      0.00561140      0.00001068      0.00000171     -0.00560426     -0.00561011
 spin=   1 iter=   1 nfo=    4 dir=    1      0.04119439     -0.03615639      0.02358873     -0.00024099     -0.00044255     -0.00077858     -0.07093137     -0.52524437      0.00538262      0.00987056      0.01727941      0.50162466     -0.00513928     -0.00942543     -0.01650679      0.00000953      0.00000937     -0.00003268      0.00000008      0.00000065      0.00000092
 spin=   1 iter=   1 nfo=    5 dir=    1      0.00281481     -0.00242384     -0.00007643      0.00711510      0.00000644     -0.00014003     -0.00599108      0.00171825     -0.16030299     -0.00014392      0.00315114     -0.00164225      0.15318080      0.00013764     -0.00301148      0.00000927     -0.00000002     -0.00000008      0.00000292     -0.00000923      0.00000005
 spin=   1 iter=   1 nfo=    6 dir=    1      0.00281447     -0.00242343     -0.00014008      0.00000644      0.00711773     -0.00007648     -0.00599247      0.00315232     -0.00014397     -0.16035829      0.00171929     -0.00301260      0.00013768      0.15323347     -0.00164325     -0.00000005      0.00000923      0.00000008     -0.00000291      0.00000002     -0.00000928
 spin=   1 iter=   1 nfo=    7 dir=    1      0.04119143     -0.03615391     -0.00077829     -0.00044239     -0.00024096      0.02358051     -0.07092661      0.01727352      0.00986691      0.00538219     -0.52507688     -0.01650118     -0.00942197     -0.00513887      0.50146523     -0.00000092     -0.00000065      0.00003267     -0.00000009     -0.00000921     -0.00000956
 spin=   1 iter=   1 nfo=    1 dir=    2      0.41377385      0.47538214     -0.22404514      0.06999962      0.07016118     -0.22384255     -0.01726949      0.03903692     -0.02369345     -0.02373514      0.03897588      0.03549840     -0.02429971     -0.02434086      0.03543673      0.00622522      0.00623255      0.00001394      0.00000220     -0.00622395     -0.00623128
 spin=   1 iter=   1 nfo=    2 dir=    2      0.84607337     -0.32974919      0.01661417      0.01927285      0.01928822      0.01664874      0.45253393      0.09209239     -0.02875262     -0.02881207      0.09201046     -0.04477846      0.00089772      0.00091267     -0.04476503     -0.00266240     -0.00266524     -0.00000537     -0.00000083      0.00266171      0.00266455
 spin=   1 iter=   1 nfo=    3 dir=    2     -0.31254325      0.84594005      0.01204453      0.02065109      0.02066924      0.01208268     -0.39198790     -0.04567115      0.00284681      0.00286400     -0.04565383      0.10850898     -0.03360562     -0.03367491      0.10841425     -0.00312740     -0.00313071     -0.00000624     -0.00000097      0.00312660      0.00312992
 spin=   1 iter=   1 nfo=    4 dir=    2      0.06211745      0.06507051      0.59525947     -0.00604840     -0.01112042     -0.01976881      0.00284983     -0.27811700      0.00289656      0.00528595      0.00898218     -0.31864805      0.00331175      0.00604743      0.01031614      0.00067682      0.00086501     -0.00243598      0.00000385      0.00004723      0.00007424
 spin=   1 iter=   1 nfo=    5 dir=    2      0.00484127      0.00506052     -0.00194314      0.18013501      0.00016532     -0.00355326      0.00023132      0.00088717     -0.08404992     -0.00007146      0.00163850      0.00102019     -0.09646324     -0.00008260      0.00188248      0.00072533     -0.00000161     -0.00000651      0.00021111     -0.00072306      0.00000350
 spin=   1 iter=   1 nfo=    6 dir=    2      0.00484194      0.00506119     -0.00355464      0.00016537      0.18020011     -0.00194435      0.00023135      0.00163915     -0.00007150     -0.08408043      0.00088772      0.00188322     -0.00008264     -0.09649794      0.00102082     -0.00000349      0.00072293      0.00000652     -0.00021061      0.00000161     -0.00072599
 spin=   1 iter=   1 nfo=    7 dir=    2      0.06211193      0.06506489     -0.01976164     -0.01111612     -0.00604766      0.59505906      0.00284962      0.00897898      0.00528388      0.00289639     -0.27802190      0.01031250      0.00604508      0.00331156     -0.31854037     -0.00007417     -0.00004726      0.00243347     -0.00000389     -0.00086450     -0.00067850
 spin=   1 iter=   1 nfo=    1 dir=    3      0.00018890      0.00018945     -0.25373929      0.07377213     -0.07404271      0.25367815     -0.00000038      0.06902484     -0.02007331      0.02014268     -0.06902823      0.06871347     -0.01998279      0.02005182     -0.06871698      0.00675867     -0.00107299      0.02688331     -0.00166026     -0.00105901      0.00677198
 spin=   1 iter=   1 nfo=    2 dir=    3     -0.00016900     -0.00001134      0.07250527     -0.01730708      0.01736616     -0.07250350      0.00018457     -0.25823667      0.06162618     -0.06185251      0.25816993      0.06185109     -0.01476494      0.01481427     -0.06185363      0.00651186      0.00031265      0.02592784     -0.00163432      0.00032269      0.00652278
 spin=   1 iter=   1 nfo=    3 dir=    3     -0.00001097     -0.00016897      0.07228587     -0.01714438      0.01720291     -0.07228408     -0.00018401      0.06194336     -0.01469239      0.01474150     -0.06194575     -0.25835362      0.06125975     -0.06148496      0.25828667      0.00650603      0.00035227      0.02590353     -0.00163188      0.00036220      0.00651689
 spin=   1 iter=   1 nfo=    4 dir=    3     -0.00082204     -0.00084507      0.11306656     -0.00059295      0.07345744     -0.00017321     -0.00002298      0.11473073     -0.00065627      0.06724319     -0.00051812      0.11478463     -0.00065808      0.06707384     -0.00052780      0.00750901      1.00344006      0.04708950     -0.01014073     -0.00023544      0.03213048
 spin=   1 iter=   1 nfo=    5 dir=    3      0.00029497      0.00030318     -0.00037857      0.11553359      0.00022796      0.00108577      0.00000822     -0.00024295      0.11423473      0.00024437      0.00158640     -0.00023916      0.11419605      0.00024482      0.00160031     -0.05145412     -0.00012587     -0.00114174      0.00743091      0.20086589      0.00032649
 spin=   1 iter=   1 nfo=    6 dir=    3     -0.00029566     -0.00030389     -0.00108451     -0.00022785     -0.11553917      0.00037943     -0.00000823     -0.00158641     -0.00024429     -0.11424031      0.00024351     -0.00160035     -0.00024474     -0.11420165      0.00023972      0.00032646      0.20089894     -0.00114270      0.00742752     -0.00012585     -0.05145079
 spin=   1 iter=   1 nfo=    7 dir=    3      0.00082218      0.00084521      0.00017159     -0.07348058      0.00059293     -0.11307135      0.00002297      0.00051660     -0.06726462      0.00065627     -0.11473455      0.00052627     -0.06709535      0.00065808     -0.11478857      0.03213150     -0.00023559      0.04710037     -0.01014374      1.00349806      0.00751169
 spin=   2 iter=   1 nfo=    1 dir=    1      0.03392884     -0.00706052     -0.03165259      0.00272991      0.03319748     -0.02682245      0.00423633      0.03655199     -0.00355263     -0.00179399
 spin=   2 iter=   1 nfo=    2 dir=    1     -0.00411148     -0.00390738     -0.01913075     -0.00080977     -0.01212590     -0.03145830     -0.00158808      0.02652523      0.00087897     -0.00119358
 spin=   2 iter=   1 nfo=    3 dir=    1     -0.07775665     -0.31558587      0.45377256     -0.05462445     -0.18319162      0.16434458     -0.02354812     -0.40205572      0.03311985      0.02196928
 spin=   2 iter=   1 nfo=    4 dir=    1      0.08435351     -0.01213859     -0.00442653      0.07900204      0.11096816     -0.10489227      0.02416353      0.02091730     -0.10740540      0.09696980
 spin=   2 iter=   1 nfo=    5 dir=    1     -0.00381916      0.00060188      0.00366107     -0.00151305     -0.00512981      0.00377319     -0.00937198     -0.00551211      0.00350928      0.00748920
 spin=   2 iter=   1 nfo=    1 dir=    2      0.63110324     -0.13133131     -0.58876219      0.05077814      0.61749931     -0.49891867      0.07879901      0.67989492     -0.06608149     -0.03336968
 spin=   2 iter=   1 nfo=    2 dir=    2     -0.07647807     -0.07268013     -0.35584673     -0.01506255     -0.22555246     -0.58514790     -0.02954013      0.49338957      0.01634997     -0.02220166
 spin=   2 iter=   1 nfo=    3 dir=    2     -1.44631536     -5.87018218      8.44056411     -1.01606160     -3.40748788      3.05693052     -0.43801148     -7.47857707      0.61605539      0.40864830
 spin=   2 iter=   1 nfo=    4 dir=    2      1.56904288     -0.22578557     -0.08233990      1.46949568      2.06409712     -1.95108083      0.44946025      0.38908016     -1.99781884      1.80370872
 spin=   2 iter=   1 nfo=    5 dir=    2     -0.07103937      0.01119548      0.06809893     -0.02814426     -0.09541852      0.07018423     -0.17432618     -0.10252969      0.06527575      0.13930504
 spin=   2 iter=   1 nfo=    1 dir=    3      0.34349744      0.12576608      0.37933680     -0.12262883      0.37032087     -0.15011936      0.01681345     -0.46392270      0.13836079     -0.03502500
 spin=   2 iter=   1 nfo=    2 dir=    3     -0.20221561     -0.01163108     -0.02453204      0.05270297     -0.28098926      0.05362572      0.08353556      0.03717303     -0.06842874      0.02411057
 spin=   2 iter=   1 nfo=    3 dir=    3     -7.68941591     12.72650913    -14.41643937      2.46938700     -8.42914714      3.17980086     -0.59323734     10.54053063     -1.72509669     -0.09106170
 spin=   2 iter=   1 nfo=    4 dir=    3     -1.26004920      0.03763986     -0.10812275      1.88109223     -1.67653426      1.54390396      0.04220486      0.09774156     -2.50411185      2.30847259
 spin=   2 iter=   1 nfo=    5 dir=    3      0.03167616     -0.00403619      0.04535619     -0.09088546      0.04260982     -0.02629535      0.07090200     -0.05766124      0.11322205      0.02607577
 spin=   2 iter=   2 nfo=    1 dir=    1      0.01060387     -0.00694317     -0.00690095      0.00003604     -0.00120528      0.00003906     -0.00005169     -0.00080996      0.00003794      0.00003350
 spin=   2 iter=   2 nfo=    2 dir=    1     -0.00101642      0.00007323     -0.00144478     -0.00015101     -0.02049875     -0.02342303     -0.00374009      0.03082552      0.00331500     -0.00183635
 spin=   2 iter=   2 nfo=    3 dir=    1      0.00160599      0.01377357     -0.01310022      0.00088581     -0.32504043      0.29879566     -0.01586705     -0.08880476      0.04319883     -0.03537576
 spin=   2 iter=   2 nfo=    4 dir=    1      0.00080341     -0.02239621      0.02360319     -0.00121789      0.25252322     -0.26717611      0.01805689      0.02910042     -0.12056254      0.12547744
 spin=   2 iter=   2 nfo=    5 dir=    1      0.00005377      0.00003286     -0.00009461      0.00017566     -0.00378718      0.00310190     -0.01023459     -0.00476790      0.00611710      0.00787468
 spin=   2 iter=   2 nfo=    1 dir=    2      0.19724032     -0.12914909     -0.12836247      0.00067031     -0.02241909      0.00072652     -0.00096142     -0.01506588      0.00070571      0.00062322
 spin=   2 iter=   2 nfo=    2 dir=    2     -0.01890646      0.00136239     -0.02687421     -0.00280893     -0.38129409     -0.43568518     -0.06956890      0.57337822      0.06166185     -0.03415773
 spin=   2 iter=   2 nfo=    3 dir=    2      0.02987293      0.25619635     -0.24367187      0.01647663     -6.04600186      5.55782869     -0.29513979     -1.65183487      0.80353719     -0.65802161
 spin=   2 iter=   2 nfo=    4 dir=    2      0.01494381     -0.41658382      0.43903438     -0.02265350      4.69713453     -4.96969025      0.33587179      0.54129402     -2.24254807      2.33396848
 spin=   2 iter=   2 nfo=    5 dir=    2      0.00100018      0.00061124     -0.00175982      0.00326734     -0.07044462      0.05769780     -0.19037146     -0.08868665      0.11378336      0.14647474
 spin=   2 iter=   2 nfo=    1 dir=    3      0.10963584     -0.05088245      0.19376869     -0.04102498     -0.01161206      0.01117821     -0.00221679      0.01533511     -0.00331633      0.00026488
 spin=   2 iter=   2 nfo=    2 dir=    3     -0.02745677      0.01020845     -0.01132911      0.00298584     -0.32666681      0.13149241      0.09389588      0.08589907     -0.07043464      0.05304239
 spin=   2 iter=   2 nfo=    3 dir=    3     -0.00122747     -0.12539817      0.11917708      0.00783199      1.43654063     -1.35745983     -0.07588155      0.79818165      1.41394311     -1.29394441
 spin=   2 iter=   2 nfo=    4 dir=    3     -0.02339866      0.45196831     -0.47497416      0.00743256     -2.98520210      3.14699989      0.08570487     -0.19019620     -2.60371970      2.73938065
 spin=   2 iter=   2 nfo=    5 dir=    3     -0.00093117     -0.01319047      0.01118689     -0.03413170      0.02266471     -0.02124695      0.07151472     -0.02868383      0.18227251     -0.08036362
 spin=   2 iter=   3 nfo=    1 dir=    1      0.01238968     -0.00783439     -0.00823606      0.00001077     -0.00139238     -0.00001001     -0.00003272     -0.00091926      0.00002190      0.00002176
 spin=   2 iter=   3 nfo=    2 dir=    1     -0.00103606      0.00039581     -0.00178593     -0.00016373     -0.01931149     -0.02596444     -0.00381703      0.04320816      0.00451015     -0.00247642
 spin=   2 iter=   3 nfo=    3 dir=    1      0.00096096      0.01842661     -0.01745165      0.00071516     -0.39219232      0.36569200     -0.01220665     -0.11024353      0.05780882     -0.05047146
 spin=   2 iter=   3 nfo=    4 dir=    1      0.00143855     -0.02419688      0.02505942     -0.00059182      0.29792584     -0.31040394      0.01358821      0.03125288     -0.10599253      0.10900642
 spin=   2 iter=   3 nfo=    5 dir=    1      0.00003868      0.00002079     -0.00005523      0.00020957     -0.00247748      0.00143899     -0.01202614     -0.00276440      0.00696099      0.00937577
 spin=   2 iter=   3 nfo=    1 dir=    2      0.23045769     -0.14572681     -0.15319620      0.00020023     -0.02589948     -0.00018611     -0.00060870     -0.01709893      0.00040740      0.00040479
 spin=   2 iter=   3 nfo=    2 dir=    2     -0.01927176      0.00736268     -0.03321997     -0.00304560     -0.35921018     -0.48295734     -0.07100012      0.80370508      0.08389278     -0.04606363
 spin=   2 iter=   3 nfo=    3 dir=    2      0.01787481      0.34274629     -0.32461154      0.01330248     -7.29507815      6.80215170     -0.22705401     -2.05061233      1.07529712     -0.93881576
 spin=   2 iter=   3 nfo=    4 dir=    2      0.02675775     -0.45007740      0.46612119     -0.01100816      5.54165922     -5.77376226      0.25275058      0.58133150     -1.97153449      2.02759483
 spin=   2 iter=   3 nfo=    5 dir=    2      0.00071940      0.00038661     -0.00102727      0.00389800     -0.04608310      0.02676637     -0.22369589     -0.05141994      0.12948052      0.17439592
 spin=   2 iter=   3 nfo=    1 dir=    3      0.12620461     -0.09790527      0.25771672     -0.04778877     -0.01493439      0.01407397     -0.00232099      0.01957873     -0.00385453      0.00058968
 spin=   2 iter=   3 nfo=    2 dir=    3     -0.02633246      0.01622013     -0.01757041      0.00290296     -0.31824772      0.11947960      0.10089316      0.13875525     -0.09723214      0.08049300
 spin=   2 iter=   3 nfo=    3 dir=    3      0.00171116     -0.15338436      0.14558610      0.01214629      1.93348206     -1.84590428     -0.17542164      0.96118255      1.99998956     -1.82219280
 spin=   2 iter=   3 nfo=    4 dir=    3     -0.03753694      0.50085113     -0.51761212      0.00079550     -3.07478275      3.19353505      0.17272684     -0.21154654     -2.36983659      2.44947922
 spin=   2 iter=   3 nfo=    5 dir=    3     -0.00156972     -0.00913309      0.00686013     -0.04503746      0.00507470     -0.00520664      0.06732697     -0.00811583      0.24612702     -0.14485206
 spin=   2 iter=   4 nfo=    1 dir=    1      0.04923288     -0.02157231     -0.04154667     -0.00220643      0.01007821     -0.01916364     -0.01036571      0.01690171      0.00499360      0.00788858
 spin=   2 iter=   4 nfo=    2 dir=    1      0.00336323     -0.00862822      0.00325750      0.00111981     -0.01897500     -0.05949466     -0.00330394      0.17100925      0.01479396      0.01660905
 spin=   2 iter=   4 nfo=    3 dir=    1      0.03622573     -0.20035090      0.18361425      0.02938579     -0.76991193      0.75992038      0.07014973     -0.30044751      0.23656966     -0.26087453
 spin=   2 iter=   4 nfo=    4 dir=    1      0.00468361      0.01076804     -0.01048317     -0.00192497      0.43861500     -0.42587366     -0.07511679      0.00261522      0.00757130     -0.00690348
 spin=   2 iter=   4 nfo=    5 dir=    1      0.00505163      0.01177231     -0.02442416     -0.00720350      0.12424960     -0.16741433     -0.06536192      0.21059322      0.02485752      0.07729018
 spin=   2 iter=   4 nfo=    1 dir=    2      0.91576858     -0.40127486     -0.77279492     -0.04103137      0.18746067     -0.35645753     -0.19280881      0.31438739      0.09288492      0.14673546
 spin=   2 iter=   4 nfo=    2 dir=    2      0.06256075     -0.16049612      0.06059604      0.02083022     -0.35295083     -1.10664628     -0.06145401      3.18090577      0.27517533      0.30894481
 spin=   2 iter=   4 nfo=    3 dir=    2      0.67383160     -3.72670197      3.41538527      0.54660082    -14.32093403     14.13508635      1.30481989     -5.58855812      4.40044578     -4.85252866
 spin=   2 iter=   4 nfo=    4 dir=    2      0.08712293      0.20027687     -0.19497850     -0.03580291      8.15858727     -7.92158826     -1.39722881      0.04864597      0.14081844     -0.12839676
 spin=   2 iter=   4 nfo=    5 dir=    2      0.09397098      0.21895061     -0.45428585     -0.13397998      2.31115362     -3.11404722     -1.21579146      3.91718638      0.46237723      1.43764448
 spin=   2 iter=   4 nfo=    1 dir=    3      0.13500967     -2.22151292      1.42714311      1.88194920     -0.22945019      0.13067007      0.19604298      0.27533585     -0.02739375      0.25084837
 spin=   2 iter=   4 nfo=    2 dir=    3      0.39420174     -0.89201151      0.78093533      0.18436715     -0.18118487     -0.13849037      0.52231652      0.67231736     -1.09717379      1.09950937
 spin=   2 iter=   4 nfo=    3 dir=    3      0.34600085     -1.00230774      0.88766692     -0.02373698      8.80125583     -8.09514147     -4.72634941      0.87063156     14.29525902    -12.68083071
 spin=   2 iter=   4 nfo=    4 dir=    3      0.93608212     -4.05159072      3.92720440      0.74164752      0.15947003     -0.17049601      0.87448372      0.06891347     -3.91132422      3.80385883
 spin=   2 iter=   4 nfo=    5 dir=    3      1.50948742     -5.62339852      5.33563514      2.53281405      1.72904590     -1.10173546     -1.38744285     -2.00734401      2.26751958     -3.05560529
 spin=   2 iter=   5 nfo=    1 dir=    1      0.01321170     -0.00825627     -0.00885004      0.00000988     -0.00146919     -0.00005115     -0.00002265     -0.00095220      0.00001526      0.00001521
 spin=   2 iter=   5 nfo=    2 dir=    1     -0.00103714      0.00050523     -0.00191683     -0.00016843     -0.01887784     -0.02695828     -0.00381635      0.04802238      0.00492488     -0.00267530
 spin=   2 iter=   5 nfo=    3 dir=    1      0.00066690      0.02031165     -0.01921472      0.00065022     -0.42016487      0.39356819     -0.01133917     -0.11895027      0.06429989     -0.05701951
 spin=   2 iter=   5 nfo=    4 dir=    1      0.00169844     -0.02504588      0.02579460     -0.00042152      0.31766197     -0.32937945      0.01240120      0.03275515     -0.10403558      0.10659437
 spin=   2 iter=   5 nfo=    5 dir=    1      0.00003040      0.00001697     -0.00003767      0.00022098     -0.00199223      0.00080007     -0.01277343     -0.00202194      0.00734937      0.01001241
 spin=   2 iter=   5 nfo=    1 dir=    2      0.24574787     -0.15357422     -0.16461661      0.00018371     -0.02732817     -0.00095130     -0.00042136     -0.01771155      0.00028375      0.00028297
 spin=   2 iter=   5 nfo=    2 dir=    2     -0.01929184      0.00939797     -0.03565475     -0.00313299     -0.35114395     -0.50144360     -0.07098744      0.89325323      0.09160701     -0.04976311
 spin=   2 iter=   5 nfo=    3 dir=    2      0.01240517      0.37780959     -0.35740595      0.01209460     -7.81538904      7.32067005     -0.21091830     -2.21256434      1.19603716     -1.06061555
 spin=   2 iter=   5 nfo=    4 dir=    2      0.03159199     -0.46586934      0.47979614     -0.00784054      5.90876707     -6.12672177      0.23067123      0.60927495     -1.93513350      1.98272875
 spin=   2 iter=   5 nfo=    5 dir=    2      0.00056551      0.00031569     -0.00070072      0.00411028     -0.03705717      0.01488204     -0.23759614     -0.03760958      0.13670487      0.18623773
 spin=   2 iter=   5 nfo=    1 dir=    3      0.13197800     -0.12266153      0.28777549     -0.05057156     -0.01637043      0.01534648     -0.00236222      0.02143226     -0.00407739      0.00072972
 spin=   2 iter=   5 nfo=    2 dir=    3     -0.02522733      0.01744233     -0.01906005      0.00291993     -0.31503303      0.11536550      0.10346039      0.15825305     -0.10799657      0.09152056
 spin=   2 iter=   5 nfo=    3 dir=    3      0.00253302     -0.15956030      0.15159888      0.01351673      2.14661787     -2.05588974     -0.21772886      1.03178600      2.26039480     -2.06020502
 spin=   2 iter=   5 nfo=    4 dir=    3     -0.04212020      0.51484534     -0.52927631     -0.00094920     -3.15111688      3.25770938      0.19959791     -0.22328899     -2.36872073      2.43470363
 spin=   2 iter=   5 nfo=    5 dir=    3     -0.00189410     -0.00707799      0.00476434     -0.04890650     -0.00135778      0.00053495      0.06344949     -0.00141626      0.27216116     -0.17341110
 spin=   2 iter=   6 nfo=    1 dir=    1      0.02077686     -0.01184853     -0.01478653     -0.00002896     -0.00188670     -0.00088717      0.00013346     -0.00083680     -0.00007874     -0.00009622
 spin=   2 iter=   6 nfo=    2 dir=    1     -0.00111324      0.00262785     -0.00425161     -0.00028046     -0.01096462     -0.05206917     -0.00486404      0.16478659      0.01424410     -0.00545856
 spin=   2 iter=   6 nfo=    3 dir=    1     -0.00532165      0.05300500     -0.05012161     -0.00127656     -1.07295211      1.04695302      0.00306877     -0.32239172      0.22681474     -0.22224079
 spin=   2 iter=   6 nfo=    4 dir=    1      0.00592645     -0.04148585      0.04068881      0.00147764      0.77579827     -0.77067830     -0.01211730      0.06849654     -0.10860632      0.10895942
 spin=   2 iter=   6 nfo=    5 dir=    1     -0.00007620     -0.00018762      0.00036452      0.00026039      0.01768192     -0.02307947     -0.02011526      0.02776202      0.01089631      0.01736007
 spin=   2 iter=   6 nfo=    1 dir=    2      0.38646566     -0.22039537     -0.27503853     -0.00053863     -0.03509422     -0.01650187      0.00248243     -0.01556497     -0.00146460     -0.00178968
 spin=   2 iter=   6 nfo=    2 dir=    2     -0.02070733      0.04888051     -0.07908356     -0.00521680     -0.20395180     -0.96852559     -0.09047520      3.06515843      0.26495197     -0.10153409
 spin=   2 iter=   6 nfo=    3 dir=    2     -0.09898637      0.98593052     -0.93229747     -0.02374483    -19.95772814     19.47412495      0.05707529     -5.99672974      4.21897075     -4.13388879
 spin=   2 iter=   6 nfo=    4 dir=    2      0.11023624     -0.77166615      0.75684050      0.02748506     14.43046628    -14.33523124     -0.22539334      1.27409339     -2.02015016      2.02671842
 spin=   2 iter=   6 nfo=    5 dir=    2     -0.00141737     -0.00348962      0.00678023      0.00484330      0.32889830     -0.42929665     -0.37416061      0.51639454      0.20268153      0.32290831
 spin=   2 iter=   6 nfo=    1 dir=    3      0.16737128     -0.48851814      0.62484130     -0.02517256     -0.03460270      0.02957906     -0.00015605      0.04284660     -0.00474877      0.00386612
 spin=   2 iter=   6 nfo=    2 dir=    3      0.00253103     -0.01439125      0.00611454      0.00541340     -0.25628985     -0.00028978      0.17062734      0.62080060     -0.42201774      0.41282657
 spin=   2 iter=   6 nfo=    3 dir=    3     -0.00597570     -0.06024905      0.06163111      0.02027610      7.16713947     -7.06661793     -1.51407721      2.67110973      9.05331713     -8.36206230
 spin=   2 iter=   6 nfo=    4 dir=    3     -0.06087717      0.43162700     -0.42339959     -0.01412680     -5.07943773      5.04796832      0.67901814     -0.46335238     -3.63562202      3.55115685
 spin=   2 iter=   6 nfo=    5 dir=    3     -0.01031856      0.05439978     -0.05424252     -0.05180471     -0.06217370      0.06384522     -0.04386417     -0.00975980      0.54339888     -0.55112229
 spin=   2 iter=   7 nfo=    1 dir=    1      0.01696484     -0.01011574     -0.01173115     -0.00000335     -0.00173305     -0.00038123      0.00004676     -0.00097108     -0.00002822     -0.00003241
 spin=   2 iter=   7 nfo=    2 dir=    1     -0.00104798      0.00124384     -0.00277105     -0.00020336     -0.01611757     -0.03445852     -0.00397979      0.08351665      0.00785127     -0.00383656
 spin=   2 iter=   7 nfo=    3 dir=    1     -0.00144880      0.03234346     -0.03052725      0.00007019     -0.62229465      0.59549503     -0.00641194     -0.18182311      0.11299478     -0.10625511
 spin=   2 iter=   7 nfo=    4 dir=    1      0.00332909     -0.03068021      0.03079112      0.00040860      0.46013244     -0.46657931      0.00474950      0.04408356     -0.10024548      0.10119498
 spin=   2 iter=   7 nfo=    5 dir=    1     -0.00002362     -0.00003275      0.00010306      0.00026099      0.00285519     -0.00519357     -0.01618957      0.00525633      0.00910047      0.01325089
 spin=   2 iter=   7 nfo=    1 dir=    2      0.31555913     -0.18816289     -0.21820688     -0.00006246     -0.03223621     -0.00709116      0.00086977     -0.01806276     -0.00052501     -0.00060284
 spin=   2 iter=   7 nfo=    2 dir=    2     -0.01949348      0.02313686     -0.05154407     -0.00378273     -0.29980080     -0.64095391     -0.07402754      1.55347434      0.14604022     -0.07136352
 spin=   2 iter=   7 nfo=    3 dir=    2     -0.02694842      0.60161033     -0.56782765      0.00130566    -11.57515676     11.07666300     -0.11926941     -3.38204686      2.10180893     -1.97644446
 spin=   2 iter=   7 nfo=    4 dir=    2      0.06192318     -0.57067209      0.57273510      0.00760024      8.55883089     -8.67874827      0.08834306      0.81999241     -1.86463373      1.88229518
 spin=   2 iter=   7 nfo=    5 dir=    2     -0.00043944     -0.00060910      0.00191693      0.00485436      0.05310886     -0.09660448     -0.30113922      0.09777185      0.16927703      0.24647525
 spin=   2 iter=   7 nfo=    1 dir=    3      0.14742371     -0.27655291      0.43672275     -0.05165768     -0.02368679      0.02131969     -0.00195457      0.03017517     -0.00463332      0.00168032
 spin=   2 iter=   7 nfo=    2 dir=    3     -0.01643306      0.01804609     -0.02176786      0.00329257     -0.29458952      0.08202786      0.12361871      0.30014495     -0.19477745      0.18018533
 spin=   2 iter=   7 nfo=    3 dir=    3      0.00519875     -0.16425813      0.15756690      0.01937657      3.68825291     -3.58683126     -0.56962194      1.54260002      4.25089986     -3.89576367
 spin=   2 iter=   7 nfo=    4 dir=    3     -0.06282424      0.55598276     -0.55772065     -0.00980622     -3.74063314      3.78595135      0.36080587     -0.29758201     -2.60918993      2.61209705
 spin=   2 iter=   7 nfo=    5 dir=    3     -0.00477307      0.01432485     -0.01610597     -0.05962670     -0.03674240      0.03273542      0.02124781      0.02573645      0.39522903     -0.33724374
 spin=   2 iter=   8 nfo=    1 dir=    1      0.04234945     -0.02495686     -0.02466448     -0.00002493     -0.01629975      0.01231356      0.00111163     -0.01674951     -0.00066469     -0.00064017
 spin=   2 iter=   8 nfo=    2 dir=    1      0.00077128     -0.00328464      0.00326275      0.00020588      0.00974508     -0.10795167     -0.00747179      0.41850921      0.02921886     -0.00279223
 spin=   2 iter=   8 nfo=    3 dir=    1      0.03119650     -0.12332503      0.11341588      0.00989649     -2.68647533      2.65763369      0.05215491     -0.73930691      0.64605539     -0.65347224
 spin=   2 iter=   8 nfo=    4 dir=    1     -0.01178492      0.02838983     -0.02684070     -0.00201373      1.96573291     -1.92858506     -0.09167341      0.16890730     -0.11505064      0.12075357
 spin=   2 iter=   8 nfo=    5 dir=    1     -0.00108355      0.00346681     -0.00256634     -0.00091421      0.08505908     -0.10210720     -0.02766742      0.12523245      0.01675556      0.02062091
 spin=   2 iter=   8 nfo=    1 dir=    2      0.78772886     -0.46420927     -0.45878931     -0.00046379     -0.30318648      0.22904068      0.02067707     -0.31155584     -0.01236352     -0.01190789
 spin=   2 iter=   8 nfo=    2 dir=    2      0.01434774     -0.06110276      0.06069541      0.00382988      0.18126700     -2.00798627     -0.13898134      7.78459807      0.54349402     -0.05193795
 spin=   2 iter=   8 nfo=    3 dir=    2      0.58027801     -2.29393455      2.10961707      0.18408265    -49.97048147     49.43400473      0.97010184    -13.75166841     12.01725467    -12.15520694
 spin=   2 iter=   8 nfo=    4 dir=    2     -0.21920198      0.52802480     -0.49921121     -0.03745424     36.56419144    -35.87321248     -1.70520063      3.14181345     -2.14001531      2.24609496
 spin=   2 iter=   8 nfo=    5 dir=    2     -0.02015402      0.06447973     -0.04773051     -0.01700346      1.58216976     -1.89927725     -0.51463625      2.32941709      0.31166234      0.38356774
 spin=   2 iter=   8 nfo=    1 dir=    3     -0.43595958      1.79897324     -1.81926584     -0.09224296      0.16097438     -0.11759005     -0.01103435     -0.18651695      0.01147296     -0.02116610
 spin=   2 iter=   8 nfo=    2 dir=    3      0.32047592     -1.35838141      1.28053159      0.07987719      0.26598970     -0.61980369      0.23041592      1.56430350     -1.04294642      1.07516048
 spin=   2 iter=   8 nfo=    3 dir=    3     -0.96597766      6.02950928     -5.69943665     -0.19514511     20.27413032    -20.04245697     -4.78183901      5.48155413     25.75188468    -24.16474213
 spin=   2 iter=   8 nfo=    4 dir=    3      1.31211055     -9.00745964      8.72378634      0.46847379     -8.08580787      7.95855398      1.40061386     -0.87454027     -6.72807925      6.47070640
 spin=   2 iter=   8 nfo=    5 dir=    3      0.19409570     -1.23355234      1.19408814      0.35845645     -0.02514013      0.05337575      0.12117792     -0.18455978     -0.72370316      0.64691922
 spin=   1 iter=   1 nfo=    1 dir=    1     -0.00062294      0.02467233      0.00000000
 spin=   1 iter=   1 nfo=    2 dir=    1      0.00000000      0.00000000      0.00000000
 spin=   1 iter=   1 nfo=    3 dir=    1      0.00000000      0.03571902      0.00265526
 spin=   1 iter=   1 nfo=    1 dir=    2     -0.00035249      0.01396065      0.00000000
 spin=   1 iter=   1 nfo=    2 dir=    2      0.00000000      0.00000000      0.00000000
 spin=   1 iter=   1 nfo=    3 dir=    2      0.00000000      0.02021131      0.00150245
 spin=   1 iter=   1 nfo=    1 dir=    3     -0.00000995      0.00039402      0.00000000
 spin=   1 iter=   1 nfo=    2 dir=    3      0.00000000      0.00000000      0.00000000
 spin=   1 iter=   1 nfo=    3 dir=    3      0.00000000      0.00057045      0.00004240
 spin=   1 iter=   1 nfo=    1 dir=    1     -0.00062294      0.02467233      0.00000000
 spin=   1 iter=   1 nfo=    2 dir=    1      0.00000000      0.00000000      0.00000000
 spin=   1 iter=   1 nfo=    3 dir=    1      0.00000000      0.03571902      0.00265526
 spin=   1 iter=   1 nfo=    1 dir=    2     -0.00035249      0.01396065      0.00000000
 spin=   1 iter=   1 nfo=    2 dir=    2      0.00000000      0.00000000      0.00000000
 spin=   1 iter=   1 nfo=    3 dir=    2      0.00000000      0.02021131      0.00150245
 spin=   1 iter=   1 nfo=    1 dir=    3     -0.00000995      0.00039402      0.00000000
 spin=   1 iter=   1 nfo=    2 dir=    3      0.00000000      0.00000000      0.00000000
 spin=   1 iter=   1 nfo=    3 dir=    3      0.00000000      0.00057045      0.00004240
