 argument  1 = C_PBE_cc_PVQZ.nw



============================== echo of input deck ==============================
echo

title "C"

start C

geometry noautoz units angstrom nocenter
symmetry c1
C     0.00000000      0.00000000      0.000000
end

charge 0

basis spherical
* library cc-pvqz
end


dft
 odft
 mult 3
 xc pbe96
 grid xfine
 iterations 80


# usage sic fo [thresh_conv] [frzctr] [nopt] [loc] [rdctr]
# thresh_conv : threshold for convergence (not used yet)
# frzctr      : =0 no freezing centroids located in atom positions
#               =1    freezing centroids located in atom positions
#               =2    freezing selected centroids (edit centroids_FB.xyz and put F instead of X)
# nopt        : nr total optimizations steps
# loc         : =1    Use Foster-Boys localization before OPT
#               =0 NO Use Foster-Boys localization before OPT
#                (note.- if =0 then it will look for file centroids_FB.xyz)
# loc=0 is used if we generate centroids with external software
# loc=1 is used if we generate centroids from Foster-Boys algorithm (it will create file centroids_FB.xyz)
# rdctr       : 0 (default) Do not read from external file (create FODs from localization and use it)
#             : 1 Read from external file
 sic fo 2.0E-6 0 1.0 100 1 0
end

task dft energy
================================================================================


                                         
                                         


              Northwest Computational Chemistry Package (NWChem) 6.8
              ------------------------------------------------------


                    Environmental Molecular Sciences Laboratory
                       Pacific Northwest National Laboratory
                                Richland, WA 99352

                              Copyright (c) 1994-2018
                       Pacific Northwest National Laboratory
                            Battelle Memorial Institute

             NWChem is an open-source computational chemistry package
                        distributed under the terms of the
                      Educational Community License (ECL) 2.0
             A copy of the license is included with this distribution
                              in the LICENSE.TXT file

                                  ACKNOWLEDGMENT
                                  --------------

            This software and its documentation were developed at the
            EMSL at Pacific Northwest National Laboratory, a multiprogram
            national laboratory, operated for the U.S. Department of Energy
            by Battelle under Contract Number DE-AC05-76RL01830. Support
            for this work was provided by the Department of Energy Office
            of Biological and Environmental Research, Office of Basic
            Energy Sciences, and the Office of Advanced Scientific Computing.


           Job information
           ---------------

    hostname        = fa-Inspiron-3650
    program         = /home/ravindra/nwchem-master_github_01-18-19_mod/bin/LINUX64/nwchem
    date            = Mon Mar 11 14:24:27 2019

    compiled        = Mon_Mar_11_14:24:06_2019
    source          = /home/ravindra/nwchem-master_github_01-18-19_mod
    nwchem branch   = Development
    nwchem revision = 41243a3b
    ga revision     = 5.7.0
    use scalapack   = F
    input           = C_PBE_cc_PVQZ.nw
    prefix          = C.
    data base       = ./C.db
    status          = startup
    nproc           =        1
    time left       =     -1s



           Memory information
           ------------------

    heap     =   13107196 doubles =    100.0 Mbytes
    stack    =   13107201 doubles =    100.0 Mbytes
    global   =   26214400 doubles =    200.0 Mbytes (distinct from heap & stack)
    total    =   52428797 doubles =    400.0 Mbytes
    verify   = yes
    hardfail = no 


           Directory information
           ---------------------

  0 permanent = .
  0 scratch   = .




                                NWChem Input Module
                                -------------------


                                         C
                                         -

 Scaling coordinates for geometry "geometry" by  1.889725989
 (inverse scale =  0.529177249)



                             Geometry "geometry" -> ""
                             -------------------------

 Output coordinates in angstroms (scale by  1.889725989 to convert to a.u.)

  No.       Tag          Charge          X              Y              Z
 ---- ---------------- ---------- -------------- -------------- --------------
    1 C                    6.0000     0.00000000     0.00000000     0.00000000

      Atomic Mass 
      ----------- 

      C                 12.000000


 Effective nuclear repulsion energy (a.u.)       0.0000000000

            Nuclear Dipole moment (a.u.) 
            ----------------------------
        X                 Y               Z
 ---------------- ---------------- ----------------
     0.0000000000     0.0000000000     0.0000000000


            XYZ format geometry
            -------------------
     1
 geometry
 C                     0.00000000     0.00000000     0.00000000



 Summary of "ao basis" -> "" (spherical)
 ------------------------------------------------------------------------------
       Tag                 Description            Shells   Functions and Types
 ---------------- ------------------------------  ------  ---------------------
 *                          cc-pvqz                   on all atoms 


  fosic_input: flag2loc value not found; defaulting to 1
  fosic_input: flag2rdctr value not found; defaulting to 0

                                 NWChem DFT Module
                                 -----------------


                                         C


                      Basis "ao basis" -> "ao basis" (spherical)
                      -----
  C (Carbon)
  ----------
            Exponent  Coefficients 
       -------------- ---------------------------------------------------------
  1 S  3.39800000E+04  0.000091
  1 S  5.08900000E+03  0.000704
  1 S  1.15700000E+03  0.003693
  1 S  3.26600000E+02  0.015360
  1 S  1.06100000E+02  0.052929
  1 S  3.81100000E+01  0.147043
  1 S  1.47500000E+01  0.305631
  1 S  6.03500000E+00  0.399345
  1 S  2.53000000E+00  0.217051

  2 S  3.39800000E+04 -0.000019
  2 S  5.08900000E+03 -0.000151
  2 S  1.15700000E+03 -0.000785
  2 S  3.26600000E+02 -0.003324
  2 S  1.06100000E+02 -0.011512
  2 S  3.81100000E+01 -0.034160
  2 S  1.47500000E+01 -0.077173
  2 S  6.03500000E+00 -0.141493
  2 S  2.53000000E+00 -0.118019

  3 S  7.35500000E-01  1.000000

  4 S  2.90500000E-01  1.000000

  5 S  1.11100000E-01  1.000000

  6 P  3.45100000E+01  0.005378
  6 P  7.91500000E+00  0.036132
  6 P  2.36800000E+00  0.142493

  7 P  8.13200000E-01  1.000000

  8 P  2.89000000E-01  1.000000

  9 P  1.00700000E-01  1.000000

 10 D  1.84800000E+00  1.000000

 11 D  6.49000000E-01  1.000000

 12 D  2.28000000E-01  1.000000

 13 F  1.41900000E+00  1.000000

 14 F  4.85000000E-01  1.000000

 15 G  1.01100000E+00  1.000000



 Summary of "ao basis" -> "ao basis" (spherical)
 ------------------------------------------------------------------------------
       Tag                 Description            Shells   Functions and Types
 ---------------- ------------------------------  ------  ---------------------
 C                          cc-pvqz                 15       55   5s4p3d2f1g




 Summary of "ao basis" -> "ao basis" (spherical)
 ------------------------------------------------------------------------------
       Tag                 Description            Shells   Functions and Types
 ---------------- ------------------------------  ------  ---------------------
 C                          cc-pvqz                 15       55   5s4p3d2f1g


  Caching 1-el integrals 

            General Information
            -------------------
          SCF calculation type: DFT
          Wavefunction type:  spin polarized.
          No. of atoms     :     1
          No. of electrons :     6
           Alpha electrons :     4
            Beta electrons :     2
          Charge           :     0
          Spin multiplicity:     3
          Use of symmetry is: off; symmetry adaption is: off
          Maximum number of iterations:  80
          AO basis - number of functions:    55
                     number of shells:    15
          Convergence on energy requested:  1.00D-06
          Convergence on density requested:  1.00D-05
          Convergence on gradient requested:  5.00D-04

              XC Information
              --------------
                        PBE96 Method XC Functional
          PerdewBurkeErnzerhof Exchange Functional  1.000          
            Perdew 1991 LDA Correlation Functional  1.000 local    
           PerdewBurkeErnz. Correlation Functional  1.000 non-local

              FLO-SIC

             Grid Information
             ----------------
          Grid used for XC integration:  xfine     
          Radial quadrature: Mura-Knowles        
          Angular quadrature: Lebedev. 
          Tag              B.-S. Rad. Rad. Pts. Rad. Cut. Ang. Pts.
          ---              ---------- --------- --------- ---------
          C                   0.70      100           6.0      1454
          Grid pruning is: on 
          Number of quadrature shells:   100
          Spatial weights used:  Erf1

          Convergence Information
          -----------------------
          Convergence aids based upon iterative change in 
          total energy or number of iterations. 
          Levelshifting, if invoked, occurs when the 
          HOMO/LUMO gap drops below (HL_TOL):  1.00D-02
          DIIS, if invoked, will attempt to extrapolate 
          using up to (NFOCK): 10 stored Fock matrices.

                    Damping( 0%)  Levelshifting(0.5)       DIIS
                  --------------- ------------------- ---------------
          dE  on:    start            ASAP                start   
          dE off:    2 iters         80 iters            80 iters 


      Screening Tolerance Information
      -------------------------------
          Density screening/tol_rho:  1.00D-10
          AO Gaussian exp screening on grid/accAOfunc:  14
          CD Gaussian exp screening on grid/accCDfunc:  20
          XC Gaussian exp screening on grid/accXCfunc:  20
          Schwarz screening/accCoul:  1.00D-08


      Superposition of Atomic Density Guess
      -------------------------------------

 Sum of atomic energies:         -37.67209029

      Non-variational initial energy
      ------------------------------

 Total energy =     -37.315718
 1-e energy   =     -50.424904
 2-e energy   =      13.109187
 HOMO         =      -0.076796
 LUMO         =      -0.076796

   Time after variat. SCF:      0.2
   Time prior to 1st pass:      0.2

 Integral file          = ./C.aoints.0
 Record size in doubles =  65536        No. of integs per rec  =  43688
 Max. records in memory =     39        Max. records in file   = 649261
 No. of bits per label  =      8        No. of bits per value  =     64


 #quartets = 7.260D+03 #integrals = 1.371D+05 #direct =  0.0% #cached =100.0%


 Grid_pts file          = ./C.gridpts.0
 Record size in doubles =  12289        No. of grid_pts per rec  =   3070
 Max. records in memory =     54        Max. recs in file   =   3462450


           Memory utilization after 1st SCF pass: 
           Heap Space remaining (MW):        9.88             9884948
          Stack Space remaining (MW):       13.11            13106612

   convergence    iter        energy       DeltaE   RMS-Dens  Diis-err    time
 ---------------- ----- ----------------- --------- --------- ---------  ------
 d= 0,ls=0.0,diis     1    -37.7550585550 -3.78D+01  7.11D-03  9.23D-02     0.7
                                                     1.73D-03  2.58D-02
 d= 0,ls=0.0,diis     2    -37.7816089923 -2.66D-02  2.55D-03  3.44D-02     1.0
                                                     2.08D-03  1.58D-02
 d= 0,ls=0.0,diis     3    -37.7970772474 -1.55D-02  1.84D-04  2.84D-04     1.3
                                                     1.13D-04  1.40D-04
 d= 0,ls=0.0,diis     4    -37.7971655134 -8.83D-05  2.65D-05  2.83D-06     1.6
                                                     1.02D-05  8.46D-07
 d= 0,ls=0.0,diis     5    -37.7971669234 -1.41D-06  1.76D-06  1.60D-08     1.8
                                                     2.63D-06  2.37D-08
 d= 0,ls=0.0,diis     6    -37.7971669364 -1.30D-08  5.99D-08  2.29D-11     2.1
                                                     1.22D-07  2.62D-11
                        ----------------------
                        |   NWChen-FLO-SIC   |
                        ----------------------
        NWChem Fermi-Lowdin Orbital Self-Interaction Correction
xxxxxxxxxxxxxxxxxxxxxxxxxxxxxxxxxxxxxxxxxxxxxxxxxxxxxxxxxxxxxxxxxxxxxx

 Creating the Unitary transformation matrix
QR decomposition step 1 successful
QR decomposition step 2 successful
 checking the orthonormality of complex mo vectors
 CMPLX MO vectors are orthonormal
 printing density matrix from the transformed movecs
 printing number of electrons for spin=                    1
 ALPHA from complex movecs
CMPLX : Number of alpha electrons =       4.00000002
 printing number of electrons for spin=                    2
 BETA from complex movecs
CMPLX : Number of beta electrons =       2.00000012
 Before cmplx localize_sic
 printing complex uc global array

 global array: cmplx_uc[1:55,1:55],  handle: -915 

                     1                       2                       3                       4                       5                       6  
       ----------------------- ----------------------- ----------------------- ----------------------- ----------------------- -----------------------
   1      -0.99977,    0.00000     0.01621,    0.00000     0.00000,    0.00000     0.00000,    0.00000     0.00000,    0.00000     0.00776,    0.00000
   2       0.99217,    0.00000     0.03733,    0.00000     0.00000,    0.00000     0.00000,    0.00000     0.00000,    0.00000     0.02216,    0.00000
   3      -0.49321,    0.00000    -0.75214,    0.00000    -0.00000,    0.00000    -0.00000,    0.00000    -0.00000,    0.00000    -0.30767,    0.00000
   4      -0.28483,    0.00000    -0.95306,    0.00000    -0.00000,    0.00000    -0.00000,    0.00000    -0.00000,    0.00000    -0.06450,    0.00000
   5      -0.14855,    0.00000    -0.86733,    0.00000    -0.00000,    0.00000    -0.00000,    0.00000    -0.00000,    0.00000     0.46578,    0.00000
   6       0.00000,    0.00000     0.00000,    0.00000     0.25148,    0.00000     0.18952,    0.00000    -0.43869,    0.00000     0.00000,    0.00000
   7      -0.00000,    0.00000    -0.00000,    0.00000    -0.15560,    0.00000     0.50928,    0.00000     0.12537,    0.00000    -0.00000,    0.00000
   8      -0.00000,    0.00000    -0.00000,    0.00000     0.46100,    0.00000     0.06851,    0.00000     0.28163,    0.00000    -0.00000,    0.00000
   9       0.00000,    0.00000     0.00000,    0.00000     0.39618,    0.00000     0.29857,    0.00000    -0.69767,    0.00000     0.00000,    0.00000
  10      -0.00000,    0.00000    -0.00000,    0.00000    -0.24513,    0.00000     0.80229,    0.00000     0.19938,    0.00000    -0.00000,    0.00000
  11      -0.00000,    0.00000    -0.00000,    0.00000     0.72624,    0.00000     0.10793,    0.00000     0.44789,    0.00000    -0.00000,    0.00000
  12       0.00000,    0.00000     0.00000,    0.00000     0.42870,    0.00000     0.32308,    0.00000    -0.76599,    0.00000     0.00000,    0.00000
  13      -0.00000,    0.00000    -0.00000,    0.00000    -0.26526,    0.00000     0.86817,    0.00000     0.21890,    0.00000    -0.00000,    0.00000
  14      -0.00000,    0.00000    -0.00000,    0.00000     0.78587,    0.00000     0.11679,    0.00000     0.49175,    0.00000     0.00000,    0.00000
  15       0.00000,    0.00000     0.00000,    0.00000     0.32779,    0.00000     0.24703,    0.00000    -0.59632,    0.00000    -0.00000,    0.00000
  16      -0.00000,    0.00000    -0.00000,    0.00000    -0.20282,    0.00000     0.66382,    0.00000     0.17042,    0.00000     0.00000,    0.00000
  17      -0.00000,    0.00000    -0.00000,    0.00000     0.60089,    0.00000     0.08930,    0.00000     0.38282,    0.00000     0.00000,    0.00000
  18      -0.00018,    0.00000    -0.00195,    0.00000     0.00000,    0.00000    -0.00000,    0.00000    -0.00000,    0.00000    -0.00089,    0.00000
  19       0.00012,    0.00000     0.00125,    0.00000    -0.00000,    0.00000     0.00000,    0.00000     0.00000,    0.00000     0.00057,    0.00000
  20      -0.00005,    0.00000    -0.00051,    0.00000     0.00000,    0.00000     0.00000,    0.00000     0.00000,    0.00000    -0.00023,    0.00000
  21       0.00041,    0.00000     0.00437,    0.00000    -0.00000,    0.00000    -0.00000,    0.00000     0.00000,    0.00000     0.00200,    0.00000
  22       0.00030,    0.00000     0.00313,    0.00000    -0.00000,    0.00000    -0.00000,    0.00000     0.00000,    0.00000     0.00143,    0.00000
  23      -0.00008,    0.00000    -0.00250,    0.00000     0.00000,    0.00000    -0.00000,    0.00000    -0.00000,    0.00000    -0.00020,    0.00000
  24       0.00005,    0.00000     0.00161,    0.00000    -0.00000,    0.00000     0.00000,    0.00000     0.00000,    0.00000     0.00013,    0.00000
  25      -0.00002,    0.00000    -0.00065,    0.00000     0.00000,    0.00000     0.00000,    0.00000     0.00000,    0.00000    -0.00005,    0.00000
  26       0.00017,    0.00000     0.00562,    0.00000    -0.00000,    0.00000    -0.00000,    0.00000     0.00000,    0.00000     0.00046,    0.00000
  27       0.00012,    0.00000     0.00402,    0.00000    -0.00000,    0.00000    -0.00000,    0.00000     0.00000,    0.00000     0.00033,    0.00000
  28      -0.00002,    0.00000    -0.00211,    0.00000     0.00000,    0.00000    -0.00000,    0.00000    -0.00000,    0.00000     0.00118,    0.00000
  29       0.00001,    0.00000     0.00135,    0.00000    -0.00000,    0.00000     0.00000,    0.00000     0.00000,    0.00000    -0.00076,    0.00000
  30      -0.00001,    0.00000    -0.00055,    0.00000     0.00000,    0.00000     0.00000,    0.00000     0.00000,    0.00000     0.00031,    0.00000
  31       0.00005,    0.00000     0.00474,    0.00000    -0.00000,    0.00000    -0.00000,    0.00000     0.00000,    0.00000    -0.00264,    0.00000
  32       0.00003,    0.00000     0.00339,    0.00000    -0.00000,    0.00000    -0.00000,    0.00000     0.00000,    0.00000    -0.00189,    0.00000
  33       0.00000,    0.00000     0.00000,    0.00000     0.00039,    0.00000    -0.00049,    0.00000    -0.00197,    0.00000     0.00000,    0.00000
  34      -0.00000,    0.00000    -0.00000,    0.00000    -0.00003,    0.00000     0.00069,    0.00000     0.00212,    0.00000    -0.00000,    0.00000
  35      -0.00000,    0.00000     0.00000,    0.00000    -0.00026,    0.00000    -0.00014,    0.00000    -0.00030,    0.00000     0.00000,    0.00000
  36      -0.00000,    0.00000    -0.00000,    0.00000    -0.00022,    0.00000    -0.00003,    0.00000     0.00232,    0.00000    -0.00000,    0.00000
  37       0.00000,    0.00000     0.00000,    0.00000    -0.00098,    0.00000    -0.00012,    0.00000    -0.00104,    0.00000     0.00000,    0.00000
  38       0.00000,    0.00000     0.00000,    0.00000    -0.00017,    0.00000     0.00041,    0.00000    -0.00341,    0.00000     0.00000,    0.00000
  39       0.00000,    0.00000     0.00000,    0.00000     0.00019,    0.00000     0.00063,    0.00000    -0.00178,    0.00000     0.00000,    0.00000
  40       0.00000,    0.00000     0.00000,    0.00000     0.00035,    0.00000    -0.00043,    0.00000    -0.00226,    0.00000     0.00000,    0.00000
  41       0.00000,    0.00000    -0.00000,    0.00000    -0.00003,    0.00000     0.00062,    0.00000     0.00244,    0.00000    -0.00000,    0.00000
  42      -0.00000,    0.00000     0.00000,    0.00000    -0.00024,    0.00000    -0.00013,    0.00000    -0.00034,    0.00000     0.00000,    0.00000
  43      -0.00000,    0.00000    -0.00000,    0.00000    -0.00020,    0.00000    -0.00003,    0.00000     0.00267,    0.00000    -0.00000,    0.00000
  44       0.00000,    0.00000     0.00000,    0.00000    -0.00088,    0.00000    -0.00010,    0.00000    -0.00119,    0.00000     0.00000,    0.00000
  45       0.00000,    0.00000     0.00000,    0.00000    -0.00016,    0.00000     0.00036,    0.00000    -0.00392,    0.00000     0.00000,    0.00000
  46       0.00000,    0.00000     0.00000,    0.00000     0.00017,    0.00000     0.00056,    0.00000    -0.00205,    0.00000     0.00000,    0.00000
  47      -0.00002,    0.00000    -0.00059,    0.00000    -0.00000,    0.00000     0.00000,    0.00000     0.00000,    0.00000    -0.00020,    0.00000
  48       0.00002,    0.00000     0.00085,    0.00000     0.00000,    0.00000    -0.00000,    0.00000    -0.00000,    0.00000     0.00028,    0.00000
  49      -0.00001,    0.00000    -0.00034,    0.00000     0.00000,    0.00000     0.00000,    0.00000     0.00000,    0.00000    -0.00011,    0.00000
  50      -0.00000,    0.00000    -0.00018,    0.00000    -0.00000,    0.00000     0.00000,    0.00000     0.00000,    0.00000    -0.00006,    0.00000
  51      -0.00002,    0.00000    -0.00055,    0.00000     0.00000,    0.00000     0.00000,    0.00000     0.00000,    0.00000    -0.00018,    0.00000
  52      -0.00002,    0.00000    -0.00061,    0.00000    -0.00000,    0.00000    -0.00000,    0.00000     0.00000,    0.00000    -0.00021,    0.00000
  53       0.00002,    0.00000     0.00054,    0.00000    -0.00000,    0.00000     0.00000,    0.00000    -0.00000,    0.00000     0.00018,    0.00000
  54       0.00002,    0.00000     0.00077,    0.00000     0.00000,    0.00000     0.00000,    0.00000    -0.00000,    0.00000     0.00026,    0.00000
  55       0.00001,    0.00000     0.00029,    0.00000     0.00000,    0.00000     0.00000,    0.00000    -0.00000,    0.00000     0.00010,    0.00000

                     7                       8                       9                      10                      11                      12  
       ----------------------- ----------------------- ----------------------- ----------------------- ----------------------- -----------------------
   1       0.00000,    0.00000     0.00000,    0.00000    -0.00000,    0.00000     0.00000,    0.00000    -0.00000,    0.00000     0.00000,    0.00000
   2       0.00000,    0.00000     0.00000,    0.00000    -0.00000,    0.00000    -0.00000,    0.00000     0.00000,    0.00000    -0.00000,    0.00000
   3      -0.00000,    0.00000    -0.00000,    0.00000     0.00000,    0.00000     0.00000,    0.00000    -0.00000,    0.00000    -0.00000,    0.00000
   4      -0.00000,    0.00000    -0.00000,    0.00000     0.00000,    0.00000    -0.00000,    0.00000     0.00000,    0.00000    -0.00000,    0.00000
   5       0.00000,    0.00000     0.00000,    0.00000    -0.00000,    0.00000    -0.00000,    0.00000     0.00000,    0.00000    -0.00000,    0.00000
   6       0.15637,    0.00000     0.11732,    0.00000     0.28314,    0.00000     0.00000,    0.00000    -0.00000,    0.00000     0.00000,    0.00000
   7      -0.09593,    0.00000     0.31635,    0.00000    -0.08092,    0.00000    -0.00000,    0.00000    -0.00000,    0.00000     0.00000,    0.00000
   8       0.28627,    0.00000     0.04192,    0.00000    -0.18177,    0.00000     0.00000,    0.00000    -0.00000,    0.00000     0.00000,    0.00000
   9       0.18474,    0.00000     0.13861,    0.00000     0.34146,    0.00000     0.00000,    0.00000    -0.00000,    0.00000     0.00000,    0.00000
  10      -0.11333,    0.00000     0.37376,    0.00000    -0.09758,    0.00000    -0.00000,    0.00000    -0.00000,    0.00000     0.00000,    0.00000
  11       0.33821,    0.00000     0.04953,    0.00000    -0.21921,    0.00000     0.00000,    0.00000    -0.00000,    0.00000     0.00000,    0.00000
  12      -0.00591,    0.00000    -0.00444,    0.00000     0.00777,    0.00000     0.00000,    0.00000    -0.00000,    0.00000     0.00000,    0.00000
  13       0.00363,    0.00000    -0.01196,    0.00000    -0.00222,    0.00000    -0.00000,    0.00000    -0.00000,    0.00000     0.00000,    0.00000
  14      -0.01082,    0.00000    -0.00158,    0.00000    -0.00499,    0.00000     0.00000,    0.00000    -0.00000,    0.00000     0.00000,    0.00000
  15      -0.31742,    0.00000    -0.23816,    0.00000    -0.55169,    0.00000     0.00000,    0.00000    -0.00000,    0.00000     0.00000,    0.00000
  16       0.19473,    0.00000    -0.64220,    0.00000     0.15766,    0.00000    -0.00000,    0.00000    -0.00000,    0.00000     0.00000,    0.00000
  17      -0.58113,    0.00000    -0.08511,    0.00000     0.35417,    0.00000     0.00000,    0.00000    -0.00000,    0.00000     0.00000,    0.00000
  18      -0.00000,    0.00000    -0.00000,    0.00000     0.00000,    0.00000     0.11184,    0.00000    -0.01006,    0.00000     0.13480,    0.00000
  19      -0.00000,    0.00000     0.00000,    0.00000    -0.00000,    0.00000     0.15251,    0.00000     0.06603,    0.00000    -0.10386,    0.00000
  20       0.00000,    0.00000     0.00000,    0.00000    -0.00000,    0.00000    -0.06665,    0.00000     0.10689,    0.00000    -0.02585,    0.00000
  21       0.00000,    0.00000    -0.00000,    0.00000    -0.00000,    0.00000     0.00583,    0.00000    -0.09811,    0.00000     0.01412,    0.00000
  22       0.00000,    0.00000    -0.00000,    0.00000    -0.00000,    0.00000    -0.01026,    0.00000     0.12182,    0.00000     0.10147,    0.00000
  23      -0.00000,    0.00000     0.00000,    0.00000    -0.00000,    0.00000     0.33927,    0.00000    -0.03051,    0.00000     0.40974,    0.00000
  24      -0.00000,    0.00000    -0.00000,    0.00000     0.00000,    0.00000     0.46265,    0.00000     0.20031,    0.00000    -0.31570,    0.00000
  25      -0.00000,    0.00000    -0.00000,    0.00000    -0.00000,    0.00000    -0.20220,    0.00000     0.32424,    0.00000    -0.07857,    0.00000
  26      -0.00000,    0.00000    -0.00000,    0.00000     0.00000,    0.00000     0.01767,    0.00000    -0.29760,    0.00000     0.04291,    0.00000
  27       0.00000,    0.00000     0.00000,    0.00000     0.00000,    0.00000    -0.03113,    0.00000     0.36954,    0.00000     0.30845,    0.00000
  28      -0.00000,    0.00000     0.00000,    0.00000    -0.00000,    0.00000     0.55616,    0.00000    -0.05002,    0.00000     0.67223,    0.00000
  29       0.00000,    0.00000    -0.00000,    0.00000     0.00000,    0.00000     0.75843,    0.00000     0.32837,    0.00000    -0.51794,    0.00000
  30      -0.00000,    0.00000    -0.00000,    0.00000     0.00000,    0.00000    -0.33146,    0.00000     0.53153,    0.00000    -0.12891,    0.00000
  31      -0.00000,    0.00000     0.00000,    0.00000     0.00000,    0.00000     0.02897,    0.00000    -0.48786,    0.00000     0.07040,    0.00000
  32       0.00000,    0.00000     0.00000,    0.00000     0.00000,    0.00000    -0.05103,    0.00000     0.60578,    0.00000     0.50605,    0.00000
  33       0.00018,    0.00000    -0.00022,    0.00000     0.00092,    0.00000    -0.00000,    0.00000     0.00000,    0.00000    -0.00000,    0.00000
  34      -0.00001,    0.00000     0.00031,    0.00000    -0.00099,    0.00000     0.00000,    0.00000    -0.00000,    0.00000     0.00000,    0.00000
  35      -0.00012,    0.00000    -0.00007,    0.00000     0.00014,    0.00000     0.00000,    0.00000     0.00000,    0.00000    -0.00000,    0.00000
  36      -0.00010,    0.00000    -0.00001,    0.00000    -0.00108,    0.00000    -0.00000,    0.00000     0.00000,    0.00000    -0.00000,    0.00000
  37      -0.00045,    0.00000    -0.00005,    0.00000     0.00048,    0.00000    -0.00000,    0.00000    -0.00000,    0.00000     0.00000,    0.00000
  38      -0.00008,    0.00000     0.00018,    0.00000     0.00159,    0.00000    -0.00000,    0.00000     0.00000,    0.00000     0.00000,    0.00000
  39       0.00009,    0.00000     0.00029,    0.00000     0.00083,    0.00000     0.00000,    0.00000     0.00000,    0.00000     0.00000,    0.00000
  40       0.00001,    0.00000    -0.00001,    0.00000     0.00051,    0.00000    -0.00000,    0.00000     0.00000,    0.00000    -0.00000,    0.00000
  41      -0.00000,    0.00000     0.00001,    0.00000    -0.00055,    0.00000     0.00000,    0.00000    -0.00000,    0.00000     0.00000,    0.00000
  42      -0.00000,    0.00000    -0.00000,    0.00000     0.00008,    0.00000     0.00000,    0.00000     0.00000,    0.00000    -0.00000,    0.00000
  43      -0.00000,    0.00000    -0.00000,    0.00000    -0.00060,    0.00000    -0.00000,    0.00000     0.00000,    0.00000    -0.00000,    0.00000
  44      -0.00001,    0.00000    -0.00000,    0.00000     0.00027,    0.00000    -0.00000,    0.00000    -0.00000,    0.00000     0.00000,    0.00000
  45      -0.00000,    0.00000     0.00001,    0.00000     0.00089,    0.00000    -0.00000,    0.00000     0.00000,    0.00000     0.00000,    0.00000
  46       0.00000,    0.00000     0.00001,    0.00000     0.00046,    0.00000     0.00000,    0.00000     0.00000,    0.00000     0.00000,    0.00000
  47      -0.00000,    0.00000     0.00000,    0.00000    -0.00000,    0.00000    -0.00000,    0.00000     0.00000,    0.00000    -0.00019,    0.00000
  48       0.00000,    0.00000    -0.00000,    0.00000     0.00000,    0.00000     0.00000,    0.00000    -0.00000,    0.00000     0.00046,    0.00000
  49      -0.00000,    0.00000     0.00000,    0.00000    -0.00000,    0.00000     0.00000,    0.00000     0.00000,    0.00000    -0.00027,    0.00000
  50      -0.00000,    0.00000     0.00000,    0.00000    -0.00000,    0.00000    -0.00000,    0.00000    -0.00000,    0.00000    -0.00010,    0.00000
  51      -0.00000,    0.00000    -0.00000,    0.00000    -0.00000,    0.00000     0.00000,    0.00000    -0.00000,    0.00000    -0.00006,    0.00000
  52      -0.00000,    0.00000    -0.00000,    0.00000    -0.00000,    0.00000     0.00000,    0.00000    -0.00000,    0.00000     0.00012,    0.00000
  53       0.00000,    0.00000     0.00000,    0.00000     0.00000,    0.00000     0.00000,    0.00000     0.00000,    0.00000    -0.00005,    0.00000
  54       0.00000,    0.00000     0.00000,    0.00000     0.00000,    0.00000     0.00000,    0.00000    -0.00000,    0.00000    -0.00052,    0.00000
  55       0.00000,    0.00000     0.00000,    0.00000     0.00000,    0.00000    -0.00000,    0.00000    -0.00000,    0.00000    -0.00050,    0.00000

                    13                      14                      15                      16                      17                      18  
       ----------------------- ----------------------- ----------------------- ----------------------- ----------------------- -----------------------
   1      -0.00000,    0.00000     0.00002,    0.00000    -0.00000,    0.00000     0.00000,    0.00000     0.00000,    0.00000    -0.01174,    0.00000
   2       0.00000,    0.00000     0.00030,    0.00000    -0.00000,    0.00000     0.00000,    0.00000     0.00000,    0.00000    -0.05632,    0.00000
   3       0.00000,    0.00000    -0.00406,    0.00000     0.00000,    0.00000    -0.00000,    0.00000    -0.00000,    0.00000     0.30418,    0.00000
   4       0.00000,    0.00000    -0.00568,    0.00000    -0.00000,    0.00000     0.00000,    0.00000     0.00000,    0.00000    -0.07646,    0.00000
   5      -0.00000,    0.00000    -0.00703,    0.00000    -0.00000,    0.00000     0.00000,    0.00000     0.00000,    0.00000    -0.09237,    0.00000
   6      -0.00000,    0.00000    -0.00000,    0.00000     0.26003,    0.00000    -0.19480,    0.00000     0.46728,    0.00000     0.00000,    0.00000
   7      -0.00000,    0.00000     0.00000,    0.00000    -0.15904,    0.00000    -0.52591,    0.00000    -0.13354,    0.00000    -0.00000,    0.00000
   8       0.00000,    0.00000     0.00000,    0.00000     0.47584,    0.00000    -0.06933,    0.00000    -0.29998,    0.00000    -0.00000,    0.00000
   9      -0.00000,    0.00000    -0.00000,    0.00000     0.11305,    0.00000    -0.08469,    0.00000     0.20913,    0.00000     0.00000,    0.00000
  10      -0.00000,    0.00000     0.00000,    0.00000    -0.06914,    0.00000    -0.22864,    0.00000    -0.05977,    0.00000    -0.00000,    0.00000
  11       0.00000,    0.00000     0.00000,    0.00000     0.20687,    0.00000    -0.03014,    0.00000    -0.13426,    0.00000    -0.00000,    0.00000
  12      -0.00000,    0.00000    -0.00000,    0.00000    -0.16201,    0.00000     0.12137,    0.00000    -0.28248,    0.00000    -0.00000,    0.00000
  13      -0.00000,    0.00000     0.00000,    0.00000     0.09909,    0.00000     0.32766,    0.00000     0.08073,    0.00000     0.00000,    0.00000
  14       0.00000,    0.00000     0.00000,    0.00000    -0.29647,    0.00000     0.04319,    0.00000     0.18135,    0.00000     0.00000,    0.00000
  15      -0.00000,    0.00000    -0.00000,    0.00000    -0.05435,    0.00000     0.04071,    0.00000    -0.09720,    0.00000    -0.00000,    0.00000
  16      -0.00000,    0.00000     0.00000,    0.00000     0.03324,    0.00000     0.10992,    0.00000     0.02778,    0.00000     0.00000,    0.00000
  17       0.00000,    0.00000     0.00000,    0.00000    -0.09945,    0.00000     0.01449,    0.00000     0.06240,    0.00000     0.00000,    0.00000
  18      -0.07077,    0.00000     0.06555,    0.00000     0.00000,    0.00000     0.00000,    0.00000    -0.00000,    0.00000     0.00826,    0.00000
  19      -0.00746,    0.00000    -0.04208,    0.00000    -0.00000,    0.00000    -0.00000,    0.00000    -0.00000,    0.00000    -0.00531,    0.00000
  20      -0.15290,    0.00000     0.01704,    0.00000     0.00000,    0.00000    -0.00000,    0.00000    -0.00000,    0.00000     0.00215,    0.00000
  21      -0.08993,    0.00000    -0.14724,    0.00000    -0.00000,    0.00000     0.00000,    0.00000    -0.00000,    0.00000    -0.01857,    0.00000
  22       0.05993,    0.00000    -0.10531,    0.00000    -0.00000,    0.00000     0.00000,    0.00000    -0.00000,    0.00000    -0.01328,    0.00000
  23      -0.21511,    0.00000     0.20073,    0.00000     0.00000,    0.00000     0.00000,    0.00000     0.00000,    0.00000     0.00887,    0.00000
  24      -0.02268,    0.00000    -0.12887,    0.00000    -0.00000,    0.00000    -0.00000,    0.00000    -0.00000,    0.00000    -0.00569,    0.00000
  25      -0.46476,    0.00000     0.05219,    0.00000     0.00000,    0.00000    -0.00000,    0.00000    -0.00000,    0.00000     0.00231,    0.00000
  26      -0.27337,    0.00000    -0.45093,    0.00000    -0.00000,    0.00000     0.00000,    0.00000    -0.00000,    0.00000    -0.01992,    0.00000
  27       0.18218,    0.00000    -0.32252,    0.00000    -0.00000,    0.00000     0.00000,    0.00000    -0.00000,    0.00000    -0.01425,    0.00000
  28      -0.35292,    0.00000     0.33095,    0.00000     0.00000,    0.00000     0.00000,    0.00000     0.00000,    0.00000     0.00076,    0.00000
  29      -0.03721,    0.00000    -0.21246,    0.00000    -0.00000,    0.00000    -0.00000,    0.00000    -0.00000,    0.00000    -0.00049,    0.00000
  30      -0.76250,    0.00000     0.08605,    0.00000     0.00000,    0.00000    -0.00000,    0.00000    -0.00000,    0.00000     0.00020,    0.00000
  31      -0.44849,    0.00000    -0.74344,    0.00000    -0.00000,    0.00000     0.00000,    0.00000    -0.00000,    0.00000    -0.00171,    0.00000
  32       0.29888,    0.00000    -0.53173,    0.00000    -0.00000,    0.00000     0.00000,    0.00000    -0.00000,    0.00000    -0.00122,    0.00000
  33       0.00000,    0.00000    -0.00000,    0.00000    -0.00006,    0.00000    -0.00008,    0.00000    -0.00126,    0.00000     0.00000,    0.00000
  34      -0.00000,    0.00000     0.00000,    0.00000     0.00000,    0.00000     0.00011,    0.00000     0.00136,    0.00000     0.00000,    0.00000
  35      -0.00000,    0.00000    -0.00000,    0.00000     0.00004,    0.00000    -0.00002,    0.00000    -0.00019,    0.00000    -0.00000,    0.00000
  36      -0.00000,    0.00000     0.00000,    0.00000     0.00004,    0.00000    -0.00001,    0.00000     0.00148,    0.00000    -0.00000,    0.00000
  37      -0.00000,    0.00000    -0.00000,    0.00000     0.00016,    0.00000    -0.00002,    0.00000    -0.00066,    0.00000    -0.00000,    0.00000
  38       0.00000,    0.00000    -0.00000,    0.00000     0.00003,    0.00000     0.00006,    0.00000    -0.00218,    0.00000    -0.00000,    0.00000
  39       0.00000,    0.00000    -0.00000,    0.00000    -0.00003,    0.00000     0.00010,    0.00000    -0.00114,    0.00000     0.00000,    0.00000
  40       0.00000,    0.00000    -0.00000,    0.00000    -0.00095,    0.00000    -0.00120,    0.00000    -0.00534,    0.00000     0.00000,    0.00000
  41      -0.00000,    0.00000     0.00000,    0.00000     0.00007,    0.00000     0.00170,    0.00000     0.00575,    0.00000     0.00000,    0.00000
  42      -0.00000,    0.00000    -0.00000,    0.00000     0.00065,    0.00000    -0.00036,    0.00000    -0.00080,    0.00000    -0.00000,    0.00000
  43      -0.00000,    0.00000     0.00000,    0.00000     0.00055,    0.00000    -0.00008,    0.00000     0.00629,    0.00000    -0.00000,    0.00000
  44      -0.00000,    0.00000    -0.00000,    0.00000     0.00243,    0.00000    -0.00028,    0.00000    -0.00281,    0.00000    -0.00000,    0.00000
  45       0.00000,    0.00000    -0.00000,    0.00000     0.00043,    0.00000     0.00100,    0.00000    -0.00924,    0.00000     0.00000,    0.00000
  46       0.00000,    0.00000    -0.00000,    0.00000    -0.00048,    0.00000     0.00155,    0.00000    -0.00483,    0.00000     0.00000,    0.00000
  47       0.00029,    0.00000    -0.00067,    0.00000    -0.00000,    0.00000     0.00000,    0.00000    -0.00000,    0.00000    -0.00019,    0.00000
  48      -0.00011,    0.00000     0.00097,    0.00000     0.00000,    0.00000     0.00000,    0.00000     0.00000,    0.00000     0.00028,    0.00000
  49      -0.00028,    0.00000    -0.00038,    0.00000     0.00000,    0.00000    -0.00000,    0.00000    -0.00000,    0.00000    -0.00011,    0.00000
  50       0.00017,    0.00000    -0.00020,    0.00000    -0.00000,    0.00000    -0.00000,    0.00000    -0.00000,    0.00000    -0.00006,    0.00000
  51      -0.00035,    0.00000    -0.00063,    0.00000    -0.00000,    0.00000     0.00000,    0.00000    -0.00000,    0.00000    -0.00018,    0.00000
  52       0.00051,    0.00000    -0.00070,    0.00000    -0.00000,    0.00000     0.00000,    0.00000     0.00000,    0.00000    -0.00020,    0.00000
  53       0.00053,    0.00000     0.00062,    0.00000     0.00000,    0.00000    -0.00000,    0.00000     0.00000,    0.00000     0.00018,    0.00000
  54       0.00006,    0.00000     0.00088,    0.00000     0.00000,    0.00000    -0.00000,    0.00000     0.00000,    0.00000     0.00025,    0.00000
  55      -0.00004,    0.00000     0.00033,    0.00000     0.00000,    0.00000     0.00000,    0.00000    -0.00000,    0.00000     0.00010,    0.00000

                    19                      20                      21                      22                      23                      24  
       ----------------------- ----------------------- ----------------------- ----------------------- ----------------------- -----------------------
   1       0.00000,    0.00000     0.00000,    0.00000    -0.00000,    0.00000     0.00000,    0.00000     0.00000,    0.00000    -0.00000,    0.00000
   2       0.00000,    0.00000     0.00000,    0.00000    -0.00000,    0.00000     0.00000,    0.00000     0.00000,    0.00000    -0.00000,    0.00000
   3      -0.00000,    0.00000    -0.00000,    0.00000     0.00000,    0.00000    -0.00000,    0.00000    -0.00000,    0.00000     0.00000,    0.00000
   4       0.00000,    0.00000     0.00000,    0.00000    -0.00000,    0.00000     0.00000,    0.00000     0.00000,    0.00000    -0.00000,    0.00000
   5       0.00000,    0.00000     0.00000,    0.00000    -0.00000,    0.00000     0.00000,    0.00000     0.00000,    0.00000    -0.00000,    0.00000
   6       0.00000,    0.00000    -0.00000,    0.00000     0.00000,    0.00000     0.00000,    0.00000     0.00044,    0.00000    -0.00056,    0.00000
   7      -0.00000,    0.00000    -0.00000,    0.00000     0.00000,    0.00000    -0.00000,    0.00000     0.00114,    0.00000     0.00038,    0.00000
   8       0.00000,    0.00000     0.00000,    0.00000     0.00000,    0.00000     0.00000,    0.00000     0.00018,    0.00000    -0.00104,    0.00000
   9       0.00000,    0.00000    -0.00000,    0.00000     0.00000,    0.00000     0.00000,    0.00000    -0.00004,    0.00000     0.00006,    0.00000
  10       0.00000,    0.00000    -0.00000,    0.00000     0.00000,    0.00000    -0.00000,    0.00000    -0.00011,    0.00000    -0.00004,    0.00000
  11       0.00000,    0.00000     0.00000,    0.00000     0.00000,    0.00000     0.00000,    0.00000    -0.00002,    0.00000     0.00010,    0.00000
  12      -0.00000,    0.00000     0.00000,    0.00000     0.00000,    0.00000     0.00000,    0.00000    -0.00069,    0.00000     0.00088,    0.00000
  13       0.00000,    0.00000     0.00000,    0.00000    -0.00000,    0.00000     0.00000,    0.00000    -0.00179,    0.00000    -0.00060,    0.00000
  14       0.00000,    0.00000    -0.00000,    0.00000    -0.00000,    0.00000    -0.00000,    0.00000    -0.00028,    0.00000     0.00163,    0.00000
  15      -0.00000,    0.00000     0.00000,    0.00000     0.00000,    0.00000     0.00000,    0.00000    -0.00038,    0.00000     0.00048,    0.00000
  16       0.00000,    0.00000     0.00000,    0.00000    -0.00000,    0.00000     0.00000,    0.00000    -0.00098,    0.00000    -0.00032,    0.00000
  17       0.00000,    0.00000    -0.00000,    0.00000    -0.00000,    0.00000    -0.00000,    0.00000    -0.00015,    0.00000     0.00089,    0.00000
  18      -0.00000,    0.00000     0.00000,    0.00000    -0.00000,    0.00000     0.00000,    0.00000     0.00000,    0.00000     0.00000,    0.00000
  19       0.00000,    0.00000     0.00000,    0.00000     0.00000,    0.00000    -0.00000,    0.00000    -0.00000,    0.00000     0.00000,    0.00000
  20       0.00000,    0.00000    -0.00000,    0.00000    -0.00000,    0.00000    -0.00000,    0.00000    -0.00000,    0.00000     0.00000,    0.00000
  21      -0.00000,    0.00000     0.00000,    0.00000    -0.00000,    0.00000     0.00000,    0.00000    -0.00000,    0.00000     0.00000,    0.00000
  22       0.00000,    0.00000    -0.00000,    0.00000    -0.00000,    0.00000    -0.00000,    0.00000     0.00000,    0.00000    -0.00000,    0.00000
  23      -0.00000,    0.00000     0.00000,    0.00000    -0.00000,    0.00000     0.00000,    0.00000     0.00000,    0.00000     0.00000,    0.00000
  24       0.00000,    0.00000     0.00000,    0.00000     0.00000,    0.00000    -0.00000,    0.00000    -0.00000,    0.00000     0.00000,    0.00000
  25       0.00000,    0.00000    -0.00000,    0.00000    -0.00000,    0.00000    -0.00000,    0.00000    -0.00000,    0.00000     0.00000,    0.00000
  26      -0.00000,    0.00000     0.00000,    0.00000    -0.00000,    0.00000     0.00000,    0.00000    -0.00000,    0.00000     0.00000,    0.00000
  27       0.00000,    0.00000    -0.00000,    0.00000    -0.00000,    0.00000    -0.00000,    0.00000     0.00000,    0.00000    -0.00000,    0.00000
  28       0.00000,    0.00000    -0.00000,    0.00000     0.00000,    0.00000    -0.00000,    0.00000    -0.00000,    0.00000    -0.00000,    0.00000
  29      -0.00000,    0.00000    -0.00000,    0.00000    -0.00000,    0.00000     0.00000,    0.00000     0.00000,    0.00000    -0.00000,    0.00000
  30      -0.00000,    0.00000     0.00000,    0.00000     0.00000,    0.00000     0.00000,    0.00000     0.00000,    0.00000    -0.00000,    0.00000
  31       0.00000,    0.00000    -0.00000,    0.00000     0.00000,    0.00000    -0.00000,    0.00000     0.00000,    0.00000    -0.00000,    0.00000
  32      -0.00000,    0.00000     0.00000,    0.00000     0.00000,    0.00000     0.00000,    0.00000    -0.00000,    0.00000    -0.00000,    0.00000
  33      -0.05313,    0.00000     0.19887,    0.00000    -0.25107,    0.00000    -0.13720,    0.00000    -0.19391,    0.00000    -0.16258,    0.00000
  34      -0.02796,    0.00000     0.26962,    0.00000    -0.16561,    0.00000     0.06374,    0.00000     0.27985,    0.00000     0.01970,    0.00000
  35       0.12203,    0.00000     0.29275,    0.00000     0.28126,    0.00000    -0.14536,    0.00000    -0.06152,    0.00000     0.10620,    0.00000
  36       0.19394,    0.00000    -0.11729,    0.00000    -0.14295,    0.00000    -0.31156,    0.00000    -0.01574,    0.00000     0.09063,    0.00000
  37      -0.18736,    0.00000     0.00856,    0.00000    -0.10378,    0.00000    -0.00946,    0.00000    -0.05703,    0.00000     0.39912,    0.00000
  38       0.29438,    0.00000    -0.02075,    0.00000    -0.09273,    0.00000     0.06222,    0.00000     0.16331,    0.00000     0.07483,    0.00000
  39      -0.19650,    0.00000    -0.06535,    0.00000     0.08507,    0.00000    -0.26751,    0.00000     0.25789,    0.00000    -0.07189,    0.00000
  40      -0.11378,    0.00000     0.42591,    0.00000    -0.53754,    0.00000    -0.29374,    0.00000    -0.41537,    0.00000    -0.34827,    0.00000
  41      -0.05988,    0.00000     0.57742,    0.00000    -0.35457,    0.00000     0.13647,    0.00000     0.59947,    0.00000     0.04219,    0.00000
  42       0.26135,    0.00000     0.62696,    0.00000     0.60217,    0.00000    -0.31121,    0.00000    -0.13177,    0.00000     0.22750,    0.00000
  43       0.41534,    0.00000    -0.25120,    0.00000    -0.30606,    0.00000    -0.66705,    0.00000    -0.03372,    0.00000     0.19413,    0.00000
  44      -0.40125,    0.00000     0.01833,    0.00000    -0.22219,    0.00000    -0.02025,    0.00000    -0.12216,    0.00000     0.85495,    0.00000
  45       0.63044,    0.00000    -0.04445,    0.00000    -0.19853,    0.00000     0.13321,    0.00000     0.34982,    0.00000     0.16030,    0.00000
  46      -0.42083,    0.00000    -0.13995,    0.00000     0.18213,    0.00000    -0.57275,    0.00000     0.55242,    0.00000    -0.15399,    0.00000
  47       0.00000,    0.00000    -0.00000,    0.00000     0.00000,    0.00000     0.00000,    0.00000     0.00000,    0.00000     0.00000,    0.00000
  48      -0.00000,    0.00000     0.00000,    0.00000    -0.00000,    0.00000    -0.00000,    0.00000    -0.00000,    0.00000    -0.00000,    0.00000
  49      -0.00000,    0.00000     0.00000,    0.00000    -0.00000,    0.00000     0.00000,    0.00000     0.00000,    0.00000    -0.00000,    0.00000
  50       0.00000,    0.00000     0.00000,    0.00000     0.00000,    0.00000    -0.00000,    0.00000    -0.00000,    0.00000     0.00000,    0.00000
  51       0.00000,    0.00000    -0.00000,    0.00000    -0.00000,    0.00000    -0.00000,    0.00000    -0.00000,    0.00000     0.00000,    0.00000
  52      -0.00000,    0.00000    -0.00000,    0.00000    -0.00000,    0.00000    -0.00000,    0.00000    -0.00000,    0.00000     0.00000,    0.00000
  53       0.00000,    0.00000    -0.00000,    0.00000    -0.00000,    0.00000     0.00000,    0.00000     0.00000,    0.00000     0.00000,    0.00000
  54      -0.00000,    0.00000    -0.00000,    0.00000     0.00000,    0.00000    -0.00000,    0.00000     0.00000,    0.00000    -0.00000,    0.00000
  55      -0.00000,    0.00000    -0.00000,    0.00000     0.00000,    0.00000    -0.00000,    0.00000     0.00000,    0.00000    -0.00000,    0.00000

                    25                      26                      27                      28                      29                      30  
       ----------------------- ----------------------- ----------------------- ----------------------- ----------------------- -----------------------
   1      -0.00000,    0.00000    -0.00000,    0.00000    -0.00000,    0.00000     0.00000,    0.00000     0.00000,    0.00000    -0.00026,    0.00000
   2      -0.00000,    0.00000     0.00000,    0.00000     0.00000,    0.00000    -0.00000,    0.00000     0.00000,    0.00000    -0.00232,    0.00000
   3       0.00000,    0.00000    -0.00000,    0.00000    -0.00000,    0.00000     0.00000,    0.00000    -0.00000,    0.00000     0.01461,    0.00000
   4      -0.00000,    0.00000     0.00000,    0.00000     0.00000,    0.00000    -0.00000,    0.00000     0.00000,    0.00000     0.00225,    0.00000
   5      -0.00000,    0.00000     0.00000,    0.00000     0.00000,    0.00000    -0.00000,    0.00000     0.00000,    0.00000    -0.00056,    0.00000
   6      -0.00394,    0.00000    -0.00000,    0.00000    -0.00000,    0.00000    -0.00000,    0.00000     0.00000,    0.00000     0.00000,    0.00000
   7       0.00113,    0.00000     0.00000,    0.00000    -0.00000,    0.00000     0.00000,    0.00000     0.00000,    0.00000    -0.00000,    0.00000
   8       0.00253,    0.00000    -0.00000,    0.00000    -0.00000,    0.00000     0.00000,    0.00000    -0.00000,    0.00000    -0.00000,    0.00000
   9       0.00141,    0.00000    -0.00000,    0.00000    -0.00000,    0.00000    -0.00000,    0.00000     0.00000,    0.00000     0.00000,    0.00000
  10      -0.00040,    0.00000     0.00000,    0.00000    -0.00000,    0.00000     0.00000,    0.00000     0.00000,    0.00000    -0.00000,    0.00000
  11      -0.00090,    0.00000    -0.00000,    0.00000    -0.00000,    0.00000     0.00000,    0.00000    -0.00000,    0.00000    -0.00000,    0.00000
  12       0.00890,    0.00000    -0.00000,    0.00000    -0.00000,    0.00000     0.00000,    0.00000     0.00000,    0.00000     0.00000,    0.00000
  13      -0.00254,    0.00000     0.00000,    0.00000    -0.00000,    0.00000     0.00000,    0.00000     0.00000,    0.00000    -0.00000,    0.00000
  14      -0.00571,    0.00000    -0.00000,    0.00000    -0.00000,    0.00000     0.00000,    0.00000    -0.00000,    0.00000    -0.00000,    0.00000
  15       0.00439,    0.00000    -0.00000,    0.00000     0.00000,    0.00000    -0.00000,    0.00000    -0.00000,    0.00000    -0.00000,    0.00000
  16      -0.00125,    0.00000     0.00000,    0.00000     0.00000,    0.00000    -0.00000,    0.00000    -0.00000,    0.00000     0.00000,    0.00000
  17      -0.00282,    0.00000    -0.00000,    0.00000    -0.00000,    0.00000    -0.00000,    0.00000     0.00000,    0.00000     0.00000,    0.00000
  18       0.00000,    0.00000    -0.35451,    0.00000    -0.03355,    0.00000     0.17081,    0.00000     0.45222,    0.00000    -0.21038,    0.00000
  19      -0.00000,    0.00000    -0.48461,    0.00000     0.20714,    0.00000    -0.26230,    0.00000    -0.20127,    0.00000     0.13506,    0.00000
  20       0.00000,    0.00000     0.20979,    0.00000     0.33994,    0.00000    -0.38374,    0.00000     0.30849,    0.00000    -0.05470,    0.00000
  21      -0.00000,    0.00000    -0.01702,    0.00000    -0.31119,    0.00000    -0.15611,    0.00000     0.24327,    0.00000     0.47260,    0.00000
  22      -0.00000,    0.00000     0.03074,    0.00000     0.38645,    0.00000     0.36727,    0.00000     0.07167,    0.00000     0.33802,    0.00000
  23       0.00000,    0.00000    -0.44126,    0.00000    -0.04176,    0.00000     0.21304,    0.00000     0.56402,    0.00000    -0.26345,    0.00000
  24      -0.00000,    0.00000    -0.60319,    0.00000     0.25783,    0.00000    -0.32715,    0.00000    -0.25103,    0.00000     0.16913,    0.00000
  25       0.00000,    0.00000     0.26113,    0.00000     0.42312,    0.00000    -0.47862,    0.00000     0.38476,    0.00000    -0.06850,    0.00000
  26      -0.00000,    0.00000    -0.02119,    0.00000    -0.38733,    0.00000    -0.19470,    0.00000     0.30342,    0.00000     0.59182,    0.00000
  27      -0.00000,    0.00000     0.03826,    0.00000     0.48101,    0.00000     0.45808,    0.00000     0.08939,    0.00000     0.42329,    0.00000
  28      -0.00000,    0.00000    -0.01672,    0.00000    -0.00158,    0.00000     0.00825,    0.00000     0.02184,    0.00000    -0.01144,    0.00000
  29       0.00000,    0.00000    -0.02286,    0.00000     0.00977,    0.00000    -0.01267,    0.00000    -0.00972,    0.00000     0.00735,    0.00000
  30      -0.00000,    0.00000     0.00990,    0.00000     0.01604,    0.00000    -0.01854,    0.00000     0.01490,    0.00000    -0.00298,    0.00000
  31       0.00000,    0.00000    -0.00080,    0.00000    -0.01468,    0.00000    -0.00754,    0.00000     0.01175,    0.00000     0.02571,    0.00000
  32       0.00000,    0.00000     0.00145,    0.00000     0.01823,    0.00000     0.01774,    0.00000     0.00346,    0.00000     0.01839,    0.00000
  33      -0.16782,    0.00000    -0.00000,    0.00000    -0.00000,    0.00000     0.00000,    0.00000     0.00000,    0.00000    -0.00000,    0.00000
  34       0.18086,    0.00000     0.00000,    0.00000     0.00000,    0.00000    -0.00000,    0.00000    -0.00000,    0.00000     0.00000,    0.00000
  35      -0.02525,    0.00000     0.00000,    0.00000    -0.00000,    0.00000     0.00000,    0.00000     0.00000,    0.00000    -0.00000,    0.00000
  36       0.19778,    0.00000    -0.00000,    0.00000    -0.00000,    0.00000     0.00000,    0.00000    -0.00000,    0.00000     0.00000,    0.00000
  37      -0.08836,    0.00000    -0.00000,    0.00000     0.00000,    0.00000     0.00000,    0.00000    -0.00000,    0.00000    -0.00000,    0.00000
  38      -0.29059,    0.00000    -0.00000,    0.00000    -0.00000,    0.00000    -0.00000,    0.00000    -0.00000,    0.00000    -0.00000,    0.00000
  39      -0.15192,    0.00000     0.00000,    0.00000    -0.00000,    0.00000    -0.00000,    0.00000    -0.00000,    0.00000    -0.00000,    0.00000
  40      -0.35978,    0.00000    -0.00000,    0.00000    -0.00000,    0.00000     0.00000,    0.00000     0.00000,    0.00000    -0.00000,    0.00000
  41       0.38773,    0.00000     0.00000,    0.00000     0.00000,    0.00000    -0.00000,    0.00000    -0.00000,    0.00000     0.00000,    0.00000
  42      -0.05413,    0.00000     0.00000,    0.00000    -0.00000,    0.00000     0.00000,    0.00000     0.00000,    0.00000    -0.00000,    0.00000
  43       0.42400,    0.00000    -0.00000,    0.00000    -0.00000,    0.00000     0.00000,    0.00000    -0.00000,    0.00000     0.00000,    0.00000
  44      -0.18942,    0.00000    -0.00000,    0.00000     0.00000,    0.00000     0.00000,    0.00000    -0.00000,    0.00000    -0.00000,    0.00000
  45      -0.62296,    0.00000    -0.00000,    0.00000    -0.00000,    0.00000    -0.00000,    0.00000    -0.00000,    0.00000    -0.00000,    0.00000
  46      -0.32569,    0.00000     0.00000,    0.00000    -0.00000,    0.00000    -0.00000,    0.00000    -0.00000,    0.00000    -0.00000,    0.00000
  47       0.00000,    0.00000    -0.00006,    0.00000    -0.00005,    0.00000     0.00012,    0.00000    -0.00082,    0.00000     0.00174,    0.00000
  48      -0.00000,    0.00000     0.00000,    0.00000     0.00003,    0.00000     0.00064,    0.00000     0.00093,    0.00000    -0.00251,    0.00000
  49       0.00000,    0.00000     0.00008,    0.00000    -0.00004,    0.00000    -0.00093,    0.00000     0.00007,    0.00000     0.00100,    0.00000
  50      -0.00000,    0.00000    -0.00002,    0.00000     0.00004,    0.00000     0.00009,    0.00000    -0.00046,    0.00000     0.00052,    0.00000
  51       0.00000,    0.00000     0.00003,    0.00000     0.00004,    0.00000    -0.00065,    0.00000     0.00053,    0.00000     0.00163,    0.00000
  52      -0.00000,    0.00000     0.00005,    0.00000     0.00007,    0.00000     0.00102,    0.00000    -0.00071,    0.00000     0.00182,    0.00000
  53      -0.00000,    0.00000     0.00004,    0.00000    -0.00004,    0.00000     0.00076,    0.00000    -0.00103,    0.00000    -0.00160,    0.00000
  54      -0.00000,    0.00000     0.00002,    0.00000     0.00001,    0.00000    -0.00084,    0.00000    -0.00092,    0.00000    -0.00227,    0.00000
  55      -0.00000,    0.00000    -0.00003,    0.00000     0.00006,    0.00000    -0.00095,    0.00000    -0.00071,    0.00000    -0.00086,    0.00000

                    31                      32                      33                      34                      35                      36  
       ----------------------- ----------------------- ----------------------- ----------------------- ----------------------- -----------------------
   1       0.00000,    0.00000    -0.00000,    0.00000     0.00000,    0.00000     0.00000,    0.00000    -0.00000,    0.00000    -0.00000,    0.00000
   2      -0.00000,    0.00000     0.00000,    0.00000    -0.00000,    0.00000    -0.00000,    0.00000     0.00000,    0.00000     0.00000,    0.00000
   3      -0.00000,    0.00000     0.00000,    0.00000    -0.00000,    0.00000    -0.00000,    0.00000     0.00000,    0.00000     0.00000,    0.00000
   4      -0.00000,    0.00000     0.00000,    0.00000    -0.00000,    0.00000    -0.00000,    0.00000     0.00000,    0.00000     0.00000,    0.00000
   5      -0.00000,    0.00000     0.00000,    0.00000    -0.00000,    0.00000    -0.00000,    0.00000     0.00000,    0.00000     0.00000,    0.00000
   6      -0.00000,    0.00000     0.00000,    0.00000    -0.00000,    0.00000    -0.00000,    0.00000    -0.00000,    0.00000    -0.00000,    0.00000
   7      -0.00000,    0.00000     0.00000,    0.00000     0.00000,    0.00000    -0.00000,    0.00000     0.00000,    0.00000    -0.00000,    0.00000
   8      -0.00000,    0.00000     0.00000,    0.00000    -0.00000,    0.00000     0.00000,    0.00000    -0.00000,    0.00000    -0.00000,    0.00000
   9       0.00000,    0.00000    -0.00000,    0.00000     0.00000,    0.00000     0.00000,    0.00000     0.00000,    0.00000    -0.00000,    0.00000
  10       0.00000,    0.00000    -0.00000,    0.00000    -0.00000,    0.00000     0.00000,    0.00000    -0.00000,    0.00000     0.00000,    0.00000
  11       0.00000,    0.00000    -0.00000,    0.00000     0.00000,    0.00000    -0.00000,    0.00000     0.00000,    0.00000     0.00000,    0.00000
  12       0.00000,    0.00000    -0.00000,    0.00000     0.00000,    0.00000     0.00000,    0.00000    -0.00000,    0.00000    -0.00000,    0.00000
  13       0.00000,    0.00000    -0.00000,    0.00000     0.00000,    0.00000     0.00000,    0.00000     0.00000,    0.00000    -0.00000,    0.00000
  14      -0.00000,    0.00000     0.00000,    0.00000     0.00000,    0.00000    -0.00000,    0.00000     0.00000,    0.00000    -0.00000,    0.00000
  15       0.00000,    0.00000    -0.00000,    0.00000    -0.00000,    0.00000     0.00000,    0.00000    -0.00000,    0.00000    -0.00000,    0.00000
  16       0.00000,    0.00000     0.00000,    0.00000     0.00000,    0.00000     0.00000,    0.00000     0.00000,    0.00000    -0.00000,    0.00000
  17      -0.00000,    0.00000     0.00000,    0.00000    -0.00000,    0.00000    -0.00000,    0.00000    -0.00000,    0.00000    -0.00000,    0.00000
  18       0.00000,    0.00000     0.00000,    0.00000     0.00000,    0.00000     0.00000,    0.00000     0.00067,    0.00000     0.00009,    0.00000
  19       0.00000,    0.00000     0.00000,    0.00000    -0.00000,    0.00000    -0.00000,    0.00000     0.00094,    0.00000    -0.00036,    0.00000
  20       0.00000,    0.00000     0.00000,    0.00000     0.00000,    0.00000     0.00000,    0.00000    -0.00038,    0.00000    -0.00066,    0.00000
  21      -0.00000,    0.00000     0.00000,    0.00000     0.00000,    0.00000    -0.00000,    0.00000     0.00001,    0.00000     0.00059,    0.00000
  22      -0.00000,    0.00000     0.00000,    0.00000    -0.00000,    0.00000    -0.00000,    0.00000    -0.00003,    0.00000    -0.00074,    0.00000
  23       0.00000,    0.00000    -0.00000,    0.00000     0.00000,    0.00000     0.00000,    0.00000     0.00006,    0.00000     0.00001,    0.00000
  24       0.00000,    0.00000    -0.00000,    0.00000    -0.00000,    0.00000    -0.00000,    0.00000     0.00009,    0.00000    -0.00003,    0.00000
  25       0.00000,    0.00000     0.00000,    0.00000     0.00000,    0.00000     0.00000,    0.00000    -0.00004,    0.00000    -0.00006,    0.00000
  26      -0.00000,    0.00000     0.00000,    0.00000     0.00000,    0.00000    -0.00000,    0.00000     0.00000,    0.00000     0.00006,    0.00000
  27      -0.00000,    0.00000     0.00000,    0.00000    -0.00000,    0.00000    -0.00000,    0.00000    -0.00000,    0.00000    -0.00007,    0.00000
  28       0.00000,    0.00000    -0.00000,    0.00000     0.00000,    0.00000     0.00000,    0.00000    -0.00003,    0.00000    -0.00000,    0.00000
  29       0.00000,    0.00000    -0.00000,    0.00000    -0.00000,    0.00000    -0.00000,    0.00000    -0.00004,    0.00000     0.00001,    0.00000
  30       0.00000,    0.00000     0.00000,    0.00000     0.00000,    0.00000     0.00000,    0.00000     0.00002,    0.00000     0.00003,    0.00000
  31      -0.00000,    0.00000     0.00000,    0.00000     0.00000,    0.00000    -0.00000,    0.00000    -0.00000,    0.00000    -0.00002,    0.00000
  32      -0.00000,    0.00000     0.00000,    0.00000    -0.00000,    0.00000    -0.00000,    0.00000     0.00000,    0.00000     0.00003,    0.00000
  33      -0.00000,    0.00000     0.00000,    0.00000     0.00000,    0.00000     0.00000,    0.00000     0.00000,    0.00000     0.00000,    0.00000
  34       0.00000,    0.00000    -0.00000,    0.00000     0.00000,    0.00000     0.00000,    0.00000     0.00000,    0.00000    -0.00000,    0.00000
  35      -0.00000,    0.00000    -0.00000,    0.00000     0.00000,    0.00000     0.00000,    0.00000    -0.00000,    0.00000     0.00000,    0.00000
  36      -0.00000,    0.00000     0.00000,    0.00000    -0.00000,    0.00000     0.00000,    0.00000     0.00000,    0.00000     0.00000,    0.00000
  37       0.00000,    0.00000     0.00000,    0.00000     0.00000,    0.00000    -0.00000,    0.00000     0.00000,    0.00000     0.00000,    0.00000
  38      -0.00000,    0.00000     0.00000,    0.00000    -0.00000,    0.00000     0.00000,    0.00000     0.00000,    0.00000    -0.00000,    0.00000
  39      -0.00000,    0.00000     0.00000,    0.00000    -0.00000,    0.00000    -0.00000,    0.00000     0.00000,    0.00000     0.00000,    0.00000
  40       0.00000,    0.00000    -0.00000,    0.00000    -0.00000,    0.00000     0.00000,    0.00000    -0.00000,    0.00000    -0.00000,    0.00000
  41      -0.00000,    0.00000     0.00000,    0.00000    -0.00000,    0.00000    -0.00000,    0.00000    -0.00000,    0.00000     0.00000,    0.00000
  42       0.00000,    0.00000     0.00000,    0.00000    -0.00000,    0.00000    -0.00000,    0.00000     0.00000,    0.00000    -0.00000,    0.00000
  43       0.00000,    0.00000    -0.00000,    0.00000     0.00000,    0.00000    -0.00000,    0.00000    -0.00000,    0.00000    -0.00000,    0.00000
  44      -0.00000,    0.00000    -0.00000,    0.00000    -0.00000,    0.00000     0.00000,    0.00000    -0.00000,    0.00000    -0.00000,    0.00000
  45       0.00000,    0.00000    -0.00000,    0.00000     0.00000,    0.00000    -0.00000,    0.00000    -0.00000,    0.00000     0.00000,    0.00000
  46       0.00000,    0.00000    -0.00000,    0.00000     0.00000,    0.00000     0.00000,    0.00000    -0.00000,    0.00000    -0.00000,    0.00000
  47      -0.27550,    0.00000     0.44587,    0.00000     0.31992,    0.00000    -0.11572,    0.00000    -0.46398,    0.00000    -0.36701,    0.00000
  48      -0.18450,    0.00000     0.36743,    0.00000     0.53215,    0.00000    -0.01662,    0.00000     0.00444,    0.00000     0.19418,    0.00000
  49       0.16426,    0.00000     0.03792,    0.00000     0.53120,    0.00000     0.06755,    0.00000     0.61094,    0.00000    -0.30979,    0.00000
  50      -0.35864,    0.00000    -0.63099,    0.00000     0.45454,    0.00000     0.32779,    0.00000    -0.14552,    0.00000     0.28926,    0.00000
  51      -0.58217,    0.00000     0.34549,    0.00000    -0.27097,    0.00000     0.27734,    0.00000     0.18618,    0.00000     0.32776,    0.00000
  52       0.14687,    0.00000     0.15399,    0.00000     0.09014,    0.00000    -0.31888,    0.00000     0.37744,    0.00000     0.50862,    0.00000
  53      -0.13144,    0.00000     0.16228,    0.00000    -0.17240,    0.00000     0.55689,    0.00000     0.34461,    0.00000    -0.25556,    0.00000
  54      -0.39455,    0.00000    -0.05077,    0.00000    -0.04878,    0.00000    -0.53338,    0.00000     0.16488,    0.00000     0.08441,    0.00000
  55       0.44836,    0.00000     0.30760,    0.00000     0.10968,    0.00000     0.31796,    0.00000    -0.25926,    0.00000     0.45760,    0.00000

                    37                      38                      39                      40                      41                      42  
       ----------------------- ----------------------- ----------------------- ----------------------- ----------------------- -----------------------
   1      -0.00000,    0.00000     0.00000,    0.00000    -0.00002,    0.00000    -0.00000,    0.00000    -0.00000,    0.00000    -0.00000,    0.00000
   2       0.00000,    0.00000     0.00000,    0.00000     0.00012,    0.00000     0.00000,    0.00000     0.00000,    0.00000     0.00000,    0.00000
   3      -0.00000,    0.00000    -0.00000,    0.00000    -0.00138,    0.00000     0.00000,    0.00000     0.00000,    0.00000     0.00000,    0.00000
   4      -0.00000,    0.00000    -0.00000,    0.00000    -0.00172,    0.00000     0.00000,    0.00000     0.00000,    0.00000     0.00000,    0.00000
   5      -0.00000,    0.00000    -0.00000,    0.00000    -0.00127,    0.00000     0.00000,    0.00000     0.00000,    0.00000     0.00000,    0.00000
   6       0.00000,    0.00000    -0.00000,    0.00000     0.00000,    0.00000     0.23868,    0.00000     0.17510,    0.00000    -0.42244,    0.00000
   7      -0.00000,    0.00000    -0.00000,    0.00000    -0.00000,    0.00000    -0.14011,    0.00000     0.48058,    0.00000     0.12072,    0.00000
   8       0.00000,    0.00000    -0.00000,    0.00000    -0.00000,    0.00000     0.43415,    0.00000     0.05883,    0.00000     0.27120,    0.00000
   9       0.00000,    0.00000     0.00000,    0.00000    -0.00000,    0.00000    -0.08525,    0.00000    -0.06254,    0.00000     0.14943,    0.00000
  10       0.00000,    0.00000    -0.00000,    0.00000    -0.00000,    0.00000     0.05004,    0.00000    -0.17165,    0.00000    -0.04270,    0.00000
  11       0.00000,    0.00000     0.00000,    0.00000    -0.00000,    0.00000    -0.15507,    0.00000    -0.02101,    0.00000    -0.09593,    0.00000
  12       0.00000,    0.00000    -0.00000,    0.00000     0.00000,    0.00000    -0.02982,    0.00000    -0.02188,    0.00000     0.05246,    0.00000
  13      -0.00000,    0.00000    -0.00000,    0.00000    -0.00000,    0.00000     0.01751,    0.00000    -0.06005,    0.00000    -0.01499,    0.00000
  14       0.00000,    0.00000     0.00000,    0.00000    -0.00000,    0.00000    -0.05425,    0.00000    -0.00735,    0.00000    -0.03368,    0.00000
  15       0.00000,    0.00000    -0.00000,    0.00000     0.00000,    0.00000    -0.00165,    0.00000    -0.00121,    0.00000     0.00286,    0.00000
  16      -0.00000,    0.00000    -0.00000,    0.00000    -0.00000,    0.00000     0.00097,    0.00000    -0.00332,    0.00000    -0.00082,    0.00000
  17       0.00000,    0.00000    -0.00000,    0.00000    -0.00000,    0.00000    -0.00300,    0.00000    -0.00041,    0.00000    -0.00184,    0.00000
  18      -0.00005,    0.00000    -0.00015,    0.00000     0.00037,    0.00000     0.00000,    0.00000    -0.00000,    0.00000    -0.00000,    0.00000
  19      -0.00003,    0.00000     0.00010,    0.00000    -0.00024,    0.00000    -0.00000,    0.00000     0.00000,    0.00000     0.00000,    0.00000
  20      -0.00016,    0.00000    -0.00000,    0.00000     0.00010,    0.00000     0.00000,    0.00000     0.00000,    0.00000     0.00000,    0.00000
  21      -0.00009,    0.00000    -0.00003,    0.00000    -0.00084,    0.00000    -0.00000,    0.00000    -0.00000,    0.00000     0.00000,    0.00000
  22       0.00008,    0.00000    -0.00009,    0.00000    -0.00060,    0.00000    -0.00000,    0.00000    -0.00000,    0.00000     0.00000,    0.00000
  23       0.00053,    0.00000     0.00168,    0.00000     0.00170,    0.00000     0.00000,    0.00000    -0.00000,    0.00000    -0.00000,    0.00000
  24       0.00030,    0.00000    -0.00117,    0.00000    -0.00109,    0.00000    -0.00000,    0.00000     0.00000,    0.00000     0.00000,    0.00000
  25       0.00179,    0.00000     0.00002,    0.00000     0.00044,    0.00000     0.00000,    0.00000     0.00000,    0.00000     0.00000,    0.00000
  26       0.00099,    0.00000     0.00034,    0.00000    -0.00381,    0.00000    -0.00000,    0.00000    -0.00000,    0.00000     0.00000,    0.00000
  27      -0.00089,    0.00000     0.00103,    0.00000    -0.00272,    0.00000    -0.00000,    0.00000    -0.00000,    0.00000     0.00000,    0.00000
  28       0.00025,    0.00000     0.00079,    0.00000     0.00073,    0.00000    -0.00000,    0.00000     0.00000,    0.00000     0.00000,    0.00000
  29       0.00014,    0.00000    -0.00055,    0.00000    -0.00047,    0.00000    -0.00000,    0.00000    -0.00000,    0.00000    -0.00000,    0.00000
  30       0.00084,    0.00000     0.00001,    0.00000     0.00019,    0.00000    -0.00000,    0.00000    -0.00000,    0.00000    -0.00000,    0.00000
  31       0.00047,    0.00000     0.00016,    0.00000    -0.00164,    0.00000    -0.00000,    0.00000     0.00000,    0.00000    -0.00000,    0.00000
  32      -0.00042,    0.00000     0.00048,    0.00000    -0.00118,    0.00000    -0.00000,    0.00000     0.00000,    0.00000    -0.00000,    0.00000
  33      -0.00000,    0.00000    -0.00000,    0.00000    -0.00000,    0.00000     0.00077,    0.00000    -0.00099,    0.00000     0.00200,    0.00000
  34      -0.00000,    0.00000     0.00000,    0.00000     0.00000,    0.00000    -0.00005,    0.00000     0.00140,    0.00000    -0.00215,    0.00000
  35       0.00000,    0.00000     0.00000,    0.00000     0.00000,    0.00000    -0.00054,    0.00000    -0.00029,    0.00000     0.00030,    0.00000
  36      -0.00000,    0.00000     0.00000,    0.00000     0.00000,    0.00000    -0.00045,    0.00000    -0.00006,    0.00000    -0.00235,    0.00000
  37       0.00000,    0.00000    -0.00000,    0.00000     0.00000,    0.00000    -0.00199,    0.00000    -0.00021,    0.00000     0.00105,    0.00000
  38       0.00000,    0.00000     0.00000,    0.00000    -0.00000,    0.00000    -0.00034,    0.00000     0.00083,    0.00000     0.00346,    0.00000
  39      -0.00000,    0.00000     0.00000,    0.00000    -0.00000,    0.00000     0.00041,    0.00000     0.00127,    0.00000     0.00181,    0.00000
  40       0.00000,    0.00000     0.00000,    0.00000     0.00000,    0.00000     0.00002,    0.00000    -0.00003,    0.00000     0.00007,    0.00000
  41       0.00000,    0.00000    -0.00000,    0.00000    -0.00000,    0.00000    -0.00000,    0.00000     0.00004,    0.00000    -0.00007,    0.00000
  42      -0.00000,    0.00000    -0.00000,    0.00000    -0.00000,    0.00000    -0.00001,    0.00000    -0.00001,    0.00000     0.00001,    0.00000
  43       0.00000,    0.00000     0.00000,    0.00000    -0.00000,    0.00000    -0.00001,    0.00000    -0.00000,    0.00000    -0.00008,    0.00000
  44      -0.00000,    0.00000     0.00000,    0.00000    -0.00000,    0.00000    -0.00005,    0.00000    -0.00001,    0.00000     0.00004,    0.00000
  45      -0.00000,    0.00000    -0.00000,    0.00000     0.00000,    0.00000    -0.00001,    0.00000     0.00002,    0.00000     0.00012,    0.00000
  46       0.00000,    0.00000    -0.00000,    0.00000     0.00000,    0.00000     0.00001,    0.00000     0.00003,    0.00000     0.00006,    0.00000
  47       0.26918,    0.00000     0.25711,    0.00000     0.34788,    0.00000    -0.00000,    0.00000    -0.00000,    0.00000     0.00000,    0.00000
  48      -0.03191,    0.00000    -0.50684,    0.00000    -0.50185,    0.00000    -0.00000,    0.00000    -0.00000,    0.00000    -0.00000,    0.00000
  49      -0.34776,    0.00000     0.23454,    0.00000     0.19919,    0.00000     0.00000,    0.00000    -0.00000,    0.00000     0.00000,    0.00000
  50       0.15792,    0.00000     0.13646,    0.00000     0.10376,    0.00000    -0.00000,    0.00000     0.00000,    0.00000     0.00000,    0.00000
  51      -0.37762,    0.00000    -0.00364,    0.00000     0.32659,    0.00000    -0.00000,    0.00000    -0.00000,    0.00000     0.00000,    0.00000
  52       0.55749,    0.00000    -0.03320,    0.00000     0.36310,    0.00000     0.00000,    0.00000    -0.00000,    0.00000     0.00000,    0.00000
  53       0.55364,    0.00000     0.15338,    0.00000    -0.32004,    0.00000    -0.00000,    0.00000     0.00000,    0.00000    -0.00000,    0.00000
  54      -0.03868,    0.00000     0.55916,    0.00000    -0.45431,    0.00000     0.00000,    0.00000     0.00000,    0.00000    -0.00000,    0.00000
  55      -0.13866,    0.00000     0.51582,    0.00000    -0.17122,    0.00000     0.00000,    0.00000     0.00000,    0.00000    -0.00000,    0.00000

                    43                      44                      45                      46                      47                      48  
       ----------------------- ----------------------- ----------------------- ----------------------- ----------------------- -----------------------
   1      -0.00000,    0.00000    -0.00000,    0.00000    -0.00000,    0.00000     0.00000,    0.00000    -0.00000,    0.00000     0.00000,    0.00000
   2       0.00000,    0.00000    -0.00000,    0.00000    -0.00000,    0.00000    -0.00000,    0.00000     0.00000,    0.00000    -0.00000,    0.00000
   3      -0.00000,    0.00000     0.00000,    0.00000    -0.00000,    0.00000     0.00000,    0.00000     0.00000,    0.00000    -0.00000,    0.00000
   4      -0.00000,    0.00000    -0.00000,    0.00000    -0.00000,    0.00000     0.00000,    0.00000     0.00000,    0.00000    -0.00000,    0.00000
   5      -0.00000,    0.00000    -0.00000,    0.00000    -0.00000,    0.00000     0.00000,    0.00000     0.00000,    0.00000    -0.00000,    0.00000
   6      -0.00000,    0.00000     0.00000,    0.00000     0.00000,    0.00000     0.00000,    0.00000     0.00000,    0.00000     0.00000,    0.00000
   7       0.00000,    0.00000     0.00000,    0.00000    -0.00000,    0.00000    -0.00000,    0.00000     0.00000,    0.00000     0.00000,    0.00000
   8       0.00000,    0.00000    -0.00000,    0.00000    -0.00000,    0.00000    -0.00000,    0.00000    -0.00000,    0.00000     0.00000,    0.00000
   9       0.00000,    0.00000    -0.00000,    0.00000    -0.00000,    0.00000    -0.00000,    0.00000    -0.00000,    0.00000     0.00000,    0.00000
  10      -0.00000,    0.00000    -0.00000,    0.00000     0.00000,    0.00000     0.00000,    0.00000     0.00000,    0.00000     0.00000,    0.00000
  11      -0.00000,    0.00000     0.00000,    0.00000     0.00000,    0.00000     0.00000,    0.00000    -0.00000,    0.00000     0.00000,    0.00000
  12       0.00000,    0.00000    -0.00000,    0.00000    -0.00000,    0.00000    -0.00000,    0.00000    -0.00000,    0.00000    -0.00000,    0.00000
  13      -0.00000,    0.00000     0.00000,    0.00000     0.00000,    0.00000     0.00000,    0.00000    -0.00000,    0.00000    -0.00000,    0.00000
  14      -0.00000,    0.00000     0.00000,    0.00000     0.00000,    0.00000     0.00000,    0.00000     0.00000,    0.00000    -0.00000,    0.00000
  15       0.00000,    0.00000    -0.00000,    0.00000    -0.00000,    0.00000    -0.00000,    0.00000    -0.00000,    0.00000    -0.00000,    0.00000
  16      -0.00000,    0.00000     0.00000,    0.00000     0.00000,    0.00000     0.00000,    0.00000    -0.00000,    0.00000    -0.00000,    0.00000
  17      -0.00000,    0.00000     0.00000,    0.00000     0.00000,    0.00000     0.00000,    0.00000     0.00000,    0.00000    -0.00000,    0.00000
  18       0.00000,    0.00000    -0.00000,    0.00000    -0.00000,    0.00000    -0.00000,    0.00000    -0.41510,    0.00000     0.02799,    0.00000
  19      -0.00000,    0.00000    -0.00000,    0.00000    -0.00000,    0.00000     0.00000,    0.00000    -0.55944,    0.00000    -0.25722,    0.00000
  20      -0.00000,    0.00000     0.00000,    0.00000     0.00000,    0.00000     0.00000,    0.00000     0.25575,    0.00000    -0.39040,    0.00000
  21       0.00000,    0.00000    -0.00000,    0.00000     0.00000,    0.00000    -0.00000,    0.00000    -0.02970,    0.00000     0.36289,    0.00000
  22      -0.00000,    0.00000     0.00000,    0.00000     0.00000,    0.00000     0.00000,    0.00000     0.04809,    0.00000    -0.45037,    0.00000
  23       0.00000,    0.00000    -0.00000,    0.00000    -0.00000,    0.00000    -0.00000,    0.00000    -0.00349,    0.00000     0.00024,    0.00000
  24      -0.00000,    0.00000    -0.00000,    0.00000    -0.00000,    0.00000     0.00000,    0.00000    -0.00470,    0.00000    -0.00216,    0.00000
  25      -0.00000,    0.00000     0.00000,    0.00000     0.00000,    0.00000     0.00000,    0.00000     0.00215,    0.00000    -0.00328,    0.00000
  26       0.00000,    0.00000     0.00000,    0.00000     0.00000,    0.00000    -0.00000,    0.00000    -0.00025,    0.00000     0.00305,    0.00000
  27      -0.00000,    0.00000     0.00000,    0.00000     0.00000,    0.00000     0.00000,    0.00000     0.00040,    0.00000    -0.00378,    0.00000
  28      -0.00000,    0.00000     0.00000,    0.00000     0.00000,    0.00000     0.00000,    0.00000     0.01979,    0.00000    -0.00133,    0.00000
  29       0.00000,    0.00000     0.00000,    0.00000     0.00000,    0.00000    -0.00000,    0.00000     0.02668,    0.00000     0.01227,    0.00000
  30       0.00000,    0.00000    -0.00000,    0.00000    -0.00000,    0.00000    -0.00000,    0.00000    -0.01220,    0.00000     0.01862,    0.00000
  31      -0.00000,    0.00000     0.00000,    0.00000    -0.00000,    0.00000     0.00000,    0.00000     0.00142,    0.00000    -0.01730,    0.00000
  32       0.00000,    0.00000    -0.00000,    0.00000    -0.00000,    0.00000    -0.00000,    0.00000    -0.00229,    0.00000     0.02148,    0.00000
  33       0.10840,    0.00000    -0.37633,    0.00000     0.50115,    0.00000     0.21188,    0.00000    -0.00000,    0.00000     0.00000,    0.00000
  34       0.06315,    0.00000    -0.51182,    0.00000     0.30123,    0.00000    -0.15209,    0.00000    -0.00000,    0.00000    -0.00000,    0.00000
  35      -0.22131,    0.00000    -0.56134,    0.00000    -0.50459,    0.00000     0.32850,    0.00000     0.00000,    0.00000     0.00000,    0.00000
  36      -0.37323,    0.00000     0.21592,    0.00000     0.32971,    0.00000     0.56237,    0.00000    -0.00000,    0.00000     0.00000,    0.00000
  37       0.35670,    0.00000    -0.00936,    0.00000     0.19818,    0.00000    -0.00180,    0.00000    -0.00000,    0.00000    -0.00000,    0.00000
  38      -0.56070,    0.00000     0.02860,    0.00000     0.16364,    0.00000    -0.13536,    0.00000    -0.00000,    0.00000     0.00000,    0.00000
  39       0.37133,    0.00000     0.13156,    0.00000    -0.11013,    0.00000     0.52238,    0.00000    -0.00000,    0.00000     0.00000,    0.00000
  40       0.01033,    0.00000    -0.03586,    0.00000     0.04768,    0.00000     0.02016,    0.00000    -0.00000,    0.00000     0.00000,    0.00000
  41       0.00602,    0.00000    -0.04877,    0.00000     0.02866,    0.00000    -0.01447,    0.00000    -0.00000,    0.00000    -0.00000,    0.00000
  42      -0.02109,    0.00000    -0.05349,    0.00000    -0.04800,    0.00000     0.03125,    0.00000     0.00000,    0.00000     0.00000,    0.00000
  43      -0.03557,    0.00000     0.02058,    0.00000     0.03137,    0.00000     0.05350,    0.00000    -0.00000,    0.00000     0.00000,    0.00000
  44       0.03399,    0.00000    -0.00089,    0.00000     0.01885,    0.00000    -0.00017,    0.00000    -0.00000,    0.00000    -0.00000,    0.00000
  45      -0.05343,    0.00000     0.00273,    0.00000     0.01557,    0.00000    -0.01288,    0.00000    -0.00000,    0.00000     0.00000,    0.00000
  46       0.03539,    0.00000     0.01254,    0.00000    -0.01048,    0.00000     0.04970,    0.00000    -0.00000,    0.00000     0.00000,    0.00000
  47       0.00000,    0.00000    -0.00000,    0.00000     0.00000,    0.00000     0.00000,    0.00000    -0.00074,    0.00000     0.00051,    0.00000
  48      -0.00000,    0.00000     0.00000,    0.00000    -0.00000,    0.00000    -0.00000,    0.00000     0.00003,    0.00000    -0.00029,    0.00000
  49      -0.00000,    0.00000     0.00000,    0.00000    -0.00000,    0.00000     0.00000,    0.00000     0.00090,    0.00000     0.00053,    0.00000
  50       0.00000,    0.00000     0.00000,    0.00000     0.00000,    0.00000    -0.00000,    0.00000    -0.00019,    0.00000    -0.00045,    0.00000
  51       0.00000,    0.00000    -0.00000,    0.00000    -0.00000,    0.00000    -0.00000,    0.00000     0.00031,    0.00000    -0.00048,    0.00000
  52      -0.00000,    0.00000     0.00000,    0.00000    -0.00000,    0.00000    -0.00000,    0.00000     0.00062,    0.00000    -0.00073,    0.00000
  53       0.00000,    0.00000    -0.00000,    0.00000    -0.00000,    0.00000     0.00000,    0.00000     0.00050,    0.00000     0.00042,    0.00000
  54      -0.00000,    0.00000    -0.00000,    0.00000     0.00000,    0.00000    -0.00000,    0.00000     0.00026,    0.00000    -0.00011,    0.00000
  55      -0.00000,    0.00000    -0.00000,    0.00000     0.00000,    0.00000    -0.00000,    0.00000    -0.00035,    0.00000    -0.00072,    0.00000

                    49                      50                      51                      52                      53                      54  
       ----------------------- ----------------------- ----------------------- ----------------------- ----------------------- -----------------------
   1      -0.00000,    0.00000    -0.00000,    0.00000    -0.00000,    0.00000     0.00000,    0.00000     0.00000,    0.00000     0.00042,    0.00000
   2       0.00000,    0.00000     0.00000,    0.00000     0.00000,    0.00000     0.00000,    0.00000    -0.00000,    0.00000    -0.00092,    0.00000
   3      -0.00000,    0.00000    -0.00000,    0.00000     0.00000,    0.00000    -0.00000,    0.00000     0.00000,    0.00000     0.00404,    0.00000
   4      -0.00000,    0.00000    -0.00000,    0.00000     0.00000,    0.00000    -0.00000,    0.00000     0.00000,    0.00000     0.00197,    0.00000
   5      -0.00000,    0.00000    -0.00000,    0.00000     0.00000,    0.00000    -0.00000,    0.00000     0.00000,    0.00000     0.00079,    0.00000
   6      -0.00139,    0.00000    -0.00079,    0.00000    -0.00000,    0.00000     0.00000,    0.00000    -0.00111,    0.00000     0.00000,    0.00000
   7       0.00045,    0.00000    -0.00267,    0.00000     0.00000,    0.00000     0.00000,    0.00000     0.00032,    0.00000    -0.00000,    0.00000
   8      -0.00237,    0.00000    -0.00005,    0.00000     0.00000,    0.00000     0.00000,    0.00000     0.00071,    0.00000    -0.00000,    0.00000
   9      -0.00038,    0.00000    -0.00021,    0.00000    -0.00000,    0.00000    -0.00000,    0.00000    -0.00465,    0.00000     0.00000,    0.00000
  10       0.00012,    0.00000    -0.00072,    0.00000     0.00000,    0.00000     0.00000,    0.00000     0.00133,    0.00000    -0.00000,    0.00000
  11      -0.00064,    0.00000    -0.00001,    0.00000     0.00000,    0.00000     0.00000,    0.00000     0.00298,    0.00000    -0.00000,    0.00000
  12      -0.00004,    0.00000    -0.00002,    0.00000    -0.00000,    0.00000    -0.00000,    0.00000    -0.00150,    0.00000    -0.00000,    0.00000
  13       0.00001,    0.00000    -0.00008,    0.00000     0.00000,    0.00000    -0.00000,    0.00000     0.00043,    0.00000     0.00000,    0.00000
  14      -0.00007,    0.00000    -0.00000,    0.00000     0.00000,    0.00000     0.00000,    0.00000     0.00096,    0.00000     0.00000,    0.00000
  15       0.00001,    0.00000     0.00001,    0.00000    -0.00000,    0.00000    -0.00000,    0.00000    -0.00018,    0.00000    -0.00000,    0.00000
  16      -0.00000,    0.00000     0.00002,    0.00000     0.00000,    0.00000    -0.00000,    0.00000     0.00005,    0.00000     0.00000,    0.00000
  17       0.00002,    0.00000     0.00000,    0.00000     0.00000,    0.00000     0.00000,    0.00000     0.00011,    0.00000     0.00000,    0.00000
  18      -0.00000,    0.00000     0.00000,    0.00000    -0.24933,    0.00000     0.50861,    0.00000     0.00000,    0.00000    -0.24732,    0.00000
  19      -0.00000,    0.00000    -0.00000,    0.00000    -0.03844,    0.00000    -0.38550,    0.00000     0.00000,    0.00000     0.15878,    0.00000
  20      -0.00000,    0.00000    -0.00000,    0.00000    -0.57131,    0.00000    -0.08040,    0.00000     0.00000,    0.00000    -0.06431,    0.00000
  21      -0.00000,    0.00000     0.00000,    0.00000    -0.33303,    0.00000     0.06175,    0.00000     0.00000,    0.00000     0.55559,    0.00000
  22      -0.00000,    0.00000     0.00000,    0.00000     0.23335,    0.00000     0.37123,    0.00000    -0.00000,    0.00000     0.39738,    0.00000
  23       0.00000,    0.00000     0.00000,    0.00000    -0.00254,    0.00000     0.00519,    0.00000     0.00000,    0.00000    -0.00301,    0.00000
  24      -0.00000,    0.00000    -0.00000,    0.00000    -0.00039,    0.00000    -0.00393,    0.00000     0.00000,    0.00000     0.00193,    0.00000
  25      -0.00000,    0.00000    -0.00000,    0.00000    -0.00583,    0.00000    -0.00082,    0.00000     0.00000,    0.00000    -0.00078,    0.00000
  26       0.00000,    0.00000     0.00000,    0.00000    -0.00340,    0.00000     0.00063,    0.00000     0.00000,    0.00000     0.00675,    0.00000
  27      -0.00000,    0.00000     0.00000,    0.00000     0.00238,    0.00000     0.00379,    0.00000    -0.00000,    0.00000     0.00483,    0.00000
  28       0.00000,    0.00000    -0.00000,    0.00000     0.01178,    0.00000    -0.02402,    0.00000    -0.00000,    0.00000     0.01163,    0.00000
  29       0.00000,    0.00000     0.00000,    0.00000     0.00182,    0.00000     0.01821,    0.00000    -0.00000,    0.00000    -0.00746,    0.00000
  30       0.00000,    0.00000     0.00000,    0.00000     0.02699,    0.00000     0.00380,    0.00000    -0.00000,    0.00000     0.00302,    0.00000
  31       0.00000,    0.00000    -0.00000,    0.00000     0.01573,    0.00000    -0.00292,    0.00000    -0.00000,    0.00000    -0.02612,    0.00000
  32       0.00000,    0.00000    -0.00000,    0.00000    -0.01102,    0.00000    -0.01754,    0.00000     0.00000,    0.00000    -0.01868,    0.00000
  33       0.24973,    0.00000    -0.41174,    0.00000     0.00000,    0.00000     0.00000,    0.00000     0.31975,    0.00000    -0.00000,    0.00000
  34       0.04390,    0.00000     0.53209,    0.00000    -0.00000,    0.00000    -0.00000,    0.00000    -0.34459,    0.00000     0.00000,    0.00000
  35      -0.21756,    0.00000    -0.08500,    0.00000     0.00000,    0.00000     0.00000,    0.00000     0.04811,    0.00000    -0.00000,    0.00000
  36      -0.17500,    0.00000    -0.00340,    0.00000    -0.00000,    0.00000    -0.00000,    0.00000    -0.37684,    0.00000     0.00000,    0.00000
  37      -0.76720,    0.00000     0.00819,    0.00000     0.00000,    0.00000     0.00000,    0.00000     0.16835,    0.00000    -0.00000,    0.00000
  38      -0.09352,    0.00000     0.32881,    0.00000     0.00000,    0.00000     0.00000,    0.00000     0.55366,    0.00000    -0.00000,    0.00000
  39       0.20982,    0.00000     0.46427,    0.00000     0.00000,    0.00000    -0.00000,    0.00000     0.28946,    0.00000    -0.00000,    0.00000
  40       0.02383,    0.00000    -0.03930,    0.00000     0.00000,    0.00000     0.00000,    0.00000     0.03068,    0.00000    -0.00000,    0.00000
  41       0.00419,    0.00000     0.05078,    0.00000    -0.00000,    0.00000    -0.00000,    0.00000    -0.03307,    0.00000     0.00000,    0.00000
  42      -0.02076,    0.00000    -0.00811,    0.00000     0.00000,    0.00000     0.00000,    0.00000     0.00462,    0.00000    -0.00000,    0.00000
  43      -0.01670,    0.00000    -0.00032,    0.00000    -0.00000,    0.00000    -0.00000,    0.00000    -0.03616,    0.00000     0.00000,    0.00000
  44      -0.07322,    0.00000     0.00078,    0.00000     0.00000,    0.00000     0.00000,    0.00000     0.01615,    0.00000    -0.00000,    0.00000
  45      -0.00893,    0.00000     0.03138,    0.00000     0.00000,    0.00000     0.00000,    0.00000     0.05313,    0.00000    -0.00000,    0.00000
  46       0.02002,    0.00000     0.04431,    0.00000     0.00000,    0.00000    -0.00000,    0.00000     0.02778,    0.00000    -0.00000,    0.00000
  47       0.00000,    0.00000    -0.00000,    0.00000    -0.00074,    0.00000     0.00052,    0.00000     0.00000,    0.00000    -0.00113,    0.00000
  48      -0.00000,    0.00000     0.00000,    0.00000     0.00026,    0.00000    -0.00120,    0.00000    -0.00000,    0.00000     0.00163,    0.00000
  49      -0.00000,    0.00000    -0.00000,    0.00000     0.00075,    0.00000     0.00069,    0.00000     0.00000,    0.00000    -0.00065,    0.00000
  50       0.00000,    0.00000     0.00000,    0.00000    -0.00043,    0.00000     0.00027,    0.00000     0.00000,    0.00000    -0.00034,    0.00000
  51       0.00000,    0.00000     0.00000,    0.00000     0.00091,    0.00000     0.00013,    0.00000     0.00000,    0.00000    -0.00106,    0.00000
  52       0.00000,    0.00000    -0.00000,    0.00000    -0.00132,    0.00000    -0.00028,    0.00000     0.00000,    0.00000    -0.00118,    0.00000
  53       0.00000,    0.00000    -0.00000,    0.00000    -0.00138,    0.00000     0.00017,    0.00000     0.00000,    0.00000     0.00104,    0.00000
  54      -0.00000,    0.00000    -0.00000,    0.00000    -0.00011,    0.00000     0.00135,    0.00000    -0.00000,    0.00000     0.00148,    0.00000
  55      -0.00000,    0.00000    -0.00000,    0.00000     0.00015,    0.00000     0.00129,    0.00000    -0.00000,    0.00000     0.00056,    0.00000

                    55  
       -----------------------
   1       0.00094,    0.00000
   2       0.10261,    0.00000
   3      -0.06000,    0.00000
   4      -0.02226,    0.00000
   5      -0.01171,    0.00000
   6      -0.00000,    0.00000
   7       0.00000,    0.00000
   8       0.00000,    0.00000
   9      -0.00000,    0.00000
  10      -0.00000,    0.00000
  11      -0.00000,    0.00000
  12      -0.00000,    0.00000
  13      -0.00000,    0.00000
  14      -0.00000,    0.00000
  15      -0.00000,    0.00000
  16      -0.00000,    0.00000
  17      -0.00000,    0.00000
  18       0.00006,    0.00000
  19      -0.00004,    0.00000
  20       0.00001,    0.00000
  21      -0.00013,    0.00000
  22      -0.00009,    0.00000
  23      -0.00001,    0.00000
  24       0.00001,    0.00000
  25      -0.00000,    0.00000
  26       0.00002,    0.00000
  27       0.00002,    0.00000
  28       0.00001,    0.00000
  29      -0.00001,    0.00000
  30       0.00000,    0.00000
  31      -0.00002,    0.00000
  32      -0.00002,    0.00000
  33       0.00000,    0.00000
  34      -0.00000,    0.00000
  35      -0.00000,    0.00000
  36      -0.00000,    0.00000
  37       0.00000,    0.00000
  38       0.00000,    0.00000
  39       0.00000,    0.00000
  40       0.00000,    0.00000
  41      -0.00000,    0.00000
  42       0.00000,    0.00000
  43      -0.00000,    0.00000
  44       0.00000,    0.00000
  45       0.00000,    0.00000
  46       0.00000,    0.00000
  47      -0.00005,    0.00000
  48       0.00007,    0.00000
  49      -0.00003,    0.00000
  50      -0.00001,    0.00000
  51      -0.00004,    0.00000
  52      -0.00005,    0.00000
  53       0.00004,    0.00000
  54       0.00006,    0.00000
  55       0.00002,    0.00000
