  10
# data nr     1  (natoms,nloc)=    1    9
Ar     0.00000000      0.00000000      0.00000000
X     -0.00960914     -0.00013348     -0.00683972
X      0.26694729      0.09377375     -0.28352932
X     -0.33663871      0.19732502      0.00550883
X      0.03983300      0.09772966      0.02202953
X     -0.00814001      0.00338003     -0.00766302
X      0.08746253      0.10228079      0.18759488
X     -0.05882152     -0.07194324      0.03234829
X      0.03666595     -0.06602898     -0.03359545
X     -0.01769933     -0.35638359      0.08414598
  10
# data nr     2  (natoms,nloc)=    1    9
Ar     0.00000000      0.00000000      0.00000000
X     -0.00142185     -0.00198136     -0.00054545
X      0.27890441      0.03697063     -0.28002065
X     -0.34426982      0.13426103     -0.13451779
X      0.07127562      0.03958382      0.06782311
X     -0.03169889      0.07082109     -0.05948240
X      0.10960528      0.17815770      0.36402472
X     -0.07575421     -0.02912104      0.04753369
X      0.03705199     -0.08066838     -0.05728390
X     -0.04369248     -0.34802355      0.05246869
  10
# data nr     3  (natoms,nloc)=    1    9
Ar     0.00000000      0.00000000      0.00000000
X      0.00002124     -0.00007729     -0.00001668
X      0.27424109      0.07505882     -0.27577540
X     -0.34713810      0.15096396     -0.11440358
X      0.07150760      0.03238009      0.06273930
X     -0.02653851      0.07619000     -0.06386844
X      0.10684964      0.17029048      0.33216362
X     -0.08174746     -0.03151013      0.05422535
X      0.03654976     -0.07688361     -0.05316348
X     -0.03374521     -0.39641237      0.05809931
  10
# data nr     4  (natoms,nloc)=    1    9
Ar     0.00000000      0.00000000      0.00000000
X     -0.00000363      0.00000114     -0.00000003
X      0.27519299      0.06824583     -0.27612692
X     -0.34726306      0.14628658     -0.12086693
X      0.07168060      0.03437230      0.06398797
X     -0.02769539      0.07454203     -0.06291806
X      0.10686976      0.17387472      0.34114714
X     -0.08083355     -0.03065917      0.05306681
X      0.03683161     -0.07825917     -0.05414949
X     -0.03477921     -0.38840425      0.05585947
  10
# data nr     5  (natoms,nloc)=    1    9
Ar     0.00000000      0.00000000      0.00000000
X     -0.00000088     -0.00000022     -0.00000029
X      0.27490072      0.07014241     -0.27593325
X     -0.34735132      0.14739976     -0.11937154
X      0.07161145      0.03379009      0.06375478
X     -0.02732565      0.07501409     -0.06317685
X      0.10678032      0.17313909      0.33896288
X     -0.08107774     -0.03084316      0.05329977
X      0.03679241     -0.07796224     -0.05387824
X     -0.03432918     -0.39067973      0.05634267
  10
# data nr     6  (natoms,nloc)=    1    9
Ar     0.00000000      0.00000000      0.00000000
X     -0.00000003     -0.00000004     -0.00000003
X      0.27497432      0.06967623     -0.27597979
X     -0.34734222      0.14711560     -0.11975359
X      0.07162471      0.03392483      0.06381980
X     -0.02741069      0.07490871     -0.06311518
X      0.10680016      0.17333085      0.33951311
X     -0.08101689     -0.03079575      0.05323615
X      0.03680298     -0.07803781     -0.05394078
X     -0.03443222     -0.39012246      0.05622027
  10
# data nr     7  (natoms,nloc)=    1    9
Ar     0.00000000      0.00000000      0.00000000
X      0.00000000     -0.00000000     -0.00000000
X      0.27495626      0.06979290     -0.27596862
X     -0.34734519      0.14718624     -0.11965838
X      0.07162121      0.03389062      0.06380388
X     -0.02738937      0.07493586     -0.06313081
X      0.10679539      0.17328325      0.33937615
X     -0.08103206     -0.03080749      0.05325183
X      0.03680021     -0.07801899     -0.05392492
X     -0.03440638     -0.39026226      0.05625082
  10
# data nr     8  (natoms,nloc)=    1    9
Ar     0.00000000      0.00000000      0.00000000
X     -0.00000000      0.00000000     -0.00000000
X      0.27496083      0.06976375     -0.27597148
X     -0.34734449      0.14716858     -0.11968217
X      0.07162209      0.03389916      0.06380787
X     -0.02739472      0.07492909     -0.06312692
X      0.10679659      0.17329518      0.33941043
X     -0.08102827     -0.03080455      0.05324791
X      0.03680089     -0.07802371     -0.05392890
X     -0.03441284     -0.39022737      0.05624319
  10
# data nr     9  (natoms,nloc)=    1    9
Ar     0.00000000      0.00000000      0.00000000
X     -0.00000000     -0.00000000     -0.00000000
X      0.27495969      0.06977104     -0.27597077
X     -0.34734467      0.14717300     -0.11967622
X      0.07162187      0.03389703      0.06380687
X     -0.02739338      0.07493078     -0.06312789
X      0.10679629      0.17329220      0.33940186
X     -0.08102922     -0.03080528      0.05324889
X      0.03680072     -0.07802253     -0.05392790
X     -0.03441122     -0.39023610      0.05624510
  10
# data nr    10  (natoms,nloc)=    1    9
Ar     0.00000000      0.00000000      0.00000000
X     -0.00000000     -0.00000000     -0.00000000
X      0.27495998      0.06976922     -0.27597095
X     -0.34734463      0.14717189     -0.11967771
X      0.07162192      0.03389756      0.06380712
X     -0.02739372      0.07493035     -0.06312765
X      0.10679637      0.17329295      0.33940400
X     -0.08102898     -0.03080510      0.05324865
X      0.03680076     -0.07802282     -0.05392815
X     -0.03441163     -0.39023392      0.05624462
  10
# data nr    11  (natoms,nloc)=    1    9
Ar     0.00000000      0.00000000      0.00000000
X      0.00000000     -0.00000000     -0.00000000
X      0.27495991      0.06976968     -0.27597090
X     -0.34734464      0.14717217     -0.11967734
X      0.07162191      0.03389743      0.06380706
X     -0.02739363      0.07493046     -0.06312771
X      0.10679635      0.17329276      0.33940347
X     -0.08102904     -0.03080514      0.05324871
X      0.03680075     -0.07802275     -0.05392809
X     -0.03441153     -0.39023446      0.05624474
  10
# data nr    12  (natoms,nloc)=    1    9
Ar     0.00000000      0.00000000      0.00000000
X     -0.00000000     -0.00000000     -0.00000000
X      0.27495992      0.06976956     -0.27597092
X     -0.34734463      0.14717210     -0.11967743
X      0.07162191      0.03389746      0.06380707
X     -0.02739365      0.07493043     -0.06312769
X      0.10679635      0.17329281      0.33940360
X     -0.08102903     -0.03080513      0.05324870
X      0.03680075     -0.07802277     -0.05392811
X     -0.03441155     -0.39023433      0.05624471
  10
# data nr    13  (natoms,nloc)=    1    9
Ar     0.00000000      0.00000000      0.00000000
X     -0.00000000     -0.00000000     -0.00000000
X      0.27495992      0.06976959     -0.27597091
X     -0.34734463      0.14717212     -0.11967741
X      0.07162191      0.03389745      0.06380707
X     -0.02739365      0.07493044     -0.06312770
X      0.10679635      0.17329279      0.33940357
X     -0.08102903     -0.03080514      0.05324870
X      0.03680075     -0.07802276     -0.05392810
X     -0.03441155     -0.39023436      0.05624472
  10
# data nr    14  (natoms,nloc)=    1    9
Ar     0.00000000      0.00000000      0.00000000
X      0.00000000     -0.00000000     -0.00000000
X      0.27495992      0.06976958     -0.27597091
X     -0.34734463      0.14717211     -0.11967742
X      0.07162191      0.03389745      0.06380707
X     -0.02739365      0.07493044     -0.06312769
X      0.10679635      0.17329280      0.33940358
X     -0.08102903     -0.03080514      0.05324870
X      0.03680075     -0.07802277     -0.05392810
X     -0.03441155     -0.39023435      0.05624472
  10
# data nr    15  (natoms,nloc)=    1    9
Ar     0.00000000      0.00000000      0.00000000
X      0.00000000      0.00000000      0.00000000
X      0.27495992      0.06976959     -0.27597091
X     -0.34734463      0.14717211     -0.11967741
X      0.07162191      0.03389745      0.06380707
X     -0.02739365      0.07493044     -0.06312769
X      0.10679635      0.17329280      0.33940357
X     -0.08102903     -0.03080514      0.05324870
X      0.03680075     -0.07802277     -0.05392810
X     -0.03441155     -0.39023435      0.05624472
  10
# data nr    16  (natoms,nloc)=    1    9
Ar     0.00000000      0.00000000      0.00000000
X      0.00000000      0.00000000      0.00000000
X      0.27495992      0.06976959     -0.27597091
X     -0.34734463      0.14717211     -0.11967741
X      0.07162191      0.03389745      0.06380707
X     -0.02739365      0.07493044     -0.06312769
X      0.10679635      0.17329280      0.33940357
X     -0.08102903     -0.03080514      0.05324870
X      0.03680075     -0.07802277     -0.05392810
X     -0.03441155     -0.39023435      0.05624472
