 argument  1 = Ar_LSDA_FO-SIC_def2-tzvp.nw
                                         
                                         


              Northwest Computational Chemistry Package (NWChem) 6.6
              ------------------------------------------------------


                    Environmental Molecular Sciences Laboratory
                       Pacific Northwest National Laboratory
                                Richland, WA 99352

                              Copyright (c) 1994-2015
                       Pacific Northwest National Laboratory
                            Battelle Memorial Institute

             NWChem is an open-source computational chemistry package
                        distributed under the terms of the
                      Educational Community License (ECL) 2.0
             A copy of the license is included with this distribution
                              in the LICENSE.TXT file

                                  ACKNOWLEDGMENT
                                  --------------

            This software and its documentation were developed at the
            EMSL at Pacific Northwest National Laboratory, a multiprogram
            national laboratory, operated for the U.S. Department of Energy
            by Battelle under Contract Number DE-AC05-76RL01830. Support
            for this work was provided by the Department of Energy Office
            of Biological and Environmental Research, Office of Basic
            Energy Sciences, and the Office of Advanced Scientific Computing.


           Job information
           ---------------

    hostname        = fa-Inspiron-3650
    program         = /home/fa/nwchem_rev28648_10-09-16_mod/bin/LINUX64/./nwchem
    date            = Tue Mar  5 10:12:49 2019

    compiled        = Tue_Mar_05_10:12:13_2019
    source          = /home/fa/nwchem_rev28648_10-09-16_mod
    nwchem branch   = Development
    nwchem revision = 28648
    ga revision     = 10725
    input           = Ar_LSDA_FO-SIC_def2-tzvp.nw
    prefix          = Ar_LSDA_FO-SIC_def2-tzvp.
    data base       = ./Ar_LSDA_FO-SIC_def2-tzvp.db
    status          = restart
    nproc           =        4
    time left       =     -1s



           Memory information
           ------------------

    heap     =   13107200 doubles =    100.0 Mbytes
    stack    =   13107197 doubles =    100.0 Mbytes
    global   =   26214400 doubles =    200.0 Mbytes (distinct from heap & stack)
    total    =   52428797 doubles =    400.0 Mbytes
    verify   = yes
    hardfail = no 


           Directory information
           ---------------------

  0 permanent = .
  0 scratch   = .


           Previous task information
           -------------------------

    Theory    = dft                             
    Operation = energy                        
    Status    = fail                          
    Qmmm      = F
    Ignore    = F


           Geometries in the database
           --------------------------

       Name                              Natoms  Last Modified
       --------------------------------  ------  ------------------------
    1  geometry                               1  Tue Mar  5 10:08:54 2019  

  The geometry named "geometry" is the default for restart



           Basis sets in the database
           --------------------------

       Name                              Natoms  Last Modified
        --------------------------------  ------  ------------------------
    1  ao basis                               0  Tue Mar  5 10:08:54 2019  

  The basis set named "ao basis" is the default AO basis for restart




                                NWChem Input Module
                                -------------------



 Scaling coordinates for geometry "geometry" by  1.889725989
 (inverse scale =  0.529177249)



                             Geometry "geometry" -> ""
                             -------------------------

 Output coordinates in angstroms (scale by  1.889725989 to convert to a.u.)

  No.       Tag          Charge          X              Y              Z
 ---- ---------------- ---------- -------------- -------------- --------------
    1 Ar                  18.0000     0.00000000     0.00000000     0.00000000

      Atomic Mass 
      ----------- 

      Ar                39.962400


 Effective nuclear repulsion energy (a.u.)       0.0000000000

            Nuclear Dipole moment (a.u.) 
            ----------------------------
        X                 Y               Z
 ---------------- ---------------- ----------------
     0.0000000000     0.0000000000     0.0000000000


            XYZ format geometry
            -------------------
     1
 geometry
 Ar                    0.00000000     0.00000000     0.00000000



 Summary of "ao basis" -> "" (cartesian)
 ------------------------------------------------------------------------------
       Tag                 Description            Shells   Functions and Types
 ---------------- ------------------------------  ------  ---------------------
 *                         def2-tzvp                  on all atoms 


(type_fosic,thresh_conv,frzctr,nopt,loc,rdctr)=   1      0.00002000   0    25   1   0

                                 NWChem DFT Module
                                 -----------------


                      Basis "ao basis" -> "ao basis" (cartesian)
                      -----
  Ar (Argon)
  ----------
            Exponent  Coefficients 
       -------------- ---------------------------------------------------------
  1 S  7.91114230E+04  0.000510
  1 S  1.18647460E+04  0.003946
  1 S  2.70016430E+03  0.020307
  1 S  7.63959435E+02  0.079692
  1 S  2.48451506E+02  0.234206
  1 S  8.82835810E+01  0.448338
  1 S  3.29486071E+01  0.364082

  2 S  1.42553580E+02  0.026387
  2 S  4.41636880E+01  0.112264
  2 S  8.95249950E+00 -0.261789

  3 S  4.55469209E+00  1.300248
  3 S  2.14440790E+00  0.671972

  4 S  6.07087770E-01  1.000000

  5 S  2.16514320E-01  1.000000

  6 P  7.76775420E+02  0.002203
  6 P  1.83801070E+02  0.017694
  6 P  5.86940032E+01  0.082431
  6 P  2.17015917E+01  0.242073
  6 P  8.58214896E+00  0.422636

  7 P  3.49226792E+00  1.000000

  8 P  1.26374270E+00  1.000000

  9 P  4.66078700E-01  1.000000

 10 P  1.57660030E-01  1.000000

 11 D  5.55100000E+00  0.200000
 11 D  1.23500000E+00  1.000000

 12 D  4.12000000E-01  1.000000

 13 F  8.90000000E-01  1.000000



 Summary of "ao basis" -> "ao basis" (cartesian)
 ------------------------------------------------------------------------------
       Tag                 Description            Shells   Functions and Types
 ---------------- ------------------------------  ------  ---------------------
 Ar                        def2-tzvp                13       42   5s5p2d1f




 Summary of "ao basis" -> "ao basis" (cartesian)
 ------------------------------------------------------------------------------
       Tag                 Description            Shells   Functions and Types
 ---------------- ------------------------------  ------  ---------------------
 Ar                        def2-tzvp                13       42   5s5p2d1f


  Caching 1-el integrals 

            General Information
            -------------------
          SCF calculation type: DFT
          Wavefunction type:  closed shell.
          No. of atoms     :     1
          No. of electrons :    18
           Alpha electrons :     9
            Beta electrons :     9
          Charge           :     0
          Spin multiplicity:     1
          Use of symmetry is: off; symmetry adaption is: off
          Maximum number of iterations: 150
          This is a Direct SCF calculation.
          AO basis - number of functions:    42
                     number of shells:    13
          Convergence on energy requested:  1.00D-05
          Convergence on density requested:  1.00D-05
          Convergence on gradient requested:  5.00D-04

              XC Information
              --------------
                        Slater Exchange Functional  1.000 local    
            Perdew 1991 LDA Correlation Functional  1.000 local    

              FOSIC

             Grid Information
             ----------------
          Grid used for XC integration:  medium    
          Radial quadrature: Mura-Knowles        
          Angular quadrature: Lebedev. 
          Tag              B.-S. Rad. Rad. Pts. Rad. Cut. Ang. Pts.
          ---              ---------- --------- --------- ---------
          Ar                  1.00       88           4.0       590
          Grid pruning is: on 
          Number of quadrature shells:    88
          Spatial weights used:  Erf1

          Convergence Information
          -----------------------
          Convergence aids based upon iterative change in 
          total energy or number of iterations. 
          Levelshifting, if invoked, occurs when the 
          HOMO/LUMO gap drops below (HL_TOL):  1.00D-02
          DIIS, if invoked, will attempt to extrapolate 
          using up to (NFOCK): 10 stored Fock matrices.

                    Damping( 0%)  Levelshifting(0.5)       DIIS
                  --------------- ------------------- ---------------
          dE  on:    start            ASAP                start   
          dE off:    2 iters        150 iters           150 iters 


      Screening Tolerance Information
      -------------------------------
          Density screening/tol_rho:  1.00D-10
          AO Gaussian exp screening on grid/accAOfunc:  12
          CD Gaussian exp screening on grid/accCDfunc:  20
          XC Gaussian exp screening on grid/accXCfunc:  20
          Schwarz screening/accCoul:  1.00D-08


 Loading old vectors from job with title :



   Time after variat. SCF:      0.1
 BEF dft_densm-ldmix ---- START
 BEF dft_densm-ldmix ---- END
   Time prior to 1st pass:      0.1

 Grid_pts file          = ./Ar_LSDA_FO-SIC_def2-tzvp.gridpts.0
 Record size in doubles =  12289        No. of grid_pts per rec  =   3070
 Max. records in memory =      6        Max. recs in file   =    272372

FA::In dft_diagn: ncanorg=   1
  Resetting Diis

           Memory utilization after 1st SCF pass: 
           Heap Space remaining (MW):       13.03            13029976
          Stack Space remaining (MW):       13.11            13106844

   convergence    iter        energy       DeltaE   RMS-Dens  Diis-err    time
 ---------------- ----- ----------------- --------- --------- ---------  ------
 d= 0,ls=0.0,diis     1   -525.9193452965 -5.26D+02  1.10D-10  1.54D-17     0.2
FA::In dft_diagn: ncanorg=   1
 d= 0,ls=0.0,diis     2   -525.9193452965  7.96D-13  1.09D-10  1.51D-17     0.3
FOSIC pars::(type_fosic,threshold_fosic)=   1      0.00002000
FOSIC pars::(flag2frzctr,nopt,flag2loc,flag2rdctr)=     0    25     1     0
nocc(  1)=  9
 BEF lbfgsb_v3_driver_FOSIC_E:
  2.00  2.00  2.00  2.00  2.00  2.00  2.00  2.00  2.00  0.00  0.00  0.00  0.00  0.00  0.00  0.00  0.00  0.00  0.00  0.00  0.00  0.00  0.00  0.00  0.00  0.00  0.00  0.00  0.00  0.00  0.00  0.00  0.00  0.00  0.00  0.00  0.00  0.00  0.00  0.00  0.00  0.00
ORIGINAL:(ispin,i,eval)=   1   1   -113.77800499
ORIGINAL:(ispin,i,eval)=   1   2    -10.78791177
ORIGINAL:(ispin,i,eval)=   1   3     -8.43774665
ORIGINAL:(ispin,i,eval)=   1   4     -8.43774665
ORIGINAL:(ispin,i,eval)=   1   5     -8.43774665
ORIGINAL:(ispin,i,eval)=   1   6     -0.88041945
ORIGINAL:(ispin,i,eval)=   1   7     -0.37941389
ORIGINAL:(ispin,i,eval)=   1   8     -0.37941389
ORIGINAL:(ispin,i,eval)=   1   9     -0.37941389
ORIGINAL:(ispin,i,eval)=   1  10      0.23598038
ORIGINAL:(ispin,i,eval)=   1  11      0.32493482
ORIGINAL:(ispin,i,eval)=   1  12      0.32493482
ORIGINAL:(ispin,i,eval)=   1  13      0.32493482
ORIGINAL:(ispin,i,eval)=   1  14      0.41236369
ORIGINAL:(ispin,i,eval)=   1  15      0.41236369
ORIGINAL:(ispin,i,eval)=   1  16      0.41236369
ORIGINAL:(ispin,i,eval)=   1  17      0.41236369
ORIGINAL:(ispin,i,eval)=   1  18      0.41236369
ORIGINAL:(ispin,i,eval)=   1  19      1.62021521
ORIGINAL:(ispin,i,eval)=   1  20      1.67585754
ORIGINAL:(ispin,i,eval)=   1  21      1.67585754
ORIGINAL:(ispin,i,eval)=   1  22      1.67585754
ORIGINAL:(ispin,i,eval)=   1  23      1.87604895
ORIGINAL:(ispin,i,eval)=   1  24      1.87604895
ORIGINAL:(ispin,i,eval)=   1  25      1.87604895
ORIGINAL:(ispin,i,eval)=   1  26      1.87604895
ORIGINAL:(ispin,i,eval)=   1  27      1.87604895
ORIGINAL:(ispin,i,eval)=   1  28      2.47007384
ORIGINAL:(ispin,i,eval)=   1  29      2.47007384
ORIGINAL:(ispin,i,eval)=   1  30      2.47007384
ORIGINAL:(ispin,i,eval)=   1  31      2.47007384
ORIGINAL:(ispin,i,eval)=   1  32      2.47007384
ORIGINAL:(ispin,i,eval)=   1  33      2.47007384
ORIGINAL:(ispin,i,eval)=   1  34      2.47007384
ORIGINAL:(ispin,i,eval)=   1  35      4.70616059
ORIGINAL:(ispin,i,eval)=   1  36      4.70616059
ORIGINAL:(ispin,i,eval)=   1  37      4.70616059
ORIGINAL:(ispin,i,eval)=   1  38     14.76803546
ORIGINAL:(ispin,i,eval)=   1  39     14.76803546
ORIGINAL:(ispin,i,eval)=   1  40     14.76803546
ORIGINAL:(ispin,i,eval)=   1  41     15.50137991
ORIGINAL:(ispin,i,eval)=   1  42     39.31223071
------g_movecs-CO(   1)---START                                                                                                                                                                                                                                

 global array: alpha evecs[1:42,1:42],  handle: -995 

            1           2           3           4           5           6  
       ----------- ----------- ----------- ----------- ----------- -----------
   1      -1.00127    -0.29860    -0.00000     0.00000     0.00000     0.09695
   2       0.03528    -0.19486    -0.00000     0.00000     0.00000     0.07849
   3       0.02124     0.84035     0.00000    -0.00000    -0.00000    -0.54631
   4      -0.04389     0.04776    -0.00000    -0.00000    -0.00000     0.70286
   5      -0.01289     0.03586     0.00000     0.00000     0.00000     0.51370
   6      -0.00000    -0.00000    -0.38633     0.43710     0.39115    -0.00000
   7       0.00000    -0.00000    -0.58346    -0.23821    -0.31007     0.00000
   8      -0.00000    -0.00000     0.06031     0.49549    -0.49413     0.00000
   9       0.00000     0.00000    -0.18860     0.21339     0.19095     0.00000
  10      -0.00000     0.00000    -0.28483    -0.11629    -0.15137    -0.00000
  11       0.00000     0.00000     0.02944     0.24189    -0.24122    -0.00000
  12      -0.00000    -0.00000    -0.04233     0.04789     0.04286    -0.00000
  13       0.00000    -0.00000    -0.06393    -0.02610    -0.03397     0.00000
  14      -0.00000    -0.00000     0.00661     0.05429    -0.05414     0.00000
  15      -0.00000     0.00000    -0.01214     0.01374     0.01229    -0.00000
  16       0.00000    -0.00000    -0.01834    -0.00749    -0.00974     0.00000
  17      -0.00000    -0.00000     0.00190     0.01557    -0.01553    -0.00000
  18       0.00000    -0.00000     0.00128    -0.00144    -0.00129    -0.00000
  19      -0.00000     0.00000     0.00193     0.00079     0.00102    -0.00000
  20       0.00000     0.00000    -0.00020    -0.00164     0.00163    -0.00000
  21       0.01664    -0.00962     0.00000    -0.00000    -0.00000     0.00511
  22       0.00000     0.00000     0.00000     0.00000    -0.00000     0.00000
  23      -0.00000     0.00000     0.00000    -0.00000    -0.00000     0.00000
  24       0.01664    -0.00962     0.00000    -0.00000    -0.00000     0.00511
  25      -0.00000     0.00000     0.00000     0.00000     0.00000     0.00000
  26       0.01664    -0.00962     0.00000     0.00000    -0.00000     0.00511
  27       0.00723    -0.01701    -0.00000    -0.00000    -0.00000    -0.00792
  28      -0.00000    -0.00000    -0.00000    -0.00000     0.00000    -0.00000
  29      -0.00000    -0.00000    -0.00000     0.00000     0.00000     0.00000
  30       0.00723    -0.01701    -0.00000    -0.00000    -0.00000    -0.00792
  31       0.00000    -0.00000     0.00000     0.00000    -0.00000     0.00000
  32       0.00723    -0.01701    -0.00000    -0.00000    -0.00000    -0.00792
  33       0.00000     0.00000     0.00952    -0.01077    -0.00964     0.00000
  34      -0.00000     0.00000     0.01438     0.00587     0.00764    -0.00000
  35       0.00000     0.00000    -0.00149    -0.01221     0.01218     0.00000
  36       0.00000     0.00000     0.00952    -0.01077    -0.00964     0.00000
  37       0.00000    -0.00000    -0.00000    -0.00000    -0.00000     0.00000
  38       0.00000     0.00000     0.00952    -0.01077    -0.00964     0.00000
  39      -0.00000     0.00000     0.01438     0.00587     0.00764    -0.00000
  40       0.00000     0.00000    -0.00149    -0.01221     0.01218     0.00000
  41      -0.00000     0.00000     0.01438     0.00587     0.00764    -0.00000
  42       0.00000     0.00000    -0.00149    -0.01221     0.01218     0.00000

            7           8           9          10          11          12  
       ----------- ----------- ----------- ----------- ----------- -----------
   1       0.00000    -0.00000     0.00000    -0.04870     0.00000     0.00000
   2       0.00000    -0.00000    -0.00000    -0.04390     0.00000     0.00000
   3      -0.00000     0.00000     0.00000     0.26399    -0.00000    -0.00000
   4      -0.00000     0.00000    -0.00000    -3.20482     0.00000     0.00000
   5       0.00000    -0.00000     0.00000     6.03740    -0.00000    -0.00000
   6       0.07659     0.20349    -0.06564    -0.00000     0.00069    -0.14849
   7      -0.20149     0.04536    -0.09447    -0.00000    -0.14863    -0.00071
   8       0.07153    -0.09009    -0.19583    -0.00000     0.00050    -0.00647
   9       0.03446     0.09156    -0.02954    -0.00000     0.00045    -0.09749
  10      -0.09067     0.02041    -0.04251    -0.00000    -0.09759    -0.00047
  11       0.03219    -0.04054    -0.08812    -0.00000     0.00033    -0.00425
  12      -0.09554    -0.25386     0.08189    -0.00000     0.00077    -0.16742
  13       0.25137    -0.05659     0.11785    -0.00000    -0.16758    -0.00080
  14      -0.08924     0.11240     0.24430    -0.00000     0.00056    -0.00730
  15      -0.18027    -0.47897     0.15451     0.00000    -0.01102     2.38020
  16       0.47428    -0.10677     0.22236     0.00000     2.38245     0.01136
  17      -0.16836     0.21206     0.46094     0.00000    -0.00801     0.10377
  18      -0.11888    -0.31587     0.10190    -0.00000     0.00735    -1.58713
  19       0.31278    -0.07041     0.14664    -0.00000    -1.58863    -0.00757
  20      -0.11103     0.13985     0.30398    -0.00000     0.00534    -0.06919
  21       0.00000    -0.00000    -0.00000    -0.04926    -0.00000    -0.00000
  22      -0.00000    -0.00000     0.00000     0.00000    -0.00000     0.00000
  23       0.00000     0.00000     0.00000    -0.00000     0.00000     0.00000
  24       0.00000     0.00000     0.00000    -0.04926    -0.00000    -0.00000
  25      -0.00000     0.00000    -0.00000    -0.00000     0.00000     0.00000
  26      -0.00000     0.00000     0.00000    -0.04926    -0.00000    -0.00000
  27      -0.00000     0.00000     0.00000    -1.48893     0.00000     0.00000
  28       0.00000    -0.00000    -0.00000     0.00000    -0.00000     0.00000
  29       0.00000     0.00000     0.00000    -0.00000    -0.00000    -0.00000
  30      -0.00000     0.00000    -0.00000    -1.48893     0.00000     0.00000
  31      -0.00000    -0.00000    -0.00000    -0.00000     0.00000     0.00000
  32      -0.00000     0.00000    -0.00000    -1.48893     0.00000     0.00000
  33      -0.00196    -0.00520     0.00168    -0.00000     0.00287    -0.62078
  34       0.00515    -0.00116     0.00242    -0.00000    -0.62137    -0.00296
  35      -0.00183     0.00230     0.00501    -0.00000     0.00209    -0.02706
  36      -0.00196    -0.00520     0.00168    -0.00000     0.00287    -0.62078
  37       0.00000     0.00000     0.00000    -0.00000    -0.00000    -0.00000
  38      -0.00196    -0.00520     0.00168    -0.00000     0.00287    -0.62078
  39       0.00515    -0.00116     0.00242    -0.00000    -0.62137    -0.00296
  40      -0.00183     0.00230     0.00501    -0.00000     0.00209    -0.02706
  41       0.00515    -0.00116     0.00242    -0.00000    -0.62137    -0.00296
  42      -0.00183     0.00230     0.00501    -0.00000     0.00209    -0.02706

           13          14          15          16          17          18  
       ----------- ----------- ----------- ----------- ----------- -----------
   1       0.00000    -0.00000     0.00000     0.00000    -0.00000    -0.00000
   2       0.00000    -0.00000     0.00000     0.00000    -0.00000    -0.00000
   3      -0.00000     0.00000    -0.00000    -0.00000     0.00000     0.00000
   4       0.00000    -0.00000     0.00000     0.00000    -0.00000    -0.00000
   5      -0.00000     0.00000    -0.00000    -0.00000     0.00000     0.00000
   6       0.00648     0.00000     0.00000     0.00000     0.00000     0.00000
   7      -0.00047     0.00000     0.00000    -0.00000     0.00000     0.00000
   8      -0.14849    -0.00000     0.00000     0.00000    -0.00000    -0.00000
   9       0.00425     0.00000     0.00000     0.00000     0.00000     0.00000
  10      -0.00031     0.00000     0.00000     0.00000     0.00000     0.00000
  11      -0.09749    -0.00000     0.00000     0.00000    -0.00000    -0.00000
  12       0.00730     0.00000     0.00000     0.00000     0.00000     0.00000
  13      -0.00053    -0.00000    -0.00000     0.00000     0.00000     0.00000
  14      -0.16742    -0.00000     0.00000    -0.00000    -0.00000     0.00000
  15      -0.10381    -0.00000    -0.00000    -0.00000    -0.00000    -0.00000
  16       0.00752    -0.00000    -0.00000    -0.00000    -0.00000    -0.00000
  17       2.38021     0.00000    -0.00000    -0.00000     0.00000     0.00000
  18       0.06922     0.00000     0.00000     0.00000     0.00000     0.00000
  19      -0.00501     0.00000     0.00000     0.00000     0.00000     0.00000
  20      -1.58714    -0.00000     0.00000     0.00000    -0.00000    -0.00000
  21       0.00000     0.32570    -0.02053     0.01512    -0.01864    -0.02206
  22      -0.00000     0.02635     0.10416     0.02424     0.53790    -0.14568
  23      -0.00000     0.02453     0.00753    -0.56580     0.01141    -0.04220
  24       0.00000    -0.17423    -0.26473    -0.01279     0.07186     0.04241
  25      -0.00000     0.05135     0.08968    -0.03445     0.12859     0.54249
  26       0.00000    -0.15147     0.28526    -0.00232    -0.05322    -0.02035
  27       0.00000     0.77101    -0.04859     0.03578    -0.04412    -0.05222
  28      -0.00000     0.06239     0.24657     0.05739     1.27334    -0.34486
  29      -0.00000     0.05806     0.01783    -1.33937     0.02702    -0.09989
  30       0.00000    -0.41245    -0.62667    -0.03028     0.17011     0.10039
  31      -0.00000     0.12156     0.21229    -0.08154     0.30441     1.28419
  32       0.00000    -0.35856     0.67526    -0.00550    -0.12599    -0.04817
  33       0.02707     0.00000     0.00000     0.00000     0.00000     0.00000
  34      -0.00196     0.00000     0.00000     0.00000     0.00000     0.00000
  35      -0.62078    -0.00000     0.00000     0.00000    -0.00000    -0.00000
  36       0.02707     0.00000     0.00000     0.00000     0.00000     0.00000
  37      -0.00000    -0.00000    -0.00000    -0.00000    -0.00000     0.00000
  38       0.02707     0.00000     0.00000     0.00000     0.00000     0.00000
  39      -0.00196     0.00000     0.00000     0.00000     0.00000     0.00000
  40      -0.62078    -0.00000     0.00000    -0.00000    -0.00000    -0.00000
  41      -0.00196     0.00000    -0.00000     0.00000     0.00000     0.00000
  42      -0.62078    -0.00000     0.00000     0.00000    -0.00000    -0.00000

           19          20          21          22          23          24  
       ----------- ----------- ----------- ----------- ----------- -----------
   1      -0.11132     0.00000     0.00000     0.00000     0.00000    -0.00000
   2      -0.06228     0.00000     0.00000     0.00000     0.00000    -0.00000
   3       0.79850    -0.00000    -0.00000    -0.00000    -0.00000     0.00000
   4       1.54554    -0.00000    -0.00000    -0.00000    -0.00000     0.00000
   5      -7.03239     0.00000     0.00000     0.00000     0.00000    -0.00000
   6      -0.00000     0.00070     0.00555    -0.26348    -0.00000    -0.00000
   7      -0.00000    -0.26353    -0.00108    -0.00072     0.00000     0.00000
   8      -0.00000     0.00110    -0.26347    -0.00555     0.00000     0.00000
   9      -0.00000     0.00003     0.00025    -0.01181    -0.00000    -0.00000
  10       0.00000    -0.01182    -0.00005    -0.00003     0.00000     0.00000
  11      -0.00000     0.00005    -0.01181    -0.00025    -0.00000    -0.00000
  12       0.00000    -0.00576    -0.04591     2.17828     0.00000    -0.00000
  13       0.00000     2.17875     0.00896     0.00595    -0.00000    -0.00000
  14       0.00000    -0.00909     2.17827     0.04588    -0.00000    -0.00000
  15      -0.00000     0.01686     0.13434    -6.37444    -0.00000     0.00000
  16      -0.00000    -6.37580    -0.02623    -0.01742     0.00000     0.00000
  17      -0.00000     0.02659    -6.37441    -0.13427     0.00000     0.00000
  18       0.00000    -0.00331    -0.02640     1.25277     0.00000    -0.00000
  19       0.00000     1.25304     0.00516     0.00342    -0.00000    -0.00000
  20       0.00000    -0.00523     1.25276     0.02639    -0.00000    -0.00000
  21       0.01603     0.00000     0.00000     0.00000     0.23353     0.31022
  22       0.00000     0.00000    -0.00000    -0.00000    -0.32374    -0.17214
  23       0.00000    -0.00000    -0.00000     0.00000     0.16837    -1.91837
  24       0.01603     0.00000    -0.00000     0.00000    -1.09339    -0.16710
  25       0.00000     0.00000    -0.00000     0.00000    -0.00914    -0.33617
  26       0.01603     0.00000    -0.00000    -0.00000     0.85987    -0.14311
  27       2.66330    -0.00000    -0.00000    -0.00000    -0.18663    -0.24792
  28      -0.00000    -0.00000     0.00000     0.00000     0.25873     0.13758
  29      -0.00000     0.00000     0.00000    -0.00000    -0.13456     1.53316
  30       2.66330    -0.00000    -0.00000    -0.00000     0.87384     0.13355
  31      -0.00000    -0.00000     0.00000    -0.00000     0.00731     0.26866
  32       2.66330    -0.00000    -0.00000    -0.00000    -0.68720     0.11437
  33       0.00000    -0.00673    -0.05361     2.54372     0.00000    -0.00000
  34       0.00000     2.54427     0.01047     0.00695     0.00000    -0.00000
  35       0.00000    -0.01061     2.54371     0.05358    -0.00000    -0.00000
  36       0.00000    -0.00673    -0.05361     2.54372     0.00000    -0.00000
  37       0.00000     0.00000     0.00000     0.00000     0.00000    -0.00000
  38       0.00000    -0.00673    -0.05361     2.54372     0.00000    -0.00000
  39       0.00000     2.54427     0.01047     0.00695    -0.00000    -0.00000
  40       0.00000    -0.01061     2.54371     0.05358    -0.00000    -0.00000
  41       0.00000     2.54427     0.01047     0.00695     0.00000    -0.00000
  42       0.00000    -0.01061     2.54371     0.05358    -0.00000    -0.00000

           25          26          27          28          29          30  
       ----------- ----------- ----------- ----------- ----------- -----------
   1      -0.00000     0.00000    -0.00000     0.00000    -0.00000    -0.00000
   2      -0.00000     0.00000    -0.00000     0.00000    -0.00000    -0.00000
   3       0.00000    -0.00000     0.00000    -0.00000     0.00000    -0.00000
   4       0.00000    -0.00000     0.00000    -0.00000    -0.00000     0.00000
   5      -0.00000     0.00000    -0.00000     0.00000    -0.00000    -0.00000
   6       0.00000     0.00000    -0.00000     0.00000     0.00000    -0.00000
   7      -0.00000    -0.00000    -0.00000    -0.00000     0.00000    -0.00000
   8       0.00000     0.00000     0.00000     0.00000    -0.00000     0.00000
   9       0.00000    -0.00000     0.00000    -0.00000    -0.00000    -0.00000
  10       0.00000    -0.00000     0.00000     0.00000    -0.00000    -0.00000
  11       0.00000     0.00000    -0.00000    -0.00000    -0.00000     0.00000
  12      -0.00000    -0.00000     0.00000    -0.00000    -0.00000     0.00000
  13       0.00000     0.00000     0.00000     0.00000    -0.00000     0.00000
  14      -0.00000    -0.00000    -0.00000    -0.00000     0.00000    -0.00000
  15       0.00000     0.00000    -0.00000     0.00000     0.00000     0.00000
  16      -0.00000    -0.00000    -0.00000    -0.00000     0.00000     0.00000
  17       0.00000     0.00000     0.00000     0.00000    -0.00000     0.00000
  18      -0.00000    -0.00000     0.00000    -0.00000    -0.00000    -0.00000
  19       0.00000     0.00000     0.00000     0.00000    -0.00000    -0.00000
  20      -0.00000    -0.00000    -0.00000    -0.00000     0.00000    -0.00000
  21       1.06562    -0.28287     0.06596     0.00000     0.00000    -0.00000
  22      -0.40514    -1.94689     0.15195     0.00000    -0.00000    -0.00000
  23       0.51561     0.06287     0.36573     0.00000     0.00000    -0.00000
  24      -0.28633     0.25514    -0.01334     0.00000     0.00000     0.00000
  25       0.17997    -0.16114    -1.98510    -0.00000    -0.00000    -0.00000
  26      -0.77929     0.02773    -0.05263    -0.00000    -0.00000     0.00000
  27      -0.85164     0.22607    -0.05272    -0.00000    -0.00000     0.00000
  28       0.32379     1.55595    -0.12144    -0.00000     0.00000     0.00000
  29      -0.41208    -0.05025    -0.29229    -0.00000    -0.00000     0.00000
  30       0.22883    -0.20390     0.01066    -0.00000     0.00000    -0.00000
  31      -0.14383     0.12878     1.58649     0.00000     0.00000     0.00000
  32       0.62281    -0.02216     0.04206     0.00000     0.00000    -0.00000
  33      -0.00000    -0.00000     0.00000     0.05536     0.00255    -0.01148
  34       0.00000     0.00000     0.00000    -0.01912    -0.22890     0.75771
  35      -0.00000    -0.00000    -0.00000    -0.49657     1.92691    -1.16373
  36      -0.00000    -0.00000     0.00000    -0.15937    -0.34418    -0.35604
  37      -0.00000    -0.00000    -0.00000     1.63040     1.96187     2.60298
  38      -0.00000    -0.00000     0.00000    -0.00671     0.33653     0.39048
  39       0.00000     0.00000     0.00000    -0.68781     0.13687     0.15202
  40      -0.00000     0.00000    -0.00000    -0.10733    -1.13036     0.42247
  41       0.00000     0.00000     0.00000     2.08254    -0.18171    -1.21378
  42      -0.00000    -0.00000    -0.00000     0.20130    -0.26552     0.24709

           31          32          33          34          35          36  
       ----------- ----------- ----------- ----------- ----------- -----------
   1       0.00000     0.00000     0.00000     0.00000    -0.00000    -0.00000
   2       0.00000     0.00000     0.00000     0.00000    -0.00000     0.00000
   3      -0.00000     0.00000    -0.00000    -0.00000    -0.00000    -0.00000
   4      -0.00000    -0.00000    -0.00000     0.00000     0.00000     0.00000
   5       0.00000     0.00000     0.00000     0.00000    -0.00000     0.00000
   6      -0.00000    -0.00000    -0.00000    -0.00000     0.00439     0.00859
   7       0.00000    -0.00000     0.00000    -0.00000    -0.36835    -0.00347
   8      -0.00000    -0.00000     0.00000    -0.00000    -0.00358     0.36827
   9       0.00000    -0.00000     0.00000     0.00000     0.00554     0.01082
  10      -0.00000     0.00000    -0.00000     0.00000    -0.46407    -0.00438
  11       0.00000     0.00000    -0.00000     0.00000    -0.00451     0.46398
  12       0.00000     0.00000     0.00000     0.00000    -0.00194    -0.00379
  13      -0.00000     0.00000    -0.00000     0.00000     0.16243     0.00153
  14       0.00000     0.00000    -0.00000     0.00000     0.00158    -0.16239
  15      -0.00000     0.00000    -0.00000    -0.00000    -0.07877    -0.15401
  16       0.00000    -0.00000     0.00000    -0.00000     6.60313     0.06228
  17      -0.00000    -0.00000     0.00000    -0.00000     0.06413    -6.60183
  18       0.00000    -0.00000     0.00000     0.00000     0.00929     0.01815
  19      -0.00000     0.00000    -0.00000     0.00000    -0.77837    -0.00734
  20       0.00000     0.00000    -0.00000     0.00000    -0.00756     0.77822
  21       0.00000     0.00000    -0.00000     0.00000    -0.00000    -0.00000
  22       0.00000     0.00000    -0.00000     0.00000     0.00000     0.00000
  23      -0.00000    -0.00000     0.00000    -0.00000     0.00000    -0.00000
  24      -0.00000     0.00000     0.00000    -0.00000    -0.00000    -0.00000
  25       0.00000    -0.00000    -0.00000     0.00000    -0.00000    -0.00000
  26      -0.00000    -0.00000     0.00000    -0.00000    -0.00000    -0.00000
  27      -0.00000    -0.00000    -0.00000    -0.00000     0.00000    -0.00000
  28      -0.00000    -0.00000     0.00000     0.00000    -0.00000    -0.00000
  29      -0.00000     0.00000    -0.00000     0.00000    -0.00000     0.00000
  30       0.00000    -0.00000    -0.00000    -0.00000     0.00000    -0.00000
  31      -0.00000     0.00000     0.00000     0.00000     0.00000     0.00000
  32      -0.00000     0.00000    -0.00000    -0.00000     0.00000    -0.00000
  33      -0.21648    -0.06872    -0.49580    -0.83630     0.04871     0.09524
  34      -1.76950    -0.06562    -1.04485     1.07051    -4.08338    -0.03851
  35      -0.06694     0.00001    -0.70743     0.42571    -0.03966     4.08257
  36       0.49040    -1.74020     0.58860     1.45401     0.04871     0.09524
  37       0.97814    -0.85425    -0.17561    -0.00072     0.00000    -0.00000
  38       0.15904     1.94636     0.89880     1.05489     0.04871     0.09524
  39       0.48193    -0.05259     0.33834    -0.36821    -4.08338    -0.03851
  40       1.43367     0.42590    -1.45054     0.43749    -0.03966     4.08257
  41       0.32371     0.22339     0.02983     0.03413    -4.08338    -0.03851
  42      -0.45558    -0.14197     0.71933    -0.28774    -0.03966     4.08257

           37          38          39          40          41          42  
       ----------- ----------- ----------- ----------- ----------- -----------
   1      -0.00000     0.00000     0.00000    -0.00000    -0.38338     0.75669
   2       0.00000    -0.00000    -0.00000     0.00000     0.56252    -2.68907
   3      -0.00000     0.00000     0.00000    -0.00000    -4.06585    -5.87274
   4       0.00000    -0.00000    -0.00000     0.00000    20.87655    10.69281
   5      -0.00000    -0.00000    -0.00000     0.00000     3.90923     4.65109
   6      -0.36826    -0.22582    -0.17297    -1.18442     0.00000    -0.00000
   7      -0.00448    -1.01727    -0.60748     0.28266    -0.00000    -0.00000
   8       0.00855     0.63083    -1.04154     0.03183    -0.00000     0.00000
   9      -0.46396     0.51783     0.39664     2.71606    -0.00000     0.00000
  10      -0.00564     2.33275     1.39305    -0.64819     0.00000     0.00000
  11       0.01077    -1.44658     2.38842    -0.07300     0.00000    -0.00000
  12       0.16239    -0.33709    -0.25820    -1.76804     0.00000     0.00000
  13       0.00197    -1.51852    -0.90682     0.42194    -0.00000     0.00000
  14      -0.00377     0.94166    -1.55476     0.04752    -0.00000    -0.00000
  15       6.60165    -0.65016    -0.49800    -3.41012     0.00000    -0.00000
  16       0.08024    -2.92886    -1.74903     0.81382    -0.00000    -0.00000
  17      -0.15325     1.81624    -2.99875     0.09165     0.00000     0.00000
  18      -0.77820     0.06916     0.05298     0.36276    -0.00000     0.00000
  19      -0.00946     0.31157     0.18606    -0.08657     0.00000     0.00000
  20       0.01806    -0.19321     0.31900    -0.00975    -0.00000    -0.00000
  21      -0.00000     0.00000     0.00000    -0.00000    -8.18888    -3.97988
  22       0.00000    -0.00000    -0.00000     0.00000    -0.00000    -0.00000
  23       0.00000     0.00000     0.00000    -0.00000    -0.00000    -0.00000
  24      -0.00000     0.00000     0.00000    -0.00000    -8.18888    -3.97988
  25      -0.00000     0.00000     0.00000    -0.00000    -0.00000    -0.00000
  26      -0.00000     0.00000     0.00000    -0.00000    -8.18888    -3.97988
  27       0.00000     0.00000     0.00000    -0.00000    -2.50430    -2.39339
  28      -0.00000     0.00000     0.00000    -0.00000     0.00000     0.00000
  29      -0.00000    -0.00000     0.00000     0.00000     0.00000     0.00000
  30       0.00000     0.00000     0.00000    -0.00000    -2.50430    -2.39339
  31       0.00000    -0.00000    -0.00000    -0.00000     0.00000     0.00000
  32       0.00000     0.00000     0.00000    -0.00000    -2.50430    -2.39339
  33      -4.08246     0.46960     0.35970     2.46310    -0.00000     0.00000
  34      -0.04962     2.11549     1.26331    -0.58782     0.00000     0.00000
  35       0.09477    -1.31185     2.16598    -0.06620     0.00000    -0.00000
  36      -4.08246     0.46960     0.35970     2.46310    -0.00000     0.00000
  37      -0.00000    -0.00000    -0.00000     0.00000     0.00000     0.00000
  38      -4.08246     0.46960     0.35970     2.46310    -0.00000     0.00000
  39      -0.04962     2.11549     1.26331    -0.58782     0.00000     0.00000
  40       0.09477    -1.31185     2.16598    -0.06620     0.00000    -0.00000
  41      -0.04962     2.11549     1.26331    -0.58782     0.00000     0.00000
  42       0.09477    -1.31185     2.16598    -0.06620     0.00000    -0.00000
------g_movecs-CO(   1)---END                                                                                                                                                                                                                                  
noc_fon::   9
------g_dens-CO(   1)---START                                                                                                                                                                                                                                  

 global array: alpha density[1:42,1:42],  handle: -994 

            1           2           3           4           5           6  
       ----------- ----------- ----------- ----------- ----------- -----------
   1       2.20220     0.06094    -0.65031     0.19566     0.10399     0.00000
   2       0.06094     0.09075    -0.41176     0.08863     0.06576    -0.00000
   3      -0.65031    -0.41176     2.01020    -0.68955    -0.50155     0.00000
   4       0.19566     0.08863    -0.68955     0.99643     0.72667     0.00000
   5       0.10399     0.06576    -0.50155     0.72667     0.53067    -0.00000
   6       0.00000    -0.00000     0.00000     0.00000    -0.00000     1.08978
   7      -0.00000     0.00000    -0.00000     0.00000    -0.00000     0.00000
   8       0.00000     0.00000    -0.00000    -0.00000     0.00000     0.00000
   9      -0.00000     0.00000    -0.00000     0.00000     0.00000     0.52807
  10       0.00000    -0.00000     0.00000     0.00000    -0.00000     0.00000
  11      -0.00000    -0.00000     0.00000    -0.00000     0.00000     0.00000
  12       0.00000    -0.00000     0.00000    -0.00000     0.00000    -0.02060
  13      -0.00000     0.00000    -0.00000    -0.00000     0.00000    -0.00000
  14       0.00000     0.00000    -0.00000    -0.00000    -0.00000     0.00000
  15       0.00000    -0.00000     0.00000    -0.00000     0.00000    -0.21182
  16      -0.00000     0.00000    -0.00000     0.00000     0.00000    -0.00000
  17       0.00000     0.00000    -0.00000    -0.00000    -0.00000    -0.00000
  18      -0.00000     0.00000     0.00000    -0.00000     0.00000    -0.16340
  19       0.00000    -0.00000     0.00000    -0.00000     0.00000     0.00000
  20      -0.00000    -0.00000     0.00000    -0.00000    -0.00000     0.00000
  21      -0.02660     0.00572    -0.02103     0.00480     0.00413    -0.00000
  22      -0.00000    -0.00000     0.00000     0.00000     0.00000    -0.00000
  23      -0.00000    -0.00000    -0.00000     0.00000     0.00000    -0.00000
  24      -0.02660     0.00572    -0.02103     0.00480     0.00413    -0.00000
  25      -0.00000    -0.00000     0.00000     0.00000     0.00000     0.00000
  26      -0.02660     0.00572    -0.02103     0.00480     0.00413    -0.00000
  27      -0.00585     0.00590    -0.01964    -0.01339    -0.00954    -0.00000
  28       0.00000     0.00000    -0.00000    -0.00000    -0.00000     0.00000
  29       0.00000     0.00000    -0.00000     0.00000     0.00000     0.00000
  30      -0.00585     0.00590    -0.01964    -0.01339    -0.00954    -0.00000
  31       0.00000     0.00000    -0.00000     0.00000     0.00000     0.00000
  32      -0.00585     0.00590    -0.01964    -0.01339    -0.00954    -0.00000
  33      -0.00000     0.00000    -0.00000     0.00000     0.00000    -0.02695
  34       0.00000    -0.00000     0.00000    -0.00000    -0.00000     0.00000
  35      -0.00000    -0.00000     0.00000     0.00000     0.00000     0.00000
  36      -0.00000     0.00000    -0.00000     0.00000     0.00000    -0.02695
  37      -0.00000     0.00000    -0.00000     0.00000     0.00000    -0.00000
  38      -0.00000     0.00000    -0.00000     0.00000     0.00000    -0.02695
  39       0.00000    -0.00000     0.00000    -0.00000    -0.00000     0.00000
  40      -0.00000    -0.00000     0.00000     0.00000     0.00000     0.00000
  41       0.00000    -0.00000     0.00000    -0.00000    -0.00000     0.00000
  42      -0.00000    -0.00000     0.00000     0.00000     0.00000     0.00000

            7           8           9          10          11          12  
       ----------- ----------- ----------- ----------- ----------- -----------
   1      -0.00000     0.00000    -0.00000     0.00000    -0.00000     0.00000
   2       0.00000     0.00000     0.00000    -0.00000    -0.00000    -0.00000
   3      -0.00000    -0.00000    -0.00000     0.00000     0.00000     0.00000
   4       0.00000    -0.00000     0.00000     0.00000    -0.00000    -0.00000
   5      -0.00000     0.00000     0.00000    -0.00000     0.00000     0.00000
   6       0.00000     0.00000     0.52807     0.00000     0.00000    -0.02060
   7       1.08978    -0.00000     0.00000     0.52807    -0.00000    -0.00000
   8      -0.00000     1.08978     0.00000    -0.00000     0.52807     0.00000
   9       0.00000     0.00000     0.25602     0.00000     0.00000    -0.00514
  10       0.52807    -0.00000     0.00000     0.25602    -0.00000    -0.00000
  11      -0.00000     0.52807     0.00000    -0.00000     0.25602     0.00000
  12      -0.00000     0.00000    -0.00514    -0.00000     0.00000     0.17240
  13      -0.02060    -0.00000    -0.00000    -0.00514    -0.00000    -0.00000
  14       0.00000    -0.02060     0.00000    -0.00000    -0.00514    -0.00000
  15      -0.00000    -0.00000    -0.09413    -0.00000    -0.00000     0.30633
  16      -0.21182     0.00000    -0.00000    -0.09413     0.00000     0.00000
  17       0.00000    -0.21182    -0.00000     0.00000    -0.09413     0.00000
  18       0.00000     0.00000    -0.07365     0.00000     0.00000     0.19942
  19      -0.16340    -0.00000    -0.00000    -0.07365    -0.00000    -0.00000
  20      -0.00000    -0.16340     0.00000    -0.00000    -0.07365    -0.00000
  21       0.00000     0.00000    -0.00000    -0.00000     0.00000    -0.00000
  22      -0.00000    -0.00000    -0.00000    -0.00000    -0.00000     0.00000
  23       0.00000    -0.00000    -0.00000     0.00000    -0.00000    -0.00000
  24      -0.00000    -0.00000     0.00000    -0.00000    -0.00000    -0.00000
  25      -0.00000     0.00000     0.00000    -0.00000     0.00000    -0.00000
  26      -0.00000     0.00000     0.00000    -0.00000     0.00000    -0.00000
  27       0.00000    -0.00000    -0.00000     0.00000    -0.00000    -0.00000
  28       0.00000     0.00000     0.00000     0.00000     0.00000    -0.00000
  29      -0.00000     0.00000     0.00000    -0.00000     0.00000     0.00000
  30       0.00000     0.00000    -0.00000     0.00000     0.00000    -0.00000
  31      -0.00000     0.00000     0.00000    -0.00000     0.00000     0.00000
  32       0.00000    -0.00000    -0.00000     0.00000    -0.00000    -0.00000
  33       0.00000     0.00000    -0.01306     0.00000     0.00000     0.00063
  34      -0.02695    -0.00000     0.00000    -0.01306    -0.00000    -0.00000
  35      -0.00000    -0.02695     0.00000    -0.00000    -0.01306    -0.00000
  36       0.00000     0.00000    -0.01306     0.00000     0.00000     0.00063
  37       0.00000    -0.00000    -0.00000     0.00000    -0.00000    -0.00000
  38       0.00000     0.00000    -0.01306     0.00000     0.00000     0.00063
  39      -0.02695    -0.00000     0.00000    -0.01306    -0.00000    -0.00000
  40      -0.00000    -0.02695     0.00000    -0.00000    -0.01306    -0.00000
  41      -0.02695    -0.00000     0.00000    -0.01306    -0.00000    -0.00000
  42       0.00000    -0.02695     0.00000     0.00000    -0.01306    -0.00000

           13          14          15          16          17          18  
       ----------- ----------- ----------- ----------- ----------- -----------
   1      -0.00000     0.00000     0.00000    -0.00000     0.00000    -0.00000
   2       0.00000     0.00000    -0.00000     0.00000     0.00000     0.00000
   3      -0.00000    -0.00000     0.00000    -0.00000    -0.00000     0.00000
   4      -0.00000    -0.00000    -0.00000     0.00000    -0.00000    -0.00000
   5       0.00000    -0.00000     0.00000     0.00000    -0.00000     0.00000
   6      -0.00000     0.00000    -0.21182    -0.00000    -0.00000    -0.16340
   7      -0.02060     0.00000    -0.00000    -0.21182     0.00000     0.00000
   8      -0.00000    -0.02060    -0.00000     0.00000    -0.21182     0.00000
   9      -0.00000     0.00000    -0.09413    -0.00000    -0.00000    -0.07365
  10      -0.00514    -0.00000    -0.00000    -0.09413     0.00000     0.00000
  11      -0.00000    -0.00514    -0.00000     0.00000    -0.09413     0.00000
  12      -0.00000    -0.00000     0.30633     0.00000     0.00000     0.19942
  13       0.17240     0.00000    -0.00000     0.30633     0.00000    -0.00000
  14       0.00000     0.17240     0.00000     0.00000     0.30633    -0.00000
  15      -0.00000     0.00000     0.57254     0.00000     0.00000     0.37683
  16       0.30633     0.00000     0.00000     0.57254     0.00000     0.00000
  17       0.00000     0.30633     0.00000     0.00000     0.57254     0.00000
  18      -0.00000    -0.00000     0.37683     0.00000     0.00000     0.24859
  19       0.19942    -0.00000    -0.00000     0.37683     0.00000    -0.00000
  20       0.00000     0.19942     0.00000     0.00000     0.37683    -0.00000
  21       0.00000    -0.00000    -0.00000     0.00000    -0.00000     0.00000
  22       0.00000     0.00000     0.00000     0.00000     0.00000     0.00000
  23       0.00000     0.00000    -0.00000     0.00000     0.00000    -0.00000
  24       0.00000     0.00000    -0.00000     0.00000     0.00000    -0.00000
  25      -0.00000    -0.00000    -0.00000    -0.00000    -0.00000    -0.00000
  26       0.00000     0.00000    -0.00000     0.00000     0.00000     0.00000
  27      -0.00000     0.00000    -0.00000    -0.00000     0.00000    -0.00000
  28      -0.00000    -0.00000    -0.00000    -0.00000    -0.00000    -0.00000
  29       0.00000     0.00000     0.00000     0.00000     0.00000     0.00000
  30      -0.00000     0.00000    -0.00000    -0.00000     0.00000    -0.00000
  31      -0.00000     0.00000     0.00000    -0.00000    -0.00000     0.00000
  32      -0.00000     0.00000    -0.00000    -0.00000     0.00000    -0.00000
  33       0.00000    -0.00000     0.00544    -0.00000    -0.00000     0.00417
  34       0.00063    -0.00000    -0.00000     0.00544    -0.00000    -0.00000
  35      -0.00000     0.00063    -0.00000    -0.00000     0.00544    -0.00000
  36       0.00000    -0.00000     0.00544     0.00000    -0.00000     0.00417
  37       0.00000     0.00000    -0.00000     0.00000     0.00000    -0.00000
  38       0.00000    -0.00000     0.00544    -0.00000    -0.00000     0.00417
  39       0.00063     0.00000    -0.00000     0.00544     0.00000    -0.00000
  40      -0.00000     0.00063    -0.00000    -0.00000     0.00544    -0.00000
  41       0.00063    -0.00000    -0.00000     0.00544    -0.00000    -0.00000
  42      -0.00000     0.00063    -0.00000    -0.00000     0.00544    -0.00000

           19          20          21          22          23          24  
       ----------- ----------- ----------- ----------- ----------- -----------
   1       0.00000    -0.00000    -0.02660    -0.00000    -0.00000    -0.02660
   2      -0.00000    -0.00000     0.00572    -0.00000    -0.00000     0.00572
   3       0.00000     0.00000    -0.02103     0.00000    -0.00000    -0.02103
   4      -0.00000    -0.00000     0.00480     0.00000     0.00000     0.00480
   5       0.00000    -0.00000     0.00413     0.00000     0.00000     0.00413
   6       0.00000     0.00000    -0.00000    -0.00000    -0.00000    -0.00000
   7      -0.16340    -0.00000     0.00000    -0.00000     0.00000    -0.00000
   8      -0.00000    -0.16340     0.00000    -0.00000    -0.00000    -0.00000
   9      -0.00000     0.00000    -0.00000    -0.00000    -0.00000     0.00000
  10      -0.07365    -0.00000    -0.00000    -0.00000     0.00000    -0.00000
  11      -0.00000    -0.07365     0.00000    -0.00000    -0.00000    -0.00000
  12      -0.00000    -0.00000    -0.00000     0.00000    -0.00000    -0.00000
  13       0.19942     0.00000     0.00000     0.00000     0.00000     0.00000
  14      -0.00000     0.19942    -0.00000     0.00000     0.00000     0.00000
  15      -0.00000     0.00000    -0.00000     0.00000    -0.00000    -0.00000
  16       0.37683     0.00000     0.00000     0.00000     0.00000     0.00000
  17       0.00000     0.37683    -0.00000     0.00000     0.00000     0.00000
  18      -0.00000    -0.00000     0.00000     0.00000    -0.00000    -0.00000
  19       0.24859    -0.00000    -0.00000     0.00000     0.00000     0.00000
  20      -0.00000     0.24859    -0.00000     0.00000     0.00000     0.00000
  21      -0.00000    -0.00000     0.00079    -0.00000     0.00000     0.00079
  22       0.00000     0.00000    -0.00000     0.00000    -0.00000    -0.00000
  23       0.00000     0.00000     0.00000    -0.00000     0.00000     0.00000
  24       0.00000     0.00000     0.00079    -0.00000     0.00000     0.00079
  25      -0.00000    -0.00000    -0.00000    -0.00000    -0.00000    -0.00000
  26       0.00000     0.00000     0.00079    -0.00000     0.00000     0.00079
  27      -0.00000     0.00000     0.00049    -0.00000    -0.00000     0.00049
  28      -0.00000    -0.00000     0.00000    -0.00000    -0.00000     0.00000
  29       0.00000     0.00000     0.00000     0.00000    -0.00000     0.00000
  30      -0.00000     0.00000     0.00049    -0.00000    -0.00000     0.00049
  31      -0.00000    -0.00000     0.00000     0.00000    -0.00000     0.00000
  32      -0.00000     0.00000     0.00049    -0.00000    -0.00000     0.00049
  33      -0.00000    -0.00000     0.00000     0.00000     0.00000     0.00000
  34       0.00417    -0.00000    -0.00000     0.00000    -0.00000    -0.00000
  35      -0.00000     0.00417     0.00000     0.00000     0.00000     0.00000
  36       0.00000    -0.00000     0.00000     0.00000     0.00000     0.00000
  37       0.00000     0.00000     0.00000     0.00000     0.00000     0.00000
  38      -0.00000    -0.00000     0.00000     0.00000     0.00000     0.00000
  39       0.00417     0.00000    -0.00000     0.00000    -0.00000    -0.00000
  40      -0.00000     0.00417     0.00000     0.00000     0.00000     0.00000
  41       0.00417    -0.00000    -0.00000     0.00000    -0.00000    -0.00000
  42      -0.00000     0.00417     0.00000     0.00000     0.00000     0.00000

           25          26          27          28          29          30  
       ----------- ----------- ----------- ----------- ----------- -----------
   1      -0.00000    -0.02660    -0.00585     0.00000     0.00000    -0.00585
   2      -0.00000     0.00572     0.00590     0.00000     0.00000     0.00590
   3       0.00000    -0.02103    -0.01964    -0.00000    -0.00000    -0.01964
   4       0.00000     0.00480    -0.01339    -0.00000     0.00000    -0.01339
   5       0.00000     0.00413    -0.00954    -0.00000     0.00000    -0.00954
   6       0.00000    -0.00000    -0.00000     0.00000     0.00000    -0.00000
   7      -0.00000    -0.00000     0.00000     0.00000    -0.00000     0.00000
   8       0.00000     0.00000    -0.00000     0.00000     0.00000     0.00000
   9       0.00000     0.00000    -0.00000     0.00000     0.00000    -0.00000
  10      -0.00000    -0.00000     0.00000     0.00000    -0.00000     0.00000
  11       0.00000     0.00000    -0.00000     0.00000     0.00000     0.00000
  12      -0.00000    -0.00000    -0.00000    -0.00000     0.00000    -0.00000
  13      -0.00000     0.00000    -0.00000    -0.00000     0.00000    -0.00000
  14      -0.00000     0.00000     0.00000    -0.00000     0.00000     0.00000
  15      -0.00000    -0.00000    -0.00000    -0.00000     0.00000    -0.00000
  16      -0.00000     0.00000    -0.00000    -0.00000     0.00000    -0.00000
  17      -0.00000     0.00000     0.00000    -0.00000     0.00000     0.00000
  18      -0.00000     0.00000    -0.00000    -0.00000     0.00000    -0.00000
  19      -0.00000     0.00000    -0.00000    -0.00000     0.00000    -0.00000
  20      -0.00000     0.00000     0.00000    -0.00000     0.00000     0.00000
  21      -0.00000     0.00079     0.00049     0.00000     0.00000     0.00049
  22      -0.00000    -0.00000    -0.00000    -0.00000     0.00000    -0.00000
  23      -0.00000     0.00000    -0.00000    -0.00000    -0.00000    -0.00000
  24      -0.00000     0.00079     0.00049     0.00000     0.00000     0.00049
  25       0.00000    -0.00000    -0.00000     0.00000    -0.00000    -0.00000
  26      -0.00000     0.00079     0.00049     0.00000     0.00000     0.00049
  27      -0.00000     0.00049     0.00081     0.00000    -0.00000     0.00081
  28       0.00000     0.00000     0.00000     0.00000    -0.00000     0.00000
  29      -0.00000     0.00000    -0.00000    -0.00000     0.00000    -0.00000
  30      -0.00000     0.00049     0.00081     0.00000    -0.00000     0.00081
  31       0.00000     0.00000     0.00000    -0.00000     0.00000     0.00000
  32      -0.00000     0.00049     0.00081     0.00000    -0.00000     0.00081
  33      -0.00000     0.00000     0.00000    -0.00000    -0.00000     0.00000
  34       0.00000    -0.00000    -0.00000    -0.00000     0.00000    -0.00000
  35      -0.00000     0.00000     0.00000    -0.00000    -0.00000    -0.00000
  36      -0.00000     0.00000     0.00000    -0.00000    -0.00000     0.00000
  37      -0.00000     0.00000    -0.00000    -0.00000     0.00000    -0.00000
  38      -0.00000     0.00000     0.00000    -0.00000    -0.00000     0.00000
  39       0.00000    -0.00000    -0.00000    -0.00000     0.00000    -0.00000
  40      -0.00000     0.00000     0.00000    -0.00000    -0.00000    -0.00000
  41       0.00000    -0.00000    -0.00000    -0.00000     0.00000    -0.00000
  42      -0.00000     0.00000     0.00000    -0.00000    -0.00000    -0.00000

           31          32          33          34          35          36  
       ----------- ----------- ----------- ----------- ----------- -----------
   1       0.00000    -0.00585    -0.00000     0.00000    -0.00000    -0.00000
   2       0.00000     0.00590     0.00000    -0.00000    -0.00000     0.00000
   3      -0.00000    -0.01964    -0.00000     0.00000     0.00000    -0.00000
   4       0.00000    -0.01339     0.00000    -0.00000     0.00000     0.00000
   5       0.00000    -0.00954     0.00000    -0.00000     0.00000     0.00000
   6       0.00000    -0.00000    -0.02695     0.00000     0.00000    -0.02695
   7      -0.00000     0.00000     0.00000    -0.02695    -0.00000     0.00000
   8       0.00000    -0.00000     0.00000    -0.00000    -0.02695     0.00000
   9       0.00000    -0.00000    -0.01306     0.00000     0.00000    -0.01306
  10      -0.00000     0.00000     0.00000    -0.01306    -0.00000     0.00000
  11       0.00000    -0.00000     0.00000    -0.00000    -0.01306     0.00000
  12       0.00000    -0.00000     0.00063    -0.00000    -0.00000     0.00063
  13      -0.00000    -0.00000     0.00000     0.00063    -0.00000     0.00000
  14       0.00000     0.00000    -0.00000    -0.00000     0.00063    -0.00000
  15       0.00000    -0.00000     0.00544    -0.00000    -0.00000     0.00544
  16      -0.00000    -0.00000    -0.00000     0.00544    -0.00000     0.00000
  17      -0.00000     0.00000    -0.00000    -0.00000     0.00544    -0.00000
  18       0.00000    -0.00000     0.00417    -0.00000    -0.00000     0.00417
  19      -0.00000    -0.00000    -0.00000     0.00417    -0.00000     0.00000
  20      -0.00000     0.00000    -0.00000    -0.00000     0.00417    -0.00000
  21       0.00000     0.00049     0.00000    -0.00000     0.00000     0.00000
  22       0.00000    -0.00000     0.00000     0.00000     0.00000     0.00000
  23      -0.00000    -0.00000     0.00000    -0.00000     0.00000     0.00000
  24       0.00000     0.00049     0.00000    -0.00000     0.00000     0.00000
  25       0.00000    -0.00000    -0.00000     0.00000    -0.00000    -0.00000
  26       0.00000     0.00049     0.00000    -0.00000     0.00000     0.00000
  27       0.00000     0.00081     0.00000    -0.00000     0.00000     0.00000
  28      -0.00000     0.00000    -0.00000    -0.00000    -0.00000    -0.00000
  29       0.00000    -0.00000    -0.00000     0.00000    -0.00000    -0.00000
  30       0.00000     0.00081     0.00000    -0.00000    -0.00000     0.00000
  31       0.00000     0.00000    -0.00000     0.00000    -0.00000    -0.00000
  32       0.00000     0.00081     0.00000    -0.00000     0.00000     0.00000
  33      -0.00000     0.00000     0.00067    -0.00000    -0.00000     0.00067
  34       0.00000    -0.00000    -0.00000     0.00067     0.00000    -0.00000
  35      -0.00000     0.00000    -0.00000     0.00000     0.00067    -0.00000
  36      -0.00000     0.00000     0.00067    -0.00000    -0.00000     0.00067
  37      -0.00000    -0.00000     0.00000    -0.00000     0.00000     0.00000
  38      -0.00000     0.00000     0.00067    -0.00000    -0.00000     0.00067
  39       0.00000    -0.00000    -0.00000     0.00067     0.00000    -0.00000
  40      -0.00000     0.00000    -0.00000     0.00000     0.00067    -0.00000
  41       0.00000    -0.00000    -0.00000     0.00067     0.00000    -0.00000
  42      -0.00000     0.00000    -0.00000     0.00000     0.00067    -0.00000

           37          38          39          40          41          42  
       ----------- ----------- ----------- ----------- ----------- -----------
   1      -0.00000    -0.00000     0.00000    -0.00000     0.00000    -0.00000
   2       0.00000     0.00000    -0.00000    -0.00000    -0.00000    -0.00000
   3      -0.00000    -0.00000     0.00000     0.00000     0.00000     0.00000
   4       0.00000     0.00000    -0.00000     0.00000    -0.00000     0.00000
   5       0.00000     0.00000    -0.00000     0.00000    -0.00000     0.00000
   6      -0.00000    -0.02695     0.00000     0.00000     0.00000     0.00000
   7       0.00000     0.00000    -0.02695    -0.00000    -0.02695     0.00000
   8      -0.00000     0.00000    -0.00000    -0.02695    -0.00000    -0.02695
   9      -0.00000    -0.01306     0.00000     0.00000     0.00000     0.00000
  10       0.00000     0.00000    -0.01306    -0.00000    -0.01306     0.00000
  11      -0.00000     0.00000    -0.00000    -0.01306    -0.00000    -0.01306
  12      -0.00000     0.00063    -0.00000    -0.00000    -0.00000    -0.00000
  13       0.00000     0.00000     0.00063    -0.00000     0.00063    -0.00000
  14       0.00000    -0.00000     0.00000     0.00063    -0.00000     0.00063
  15      -0.00000     0.00544    -0.00000    -0.00000    -0.00000    -0.00000
  16       0.00000    -0.00000     0.00544    -0.00000     0.00544    -0.00000
  17       0.00000    -0.00000     0.00000     0.00544    -0.00000     0.00544
  18      -0.00000     0.00417    -0.00000    -0.00000    -0.00000    -0.00000
  19       0.00000    -0.00000     0.00417    -0.00000     0.00417    -0.00000
  20       0.00000    -0.00000     0.00000     0.00417    -0.00000     0.00417
  21       0.00000     0.00000    -0.00000     0.00000    -0.00000     0.00000
  22       0.00000     0.00000     0.00000     0.00000     0.00000     0.00000
  23       0.00000     0.00000    -0.00000     0.00000    -0.00000     0.00000
  24       0.00000     0.00000    -0.00000     0.00000    -0.00000     0.00000
  25      -0.00000    -0.00000     0.00000    -0.00000     0.00000    -0.00000
  26       0.00000     0.00000    -0.00000     0.00000    -0.00000     0.00000
  27      -0.00000     0.00000    -0.00000     0.00000    -0.00000     0.00000
  28      -0.00000    -0.00000    -0.00000    -0.00000    -0.00000    -0.00000
  29       0.00000    -0.00000     0.00000    -0.00000     0.00000    -0.00000
  30      -0.00000     0.00000    -0.00000    -0.00000    -0.00000    -0.00000
  31      -0.00000    -0.00000     0.00000    -0.00000     0.00000    -0.00000
  32      -0.00000     0.00000    -0.00000     0.00000    -0.00000     0.00000
  33       0.00000     0.00067    -0.00000    -0.00000    -0.00000    -0.00000
  34      -0.00000    -0.00000     0.00067     0.00000     0.00067     0.00000
  35       0.00000    -0.00000     0.00000     0.00067     0.00000     0.00067
  36       0.00000     0.00067    -0.00000    -0.00000    -0.00000    -0.00000
  37       0.00000     0.00000    -0.00000     0.00000    -0.00000     0.00000
  38       0.00000     0.00067    -0.00000    -0.00000    -0.00000    -0.00000
  39      -0.00000    -0.00000     0.00067     0.00000     0.00067    -0.00000
  40       0.00000    -0.00000     0.00000     0.00067     0.00000     0.00067
  41      -0.00000    -0.00000     0.00067     0.00000     0.00067     0.00000
  42       0.00000    -0.00000    -0.00000     0.00067     0.00000     0.00067
------g_dens-CO(   1)---END                                                                                                                                                                                                                                    
------g_focks-CO(   1)---START                                                                                                                                                                                                                                 

 global array:  alpha fock[1:42,1:42],  handle: -990 

            1           2           3           4           5           6  
       ----------- ----------- ----------- ----------- ----------- -----------
   1    -113.69719     7.03458   -37.71291   -10.72002    -5.02070    -0.00000
   2       7.03458    -6.36452    12.37656     6.57952     3.39310     0.00000
   3     -37.71291    12.37656   -22.01748    -9.59177    -5.01515     0.00000
   4     -10.72002     6.57952    -9.59177    -5.30641    -3.20728     0.00000
   5      -5.02070     3.39310    -5.01515    -3.20728    -2.02380    -0.00000
   6      -0.00000     0.00000     0.00000     0.00000    -0.00000    -7.05231
   7       0.00000     0.00000     0.00000     0.00000     0.00000     0.00000
   8      -0.00000     0.00000    -0.00000     0.00000     0.00000     0.00000
   9      -0.00000     0.00000    -0.00000     0.00000    -0.00000    -7.81724
  10       0.00000     0.00000     0.00000     0.00000    -0.00000     0.00000
  11      -0.00000     0.00000    -0.00000    -0.00000     0.00000     0.00000
  12      -0.00000     0.00000     0.00000     0.00000     0.00000    -4.40332
  13       0.00000    -0.00000     0.00000     0.00000     0.00000     0.00000
  14       0.00000     0.00000    -0.00000    -0.00000    -0.00000    -0.00000
  15       0.00000    -0.00000    -0.00000     0.00000     0.00000    -1.70828
  16       0.00000    -0.00000     0.00000     0.00000     0.00000     0.00000
  17      -0.00000     0.00000     0.00000    -0.00000    -0.00000     0.00000
  18       0.00000     0.00000     0.00000     0.00000     0.00000    -0.49932
  19       0.00000    -0.00000    -0.00000     0.00000     0.00000     0.00000
  20      -0.00000    -0.00000    -0.00000    -0.00000     0.00000     0.00000
  21      -1.70415     3.60134    -4.21697    -2.83186    -1.86008    -0.00000
  22       0.00000    -0.00000     0.00000     0.00000     0.00000     0.00000
  23      -0.00000    -0.00000    -0.00000    -0.00000    -0.00000     0.00000
  24      -1.70415     3.60134    -4.21697    -2.83186    -1.86008     0.00000
  25      -0.00000     0.00000    -0.00000    -0.00000    -0.00000     0.00000
  26      -1.70415     3.60134    -4.21697    -2.83186    -1.86008     0.00000
  27      -0.09650     0.46853    -0.76816    -0.93925    -0.66171    -0.00000
  28       0.00000    -0.00000     0.00000     0.00000    -0.00000    -0.00000
  29       0.00000    -0.00000    -0.00000    -0.00000    -0.00000     0.00000
  30      -0.09650     0.46853    -0.76816    -0.93925    -0.66171    -0.00000
  31       0.00000     0.00000    -0.00000    -0.00000    -0.00000     0.00000
  32      -0.09650     0.46853    -0.76816    -0.93925    -0.66171    -0.00000
  33      -0.00000     0.00000     0.00000     0.00000     0.00000    -0.67275
  34       0.00000    -0.00000     0.00000     0.00000     0.00000     0.00000
  35      -0.00000     0.00000     0.00000     0.00000    -0.00000    -0.00000
  36      -0.00000     0.00000     0.00000     0.00000     0.00000    -0.22425
  37       0.00000     0.00000    -0.00000    -0.00000     0.00000    -0.00000
  38       0.00000     0.00000    -0.00000    -0.00000     0.00000    -0.22425
  39       0.00000     0.00000    -0.00000     0.00000     0.00000     0.00000
  40      -0.00000    -0.00000     0.00000    -0.00000     0.00000     0.00000
  41       0.00000     0.00000     0.00000    -0.00000     0.00000     0.00000
  42      -0.00000     0.00000    -0.00000    -0.00000    -0.00000    -0.00000

            7           8           9          10          11          12  
       ----------- ----------- ----------- ----------- ----------- -----------
   1       0.00000    -0.00000    -0.00000     0.00000    -0.00000    -0.00000
   2       0.00000     0.00000     0.00000     0.00000     0.00000     0.00000
   3       0.00000    -0.00000    -0.00000     0.00000    -0.00000     0.00000
   4       0.00000     0.00000     0.00000     0.00000    -0.00000     0.00000
   5       0.00000     0.00000    -0.00000    -0.00000     0.00000     0.00000
   6       0.00000     0.00000    -7.81724     0.00000     0.00000    -4.40332
   7      -7.05231    -0.00000     0.00000    -7.81724    -0.00000     0.00000
   8      -0.00000    -7.05231     0.00000    -0.00000    -7.81724    -0.00000
   9       0.00000     0.00000    -4.24561     0.00000    -0.00000    -3.43227
  10      -7.81724    -0.00000     0.00000    -4.24561    -0.00000     0.00000
  11      -0.00000    -7.81724    -0.00000    -0.00000    -4.24561    -0.00000
  12       0.00000    -0.00000    -3.43227     0.00000    -0.00000    -2.06797
  13      -4.40332    -0.00000     0.00000    -3.43227    -0.00000     0.00000
  14      -0.00000    -4.40332    -0.00000    -0.00000    -3.43227    -0.00000
  15       0.00000     0.00000    -1.95461     0.00000    -0.00000    -1.41407
  16      -1.70828    -0.00000     0.00000    -1.95461    -0.00000     0.00000
  17      -0.00000    -1.70828    -0.00000    -0.00000    -1.95461    -0.00000
  18       0.00000     0.00000    -0.69586     0.00000    -0.00000    -0.70499
  19      -0.49932    -0.00000     0.00000    -0.69586    -0.00000     0.00000
  20      -0.00000    -0.49932    -0.00000    -0.00000    -0.69586    -0.00000
  21       0.00000     0.00000     0.00000     0.00000    -0.00000     0.00000
  22       0.00000    -0.00000     0.00000     0.00000     0.00000     0.00000
  23      -0.00000     0.00000    -0.00000     0.00000    -0.00000    -0.00000
  24      -0.00000     0.00000     0.00000    -0.00000    -0.00000     0.00000
  25       0.00000     0.00000     0.00000    -0.00000    -0.00000     0.00000
  26       0.00000     0.00000    -0.00000    -0.00000    -0.00000    -0.00000
  27      -0.00000     0.00000     0.00000     0.00000    -0.00000     0.00000
  28      -0.00000     0.00000     0.00000     0.00000     0.00000     0.00000
  29       0.00000    -0.00000    -0.00000     0.00000    -0.00000     0.00000
  30      -0.00000     0.00000     0.00000    -0.00000    -0.00000     0.00000
  31       0.00000     0.00000     0.00000    -0.00000    -0.00000    -0.00000
  32      -0.00000    -0.00000    -0.00000    -0.00000    -0.00000    -0.00000
  33       0.00000     0.00000    -1.38995     0.00000    -0.00000    -0.99179
  34      -0.22425    -0.00000     0.00000    -0.46332    -0.00000     0.00000
  35      -0.00000    -0.22425    -0.00000    -0.00000    -0.46332    -0.00000
  36       0.00000    -0.00000    -0.46332     0.00000    -0.00000    -0.33060
  37       0.00000     0.00000     0.00000    -0.00000     0.00000    -0.00000
  38       0.00000    -0.00000    -0.46332     0.00000    -0.00000    -0.33060
  39      -0.67275    -0.00000     0.00000    -1.38995    -0.00000     0.00000
  40      -0.00000    -0.22425    -0.00000    -0.00000    -0.46332    -0.00000
  41      -0.22425    -0.00000     0.00000    -0.46332    -0.00000     0.00000
  42      -0.00000    -0.67275    -0.00000    -0.00000    -1.38995    -0.00000

           13          14          15          16          17          18  
       ----------- ----------- ----------- ----------- ----------- -----------
   1       0.00000     0.00000     0.00000     0.00000    -0.00000     0.00000
   2      -0.00000     0.00000    -0.00000    -0.00000     0.00000     0.00000
   3       0.00000    -0.00000    -0.00000     0.00000     0.00000     0.00000
   4       0.00000    -0.00000     0.00000     0.00000    -0.00000     0.00000
   5       0.00000    -0.00000     0.00000     0.00000    -0.00000     0.00000
   6       0.00000    -0.00000    -1.70828     0.00000     0.00000    -0.49932
   7      -4.40332    -0.00000     0.00000    -1.70828    -0.00000     0.00000
   8      -0.00000    -4.40332     0.00000    -0.00000    -1.70828     0.00000
   9       0.00000    -0.00000    -1.95461     0.00000    -0.00000    -0.69586
  10      -3.43227    -0.00000     0.00000    -1.95461    -0.00000     0.00000
  11      -0.00000    -3.43227    -0.00000    -0.00000    -1.95461    -0.00000
  12       0.00000    -0.00000    -1.41407     0.00000    -0.00000    -0.70499
  13      -2.06797    -0.00000     0.00000    -1.41407    -0.00000     0.00000
  14      -0.00000    -2.06797    -0.00000    -0.00000    -1.41407    -0.00000
  15       0.00000    -0.00000    -0.72550     0.00000    -0.00000    -0.43712
  16      -1.41407    -0.00000     0.00000    -0.72550    -0.00000     0.00000
  17      -0.00000    -1.41407    -0.00000    -0.00000    -0.72550    -0.00000
  18       0.00000    -0.00000    -0.43712     0.00000    -0.00000    -0.15218
  19      -0.70499    -0.00000     0.00000    -0.43712    -0.00000    -0.00000
  20      -0.00000    -0.70499    -0.00000    -0.00000    -0.43712    -0.00000
  21      -0.00000    -0.00000     0.00000     0.00000    -0.00000     0.00000
  22      -0.00000     0.00000     0.00000     0.00000    -0.00000     0.00000
  23       0.00000    -0.00000     0.00000    -0.00000    -0.00000     0.00000
  24       0.00000     0.00000     0.00000     0.00000     0.00000     0.00000
  25      -0.00000     0.00000    -0.00000     0.00000    -0.00000    -0.00000
  26       0.00000    -0.00000    -0.00000     0.00000    -0.00000    -0.00000
  27       0.00000    -0.00000     0.00000     0.00000    -0.00000     0.00000
  28       0.00000     0.00000     0.00000     0.00000     0.00000     0.00000
  29      -0.00000    -0.00000    -0.00000     0.00000     0.00000     0.00000
  30       0.00000    -0.00000     0.00000     0.00000     0.00000     0.00000
  31       0.00000    -0.00000     0.00000     0.00000     0.00000    -0.00000
  32      -0.00000    -0.00000     0.00000     0.00000    -0.00000     0.00000
  33       0.00000    -0.00000    -0.39245     0.00000    -0.00000    -0.34305
  34      -0.33060    -0.00000     0.00000    -0.13082    -0.00000     0.00000
  35      -0.00000    -0.33060    -0.00000    -0.00000    -0.13082    -0.00000
  36       0.00000    -0.00000    -0.13082     0.00000    -0.00000    -0.11435
  37      -0.00000     0.00000    -0.00000    -0.00000     0.00000    -0.00000
  38       0.00000    -0.00000    -0.13082     0.00000    -0.00000    -0.11435
  39      -0.99179    -0.00000     0.00000    -0.39245    -0.00000     0.00000
  40      -0.00000    -0.33060    -0.00000    -0.00000    -0.13082    -0.00000
  41      -0.33060    -0.00000     0.00000    -0.13082    -0.00000     0.00000
  42      -0.00000    -0.99179    -0.00000    -0.00000    -0.39245    -0.00000

           19          20          21          22          23          24  
       ----------- ----------- ----------- ----------- ----------- -----------
   1       0.00000    -0.00000    -1.70415     0.00000    -0.00000    -1.70415
   2      -0.00000    -0.00000     3.60134    -0.00000    -0.00000     3.60134
   3      -0.00000    -0.00000    -4.21697     0.00000    -0.00000    -4.21697
   4       0.00000    -0.00000    -2.83186     0.00000    -0.00000    -2.83186
   5       0.00000     0.00000    -1.86008     0.00000    -0.00000    -1.86008
   6       0.00000     0.00000    -0.00000     0.00000     0.00000     0.00000
   7      -0.49932    -0.00000     0.00000     0.00000    -0.00000    -0.00000
   8      -0.00000    -0.49932     0.00000    -0.00000     0.00000     0.00000
   9       0.00000    -0.00000     0.00000     0.00000    -0.00000     0.00000
  10      -0.69586    -0.00000     0.00000     0.00000     0.00000    -0.00000
  11      -0.00000    -0.69586    -0.00000     0.00000    -0.00000    -0.00000
  12       0.00000    -0.00000     0.00000     0.00000    -0.00000     0.00000
  13      -0.70499    -0.00000    -0.00000    -0.00000     0.00000     0.00000
  14      -0.00000    -0.70499    -0.00000     0.00000    -0.00000     0.00000
  15       0.00000    -0.00000     0.00000     0.00000     0.00000     0.00000
  16      -0.43712    -0.00000     0.00000     0.00000    -0.00000     0.00000
  17      -0.00000    -0.43712    -0.00000    -0.00000    -0.00000     0.00000
  18      -0.00000    -0.00000     0.00000     0.00000     0.00000     0.00000
  19      -0.15218     0.00000     0.00000     0.00000    -0.00000     0.00000
  20       0.00000    -0.15218    -0.00000    -0.00000    -0.00000    -0.00000
  21       0.00000    -0.00000    -1.21575     0.00000    -0.00000    -1.88855
  22       0.00000    -0.00000     0.00000     0.33640    -0.00000     0.00000
  23      -0.00000    -0.00000    -0.00000    -0.00000     0.33640    -0.00000
  24       0.00000    -0.00000    -1.88855     0.00000    -0.00000    -1.21575
  25      -0.00000    -0.00000    -0.00000    -0.00000     0.00000    -0.00000
  26       0.00000    -0.00000    -1.88855     0.00000    -0.00000    -1.88855
  27       0.00000     0.00000    -0.69090     0.00000    -0.00000    -0.67919
  28       0.00000    -0.00000     0.00000    -0.00586    -0.00000     0.00000
  29      -0.00000     0.00000    -0.00000    -0.00000    -0.00586    -0.00000
  30       0.00000     0.00000    -0.67919     0.00000    -0.00000    -0.69090
  31       0.00000     0.00000    -0.00000    -0.00000    -0.00000    -0.00000
  32       0.00000    -0.00000    -0.67919    -0.00000    -0.00000    -0.67919
  33      -0.00000    -0.00000     0.00000     0.00000    -0.00000     0.00000
  34      -0.11435    -0.00000     0.00000     0.00000    -0.00000     0.00000
  35      -0.00000    -0.11435     0.00000    -0.00000    -0.00000     0.00000
  36       0.00000    -0.00000     0.00000     0.00000     0.00000     0.00000
  37      -0.00000     0.00000    -0.00000     0.00000    -0.00000    -0.00000
  38       0.00000    -0.00000    -0.00000    -0.00000    -0.00000    -0.00000
  39      -0.34305    -0.00000     0.00000     0.00000    -0.00000     0.00000
  40      -0.00000    -0.11435     0.00000    -0.00000    -0.00000     0.00000
  41      -0.11435    -0.00000    -0.00000    -0.00000    -0.00000     0.00000
  42      -0.00000    -0.34305    -0.00000     0.00000    -0.00000    -0.00000

           25          26          27          28          29          30  
       ----------- ----------- ----------- ----------- ----------- -----------
   1      -0.00000    -1.70415    -0.09650     0.00000     0.00000    -0.09650
   2       0.00000     3.60134     0.46853    -0.00000    -0.00000     0.46853
   3      -0.00000    -4.21697    -0.76816     0.00000    -0.00000    -0.76816
   4      -0.00000    -2.83186    -0.93925     0.00000    -0.00000    -0.93925
   5      -0.00000    -1.86008    -0.66171    -0.00000    -0.00000    -0.66171
   6       0.00000     0.00000    -0.00000    -0.00000     0.00000    -0.00000
   7       0.00000     0.00000    -0.00000    -0.00000     0.00000    -0.00000
   8       0.00000     0.00000     0.00000     0.00000    -0.00000     0.00000
   9       0.00000    -0.00000     0.00000     0.00000    -0.00000     0.00000
  10      -0.00000    -0.00000     0.00000     0.00000     0.00000    -0.00000
  11      -0.00000    -0.00000    -0.00000     0.00000    -0.00000    -0.00000
  12       0.00000    -0.00000     0.00000     0.00000     0.00000     0.00000
  13      -0.00000     0.00000     0.00000     0.00000    -0.00000     0.00000
  14       0.00000    -0.00000    -0.00000     0.00000    -0.00000    -0.00000
  15      -0.00000    -0.00000     0.00000     0.00000    -0.00000     0.00000
  16       0.00000     0.00000     0.00000     0.00000     0.00000     0.00000
  17      -0.00000    -0.00000    -0.00000     0.00000     0.00000     0.00000
  18      -0.00000    -0.00000     0.00000     0.00000     0.00000     0.00000
  19      -0.00000     0.00000     0.00000     0.00000    -0.00000     0.00000
  20      -0.00000    -0.00000     0.00000    -0.00000     0.00000     0.00000
  21      -0.00000    -1.88855    -0.69090     0.00000    -0.00000    -0.67919
  22      -0.00000     0.00000     0.00000    -0.00586    -0.00000     0.00000
  23       0.00000    -0.00000    -0.00000    -0.00000    -0.00586    -0.00000
  24      -0.00000    -1.88855    -0.67919     0.00000    -0.00000    -0.69090
  25       0.33640    -0.00000    -0.00000    -0.00000    -0.00000    -0.00000
  26      -0.00000    -1.21575    -0.67919    -0.00000    -0.00000    -0.67919
  27      -0.00000    -0.67919    -0.03046    -0.00000    -0.00000    -0.37638
  28      -0.00000    -0.00000    -0.00000     0.17296    -0.00000    -0.00000
  29      -0.00000    -0.00000    -0.00000    -0.00000     0.17296    -0.00000
  30      -0.00000    -0.67919    -0.37638    -0.00000    -0.00000    -0.03046
  31      -0.00586    -0.00000    -0.00000    -0.00000    -0.00000    -0.00000
  32      -0.00000    -0.69090    -0.37638    -0.00000    -0.00000    -0.37638
  33      -0.00000    -0.00000     0.00000     0.00000     0.00000     0.00000
  34       0.00000    -0.00000     0.00000     0.00000     0.00000     0.00000
  35      -0.00000    -0.00000     0.00000     0.00000     0.00000     0.00000
  36      -0.00000    -0.00000     0.00000     0.00000     0.00000     0.00000
  37      -0.00000    -0.00000     0.00000    -0.00000    -0.00000    -0.00000
  38      -0.00000    -0.00000     0.00000    -0.00000    -0.00000     0.00000
  39       0.00000     0.00000     0.00000     0.00000     0.00000     0.00000
  40      -0.00000    -0.00000    -0.00000    -0.00000     0.00000     0.00000
  41      -0.00000    -0.00000    -0.00000     0.00000    -0.00000     0.00000
  42      -0.00000    -0.00000    -0.00000     0.00000    -0.00000    -0.00000

           31          32          33          34          35          36  
       ----------- ----------- ----------- ----------- ----------- -----------
   1       0.00000    -0.09650    -0.00000     0.00000    -0.00000    -0.00000
   2       0.00000     0.46853     0.00000    -0.00000     0.00000     0.00000
   3      -0.00000    -0.76816     0.00000     0.00000     0.00000     0.00000
   4      -0.00000    -0.93925     0.00000     0.00000     0.00000     0.00000
   5      -0.00000    -0.66171     0.00000     0.00000    -0.00000     0.00000
   6       0.00000    -0.00000    -0.67275     0.00000    -0.00000    -0.22425
   7       0.00000    -0.00000     0.00000    -0.22425    -0.00000     0.00000
   8       0.00000    -0.00000     0.00000    -0.00000    -0.22425    -0.00000
   9       0.00000    -0.00000    -1.38995     0.00000    -0.00000    -0.46332
  10      -0.00000    -0.00000     0.00000    -0.46332    -0.00000     0.00000
  11      -0.00000    -0.00000    -0.00000    -0.00000    -0.46332    -0.00000
  12      -0.00000    -0.00000    -0.99179     0.00000    -0.00000    -0.33060
  13       0.00000    -0.00000     0.00000    -0.33060    -0.00000     0.00000
  14      -0.00000    -0.00000    -0.00000    -0.00000    -0.33060    -0.00000
  15       0.00000     0.00000    -0.39245     0.00000    -0.00000    -0.13082
  16       0.00000     0.00000     0.00000    -0.13082    -0.00000     0.00000
  17       0.00000    -0.00000    -0.00000    -0.00000    -0.13082    -0.00000
  18      -0.00000     0.00000    -0.34305     0.00000    -0.00000    -0.11435
  19       0.00000     0.00000    -0.00000    -0.11435    -0.00000     0.00000
  20       0.00000    -0.00000    -0.00000    -0.00000    -0.11435    -0.00000
  21      -0.00000    -0.67919     0.00000     0.00000     0.00000     0.00000
  22      -0.00000    -0.00000     0.00000     0.00000    -0.00000     0.00000
  23      -0.00000    -0.00000    -0.00000    -0.00000    -0.00000     0.00000
  24      -0.00000    -0.67919     0.00000     0.00000     0.00000     0.00000
  25      -0.00586    -0.00000    -0.00000     0.00000    -0.00000    -0.00000
  26      -0.00000    -0.69090    -0.00000    -0.00000    -0.00000    -0.00000
  27      -0.00000    -0.37638     0.00000     0.00000     0.00000     0.00000
  28      -0.00000    -0.00000     0.00000     0.00000     0.00000     0.00000
  29      -0.00000    -0.00000     0.00000     0.00000     0.00000     0.00000
  30      -0.00000    -0.37638     0.00000     0.00000     0.00000     0.00000
  31       0.17296    -0.00000    -0.00000    -0.00000     0.00000    -0.00000
  32      -0.00000    -0.03046     0.00000    -0.00000    -0.00000     0.00000
  33      -0.00000     0.00000     0.33407    -0.00000    -0.00000    -0.21799
  34      -0.00000    -0.00000    -0.00000     0.25668    -0.00000     0.00000
  35       0.00000    -0.00000    -0.00000    -0.00000     0.25668    -0.00000
  36      -0.00000     0.00000    -0.21799     0.00000    -0.00000     0.25668
  37      -0.00000    -0.00000    -0.00000    -0.00000    -0.00000     0.00000
  38      -0.00000    -0.00000    -0.21799    -0.00000    -0.00000    -0.07266
  39       0.00000     0.00000     0.00000    -0.21799    -0.00000     0.00000
  40       0.00000    -0.00000    -0.00000     0.00000    -0.07266    -0.00000
  41      -0.00000     0.00000    -0.00000    -0.07266    -0.00000    -0.00000
  42       0.00000    -0.00000    -0.00000    -0.00000    -0.21799    -0.00000

           37          38          39          40          41          42  
       ----------- ----------- ----------- ----------- ----------- -----------
   1       0.00000     0.00000     0.00000    -0.00000     0.00000    -0.00000
   2       0.00000     0.00000     0.00000    -0.00000     0.00000     0.00000
   3      -0.00000    -0.00000    -0.00000     0.00000     0.00000    -0.00000
   4      -0.00000    -0.00000     0.00000    -0.00000    -0.00000    -0.00000
   5       0.00000     0.00000     0.00000     0.00000     0.00000    -0.00000
   6      -0.00000    -0.22425     0.00000     0.00000     0.00000    -0.00000
   7       0.00000     0.00000    -0.67275    -0.00000    -0.22425    -0.00000
   8       0.00000    -0.00000    -0.00000    -0.22425    -0.00000    -0.67275
   9       0.00000    -0.46332     0.00000    -0.00000     0.00000    -0.00000
  10      -0.00000     0.00000    -1.38995    -0.00000    -0.46332    -0.00000
  11       0.00000    -0.00000    -0.00000    -0.46332    -0.00000    -1.38995
  12      -0.00000    -0.33060     0.00000    -0.00000     0.00000    -0.00000
  13      -0.00000     0.00000    -0.99179    -0.00000    -0.33060    -0.00000
  14       0.00000    -0.00000    -0.00000    -0.33060    -0.00000    -0.99179
  15      -0.00000    -0.13082     0.00000    -0.00000     0.00000    -0.00000
  16      -0.00000     0.00000    -0.39245    -0.00000    -0.13082    -0.00000
  17       0.00000    -0.00000    -0.00000    -0.13082    -0.00000    -0.39245
  18      -0.00000    -0.11435     0.00000    -0.00000     0.00000    -0.00000
  19      -0.00000     0.00000    -0.34305    -0.00000    -0.11435    -0.00000
  20       0.00000    -0.00000    -0.00000    -0.11435    -0.00000    -0.34305
  21      -0.00000    -0.00000     0.00000     0.00000    -0.00000    -0.00000
  22       0.00000    -0.00000     0.00000    -0.00000    -0.00000     0.00000
  23      -0.00000    -0.00000    -0.00000    -0.00000    -0.00000    -0.00000
  24      -0.00000    -0.00000     0.00000     0.00000     0.00000    -0.00000
  25      -0.00000    -0.00000     0.00000    -0.00000    -0.00000    -0.00000
  26      -0.00000    -0.00000     0.00000    -0.00000    -0.00000    -0.00000
  27       0.00000     0.00000     0.00000    -0.00000    -0.00000    -0.00000
  28      -0.00000    -0.00000     0.00000    -0.00000     0.00000     0.00000
  29      -0.00000    -0.00000     0.00000     0.00000    -0.00000    -0.00000
  30      -0.00000     0.00000     0.00000     0.00000     0.00000    -0.00000
  31      -0.00000    -0.00000     0.00000     0.00000    -0.00000     0.00000
  32      -0.00000    -0.00000     0.00000    -0.00000     0.00000    -0.00000
  33      -0.00000    -0.21799     0.00000    -0.00000    -0.00000    -0.00000
  34      -0.00000    -0.00000    -0.21799     0.00000    -0.07266    -0.00000
  35      -0.00000    -0.00000    -0.00000    -0.07266    -0.00000    -0.21799
  36       0.00000    -0.07266     0.00000    -0.00000    -0.00000    -0.00000
  37       0.16467    -0.00000    -0.00000    -0.00000    -0.00000    -0.00000
  38      -0.00000     0.25668    -0.00000    -0.00000    -0.00000    -0.00000
  39      -0.00000    -0.00000     0.33407    -0.00000    -0.21799     0.00000
  40      -0.00000    -0.00000    -0.00000     0.25668    -0.00000    -0.21799
  41      -0.00000    -0.00000    -0.21799    -0.00000     0.25668    -0.00000
  42      -0.00000    -0.00000     0.00000    -0.21799    -0.00000     0.33407
------g_focks-CO(   1)---END                                                                                                                                                                                                                                   
(ispin,i,eval)=    1    1   -113.77800499  -3096.05870025
(ispin,i,eval)=    1    2    -10.78791177   -293.55417244
(ispin,i,eval)=    1    3     -8.43774665   -229.60289140
(ispin,i,eval)=    1    4     -8.43774665   -229.60289140
(ispin,i,eval)=    1    5     -8.43774665   -229.60289140
(ispin,i,eval)=    1    6     -0.88041945    -23.95744502
(ispin,i,eval)=    1    7     -0.37941389    -10.32438267
(ispin,i,eval)=    1    8     -0.37941389    -10.32438267
(ispin,i,eval)=    1    9     -0.37941389    -10.32438267
(ispin,i,eval)=    1   10      0.23598038      6.42135620
(ispin,i,eval)=    1   11      0.32493482      8.84193097
(ispin,i,eval)=    1   12      0.32493482      8.84193097
(ispin,i,eval)=    1   13      0.32493482      8.84193097
(ispin,i,eval)=    1   14      0.41236369     11.22099281
(ispin,i,eval)=    1   15      0.41236369     11.22099281
(ispin,i,eval)=    1   16      0.41236369     11.22099281
(ispin,i,eval)=    1   17      0.41236369     11.22099281
(ispin,i,eval)=    1   18      0.41236369     11.22099281
(ispin,i,eval)=    1   19      1.62021521     44.08832254
(ispin,i,eval)=    1   20      1.67585754     45.60242828
(ispin,i,eval)=    1   21      1.67585754     45.60242828
(ispin,i,eval)=    1   22      1.67585754     45.60242828
(ispin,i,eval)=    1   23      1.87604895     51.04991672
(ispin,i,eval)=    1   24      1.87604895     51.04991672
(ispin,i,eval)=    1   25      1.87604895     51.04991672
(ispin,i,eval)=    1   26      1.87604895     51.04991672
(ispin,i,eval)=    1   27      1.87604895     51.04991672
(ispin,i,eval)=    1   28      2.47007384     67.21416503
(ispin,i,eval)=    1   29      2.47007384     67.21416503
(ispin,i,eval)=    1   30      2.47007384     67.21416503
(ispin,i,eval)=    1   31      2.47007384     67.21416503
(ispin,i,eval)=    1   32      2.47007384     67.21416503
(ispin,i,eval)=    1   33      2.47007384     67.21416503
(ispin,i,eval)=    1   34      2.47007384     67.21416503
(ispin,i,eval)=    1   35      4.70616059    128.06121397
(ispin,i,eval)=    1   36      4.70616059    128.06121397
(ispin,i,eval)=    1   37      4.70616059    128.06121397
(ispin,i,eval)=    1   38     14.76803546    401.85890646
(ispin,i,eval)=    1   39     14.76803546    401.85890646
(ispin,i,eval)=    1   40     14.76803546    401.85890646
(ispin,i,eval)=    1   41     15.50137991    421.81423503
(ispin,i,eval)=    1   42     39.31223071   1069.74079848
 BEF localize_sic
            Foster-Boys orbital localization for the SIC approximation
            ----------------------------------------------------------

           iter   Max. dipole2   Mean dipole2    Converge
           ----   ------------   ------------   ---------
(iter,dmax,d/n,d0/n,gamma_max,(d-d0)/n,tol)=   1      0.00000000      0.00000000      0.00000000      0.00000000      0.00000000      0.00000001
              1       0.00000000       0.00000000    0.00D+00
(iter,dmax,d/n,d0/n,gamma_max,(d-d0)/n,tol)=   2      0.62244335      0.20718497      0.00000000      0.78539816      0.20718497      0.00000001
              2       0.62244335       0.20718497    7.85D-01
(iter,dmax,d/n,d0/n,gamma_max,(d-d0)/n,tol)=   3      0.63743128      0.25565335      0.00000000      0.77121218      0.25565335      0.00000001
              3       0.63743128       0.25565335    7.71D-01
(iter,dmax,d/n,d0/n,gamma_max,(d-d0)/n,tol)=   4      0.56657949      0.26370394      0.00000000      0.17257430      0.26370394      0.00000001
              4       0.56657949       0.26370394    1.73D-01
(iter,dmax,d/n,d0/n,gamma_max,(d-d0)/n,tol)=   5      0.56286269      0.26443229      0.00000000      0.07284414      0.26443229      0.00000001
              5       0.56286269       0.26443229    7.28D-02
(iter,dmax,d/n,d0/n,gamma_max,(d-d0)/n,tol)=   6      0.55935772      0.26449745      0.00000000      0.01401939      0.26449745      0.00000001
              6       0.55935772       0.26449745    1.40D-02
(iter,dmax,d/n,d0/n,gamma_max,(d-d0)/n,tol)=   7      0.55853741      0.26450196      0.00000000      0.00376433      0.26450196      0.00000001
              7       0.55853741       0.26450196    3.76D-03
(iter,dmax,d/n,d0/n,gamma_max,(d-d0)/n,tol)=   8      0.55832075      0.26450226      0.00000000      0.00139387      0.26450226      0.00000001
              8       0.55832075       0.26450226    1.39D-03
(iter,dmax,d/n,d0/n,gamma_max,(d-d0)/n,tol)=   9      0.55826672      0.26450228      0.00000000      0.00041113      0.26450228      0.00000001
              9       0.55826672       0.26450228    4.11D-04
(iter,dmax,d/n,d0/n,gamma_max,(d-d0)/n,tol)=  10      0.55825321      0.26450228      0.00000000      0.00008570      0.26450228      0.00000001
             10       0.55825321       0.26450228    8.57D-05
(iter,dmax,d/n,d0/n,gamma_max,(d-d0)/n,tol)=  11      0.55824983      0.26450228      0.00000000      0.00001894      0.26450228      0.00000001
             11       0.55824983       0.26450228    1.89D-05
(iter,dmax,d/n,d0/n,gamma_max,(d-d0)/n,tol)=  12      0.55824899      0.26450228      0.00000000      0.00000877      0.26450228      0.00000001
             12       0.55824899       0.26450228    8.77D-06
(iter,dmax,d/n,d0/n,gamma_max,(d-d0)/n,tol)=  13      0.55824878      0.26450228      0.00000000      0.00000213      0.26450228      0.00000001
             13       0.55824878       0.26450228    2.13D-06
(iter,dmax,d/n,d0/n,gamma_max,(d-d0)/n,tol)=  14      0.55824872      0.26450228      0.00000000      0.00000050      0.26450228      0.00000001
             14       0.55824872       0.26450228    5.02D-07
(iter,dmax,d/n,d0/n,gamma_max,(d-d0)/n,tol)=  15      0.55824871      0.26450228      0.00000000      0.00000012      0.26450228      0.00000001
             15       0.55824871       0.26450228    1.18D-07
(iter,dmax,d/n,d0/n,gamma_max,(d-d0)/n,tol)=  16      0.55824871      0.26450228      0.00000000      0.00000005      0.26450228      0.00000001
             16       0.55824871       0.26450228    5.24D-08
(iter,dmax,d/n,d0/n,gamma_max,(d-d0)/n,tol)=  17      0.55824871      0.26450228      0.00000000      0.00000001      0.26450228      0.00000001
             17       0.55824871       0.26450228    1.05D-08
(iter,dmax,d/n,d0/n,gamma_max,(d-d0)/n,tol)=  18      0.55824871      0.26450228      0.00000000      0.00000000      0.26450228      0.00000001
             18       0.55824871       0.26450228    0.00D+00
 In localize_FA:: flag2rdctr=                    0
 Writing centroids_FB.xyz

    9     1( 1.00)
    8     1( 1.00)
    7     1( 1.00)
    6     1( 1.00)
    5     1( 1.00)
    4     1( 1.00)
    3     1( 1.00)
    2     1( 1.00)
    1     1( 1.00)
 AFT localize_sic
 ------------------------------------------------------------------------
 stop-testing-localize_sic_FA                   0
 stop-testing-localize_sic_FA                   0
 ------------------------------------------------------------------------
 stop-testing-localize_sic_FA                   0
 ------------------------------------------------------------------------
 ------------------------------------------------------------------------
  current input line : 
     0: 
 ------------------------------------------------------------------------
 ------------------------------------------------------------------------
 ------------------------------------------------------------------------
  current input line : 
     0: 
 ------------------------------------------------------------------------
 ------------------------------------------------------------------------
 ------------------------------------------------------------------------
 For more information see the NWChem manual at http://www.nwchem-sw.org/index.php/NWChem_Documentation


 For further details see manual section:                                                                                                                                                                                                                                                                
 ------------------------------------------------------------------------
 ------------------------------------------------------------------------
 For more information see the NWChem manual at http://www.nwchem-sw.org/index.php/NWChem_Documentation


 For further details see manual section:                                                                                                                                                                                                                                                                
2:stop-testing-localize_sic_FA:Received an Error in Communication
3:stop-testing-localize_sic_FA:Received an Error in Communication
 ------------------------------------------------------------------------
  current input line : 
    44: TASK DFT ENERGY
 ------------------------------------------------------------------------
 ------------------------------------------------------------------------
 ------------------------------------------------------------------------
 For more information see the NWChem manual at http://www.nwchem-sw.org/index.php/NWChem_Documentation


 For further details see manual section:                                                                                                                                                                                                                                                                
0:stop-testing-localize_sic_FA:Received an Error in Communication
--------------------------------------------------------------------------
MPI_ABORT was invoked on rank 3 in communicator MPI COMMUNICATOR 3 DUP FROM 0 
with errorcode -1.

NOTE: invoking MPI_ABORT causes Open MPI to kill all MPI processes.
You may or may not see output from other processes, depending on
exactly when Open MPI kills them.
--------------------------------------------------------------------------
 stop-testing-localize_sic_FA                   0
 ------------------------------------------------------------------------
 ------------------------------------------------------------------------
  current input line : 
     0: 
 ------------------------------------------------------------------------
 ------------------------------------------------------------------------
 ------------------------------------------------------------------------
 For more information see the NWChem manual at http://www.nwchem-sw.org/index.php/NWChem_Documentation


 For further details see manual section:                                                                                                                                                                                                                                                                
1:stop-testing-localize_sic_FA:Received an Error in Communication
[fa-Inspiron-3650:23193] 3 more processes have sent help message help-mpi-api.txt / mpi-abort
[fa-Inspiron-3650:23193] Set MCA parameter "orte_base_help_aggregate" to 0 to see all help / error messages
